[06/04/2022 15:36:42:144] Participant ID: 0
[06/04/2022 15:36:42:144] Session: Actual
[06/04/2022 15:36:42:144] Scene: Scene 2
[06/04/2022 15:36:42:144] Audio: Mono
[06/04/2022 15:36:42:144] Loading video from file: C:/windows_build/Videos/Scene2.mp4
[06/04/2022 15:36:42:145] Got SAGAT times: 127s and 265s
[06/04/2022 15:36:42:145] RightAnswerTask: Ready
[06/04/2022 15:36:48:864] left pressed
[06/04/2022 15:36:48:866] Camera angle: 336.6667
[06/04/2022 15:36:48:951] left pressed
[06/04/2022 15:36:49:19] Camera angle: 331.0168
[06/04/2022 15:36:49:54] left released
[06/04/2022 15:36:49:385] left pressed
[06/04/2022 15:36:49:423] Camera angle: 325.9334
[06/04/2022 15:36:49:610] left released
[06/04/2022 15:36:49:776] left pressed
[06/04/2022 15:36:49:811] Camera angle: 319.9027
[06/04/2022 15:36:49:883] Camera angle: 314.8607
[06/04/2022 15:36:49:956] Camera angle: 309.7243
[06/04/2022 15:36:50:34] Camera angle: 304.3642
[06/04/2022 15:36:50:114] Camera angle: 298.7334
[06/04/2022 15:36:50:199] Camera angle: 292.7742
[06/04/2022 15:36:50:243] left released
[06/04/2022 15:36:52:390] left pressed
[06/04/2022 15:36:52:390] Camera angle: 269.4409
[06/04/2022 15:36:52:563] right pressed
[06/04/2022 15:36:52:630] Camera angle: 275.0143
[06/04/2022 15:36:52:699] right released
[06/04/2022 15:36:53:122] right pressed
[06/04/2022 15:36:53:123] Camera angle: 290.8058
[06/04/2022 15:36:53:500] left pressed
[06/04/2022 15:36:53:539] Camera angle: 285.4953
[06/04/2022 15:36:53:617] left released
[06/04/2022 15:36:53:930] left pressed
[06/04/2022 15:36:53:930] Camera angle: 279.3688
[06/04/2022 15:36:54:64] left released
[06/04/2022 15:36:54:233] left pressed
[06/04/2022 15:36:54:233] Camera angle: 270.2041
[06/04/2022 15:36:54:323] left released
[06/04/2022 15:36:54:607] left pressed
[06/04/2022 15:36:54:607] Camera angle: 263.0712
[06/04/2022 15:36:54:740] left released
[06/04/2022 15:36:56:22] left pressed
[06/04/2022 15:36:56:22] Camera angle: 235.1105
[06/04/2022 15:36:56:965] left pressed
[06/04/2022 15:36:56:965] Camera angle: 211.7771
[06/04/2022 15:36:57:818] left pressed
[06/04/2022 15:36:57:819] Camera angle: 188.4438
[06/04/2022 15:36:58:642] left released
[06/04/2022 15:36:58:682] right pressed
[06/04/2022 15:36:58:724] Camera angle: 193.5455
[06/04/2022 15:36:58:775] right released
[06/04/2022 15:36:59:143] left pressed
[06/04/2022 15:36:59:255] left released
[06/04/2022 15:36:59:449] left pressed
[06/04/2022 15:36:59:450] Camera angle: 186.3034
[06/04/2022 15:36:59:549] Camera angle: 179.2978
[06/04/2022 15:36:59:655] Camera angle: 171.9386
[06/04/2022 15:36:59:729] Camera angle: 166.7438
[06/04/2022 15:36:59:803] Camera angle: 161.5193
[06/04/2022 15:36:59:882] Camera angle: 156.0542
[06/04/2022 15:36:59:964] Camera angle: 150.2619
[06/04/2022 15:37:00:49] Camera angle: 144.3265
[06/04/2022 15:37:00:145] Camera angle: 137.6003
[06/04/2022 15:37:00:198] left released
[06/04/2022 15:37:00:438] left pressed
[06/04/2022 15:37:00:438] Camera angle: 130.5143
[06/04/2022 15:37:00:528] Camera angle: 124.2445
[06/04/2022 15:37:00:611] Camera angle: 118.3824
[06/04/2022 15:37:00:697] Camera angle: 112.434
[06/04/2022 15:37:00:783] Camera angle: 106.4004
[06/04/2022 15:37:00:870] Camera angle: 100.2675
[06/04/2022 15:37:00:956] Camera angle: 94.26937
[06/04/2022 15:37:01:48] Camera angle: 87.80096
[06/04/2022 15:37:01:146] Camera angle: 80.98751
[06/04/2022 15:37:01:278] Camera angle: 71.719
[06/04/2022 15:37:01:411] left released
[06/04/2022 15:37:02:326] left pressed
[06/04/2022 15:37:02:326] Camera angle: 43.74734
[06/04/2022 15:37:03:210] left pressed
[06/04/2022 15:37:03:210] Camera angle: 20.41401
[06/04/2022 15:37:03:297] left pressed
[06/04/2022 15:37:03:326] Camera angle: 14.52987
[06/04/2022 15:37:03:365] left released
[06/04/2022 15:37:03:743] left pressed
[06/04/2022 15:37:03:793] Camera angle: 7.385958
[06/04/2022 15:37:03:798] left released
[06/04/2022 15:37:04:709] left pressed
[06/04/2022 15:37:04:709] Camera angle: 344.0526
[06/04/2022 15:37:05:561] left pressed
[06/04/2022 15:37:05:561] Camera angle: 320.7193
[06/04/2022 15:37:06:431] right pressed
[06/04/2022 15:37:06:432] Camera angle: 344.0526
[06/04/2022 15:37:07:277] left pressed
[06/04/2022 15:37:07:277] Camera angle: 320.7193
[06/04/2022 15:37:07:827] right pressed
[06/04/2022 15:37:07:827] Camera angle: 332.1028
[06/04/2022 15:37:08:852] right pressed
[06/04/2022 15:37:08:854] Camera angle: 355.4361
[06/04/2022 15:37:15:783] right pressed
[06/04/2022 15:37:15:783] Camera angle: 18.76942
[06/04/2022 15:37:16:862] right pressed
[06/04/2022 15:37:16:862] Camera angle: 42.10276
[06/04/2022 15:37:17:976] left pressed
[06/04/2022 15:37:18:183] left released
[06/04/2022 15:37:19:77] left pressed
[06/04/2022 15:37:19:77] Camera angle: 15.25068
[06/04/2022 15:37:19:368] left pressed
[06/04/2022 15:37:19:422] left released
[06/04/2022 15:37:22:117] left pressed
[06/04/2022 15:37:22:134] Camera angle: 9.960049
[06/04/2022 15:37:22:180] left released
[06/04/2022 15:37:22:803] left pressed
[06/04/2022 15:37:22:803] Camera angle: 355.9259
[06/04/2022 15:37:22:847] left released
[06/04/2022 15:37:41:18] right pressed
[06/04/2022 15:37:41:67] right released
[06/04/2022 15:37:51:375] right pressed
[06/04/2022 15:37:51:375] Camera angle: 22.63792
[06/04/2022 15:37:52:223] right pressed
[06/04/2022 15:37:52:223] Camera angle: 45.97125
[06/04/2022 15:37:52:819] right pressed
[06/04/2022 15:37:53:655] right released
[06/04/2022 15:37:53:948] right pressed
[06/04/2022 15:37:53:986] Camera angle: 51.07742
[06/04/2022 15:37:54:20] right released
[06/04/2022 15:37:54:371] right pressed
[06/04/2022 15:37:54:371] Camera angle: 64.81776
[06/04/2022 15:37:54:446] right pressed
[06/04/2022 15:37:54:512] Camera angle: 71.7
[06/04/2022 15:37:54:545] right released
[06/04/2022 15:37:54:651] right pressed
[06/04/2022 15:37:54:686] Camera angle: 76.72424
[06/04/2022 15:37:54:722] right released
[06/04/2022 15:37:54:879] right pressed
[06/04/2022 15:37:54:919] Camera angle: 82.41763
[06/04/2022 15:37:54:961] right released
[06/04/2022 15:37:55:99] right pressed
[06/04/2022 15:37:55:150] right released
[06/04/2022 15:37:55:280] right pressed
[06/04/2022 15:37:55:280] Camera angle: 90.81924
[06/04/2022 15:37:55:365] right released
[06/04/2022 15:37:55:444] right pressed
[06/04/2022 15:37:55:444] Camera angle: 96.288
[06/04/2022 15:37:55:525] right released
[06/04/2022 15:37:55:694] right pressed
[06/04/2022 15:37:55:695] Camera angle: 102.3259
[06/04/2022 15:37:55:782] right released
[06/04/2022 15:37:56:58] right pressed
[06/04/2022 15:37:56:58] Camera angle: 109.4653
[06/04/2022 15:37:56:190] right pressed
[06/04/2022 15:37:56:256] right released
[06/04/2022 15:37:56:387] right pressed
[06/04/2022 15:37:56:388] Camera angle: 118.7217
[06/04/2022 15:37:56:453] right released
[06/04/2022 15:37:56:560] right pressed
[06/04/2022 15:37:56:560] Camera angle: 126.1774
[06/04/2022 15:37:57:419] right pressed
[06/04/2022 15:37:57:420] Camera angle: 150.6605
[06/04/2022 15:37:58:299] right pressed
[06/04/2022 15:37:58:299] Camera angle: 176.882
[06/04/2022 15:37:58:675] right pressed
[06/04/2022 15:37:58:675] Camera angle: 188.6231
[06/04/2022 15:37:58:732] right released
[06/04/2022 15:37:59:590] right pressed
[06/04/2022 15:37:59:590] Camera angle: 211.9564
[06/04/2022 15:38:00:436] right pressed
[06/04/2022 15:38:00:436] Camera angle: 235.2897
[06/04/2022 15:38:01:255] right pressed
[06/04/2022 15:38:01:257] Camera angle: 258.6231
[06/04/2022 15:38:02:73] right pressed
[06/04/2022 15:38:02:73] Camera angle: 281.9564
[06/04/2022 15:38:02:391] right pressed
[06/04/2022 15:38:02:459] right released
[06/04/2022 15:38:03:432] right pressed
[06/04/2022 15:38:03:433] Camera angle: 310.0448
[06/04/2022 15:38:04:844] right pressed
[06/04/2022 15:38:04:844] Camera angle: 333.3782
[06/04/2022 15:38:05:726] right pressed
[06/04/2022 15:38:05:726] Camera angle: 356.7115
[06/04/2022 15:38:21:143] Quiz question: <What country was previously called Formosa>, Target: <Amy>, Distractor: <Paul>, Target_Answer: <Taiwan>, Distractor_Answer: <Indonesia>, Target_correct: <True>
[06/04/2022 15:38:21:144] RightAnswerTask: Showing onscreen question 1
[06/04/2022 15:38:25:636] RightAnswerTask: Correct answer 1 logged (Target correct, A pressed)
[06/04/2022 15:38:41:425] Quiz question: <How many chukkers are there in a polo match?>, Target: <Emma>, Distractor: <Michael>, Target_Answer: <4>, Distractor_Answer: <6>, Target_correct: <False>
[06/04/2022 15:38:41:425] RightAnswerTask: Showing onscreen question 2
[06/04/2022 15:38:43:689] RightAnswerTask: Correct answer 2 logged (Distractor correct, A pressed)
[06/04/2022 15:38:50:435] Starting SAGAT 1
[06/04/2022 15:38:50:436] SAGAT question loaded: "What was the most recent quiz question?" Answers: What is the tallest building in Europe? ; [How many chukkers are there in a polo match?] ; What pigment is mercurial sulfate? ; How many players are there in a cricket match? ; What continent covers four hemispheres? ; How long is the longest river in the UK? ; )
[06/04/2022 15:38:55:46] Toggle pressed: How many chukkers are there in a polo match?
[06/04/2022 15:38:57:361] SAGAT answer given: "How many chukkers are there in a polo match?" (correct; "How many chukkers are there in a polo match?")
[06/04/2022 15:38:57:362] SAGAT question loaded: "Who is the quiz master?" Answers: [Megan] ; Michael ; Amy ; Emma ; Paul ; Carol ; )
[06/04/2022 15:39:03:571] Toggle pressed: Megan
[06/04/2022 15:39:06:582] Toggle pressed: Megan
[06/04/2022 15:39:07:632] SAGAT answer given: "Megan" (correct; "Megan")
[06/04/2022 15:39:07:635] SAGAT question loaded: "Identify one person who was in your field of view just before the simulation paused." Answers: Emma ; Paul ; Carol ; Michael ; Megan ; Amy ; )
[06/04/2022 15:39:17:490] Toggle pressed: Megan
[06/04/2022 15:39:18:731] SAGAT answer given: "Megan" (correct; "Megan|Michael|Paul")
[06/04/2022 15:39:18:733] SAGAT question loaded: "Who is sitting two seats to the right of the quiz master (your right)?" Answers: Michael ; Megan ; Amy ; Carol ; Paul ; [Emma] ; )
[06/04/2022 15:39:26:711] Toggle pressed: Emma
[06/04/2022 15:39:28:657] SAGAT answer given: "Emma" (correct; "Emma")
[06/04/2022 15:39:28:659] SAGAT question loaded: "What is the colour of the quiz master's shirt?" Answers: White ; Brown ; [Green] ; Yellow ; Black ; Blue ; )
[06/04/2022 15:39:31:629] Toggle pressed: Green
[06/04/2022 15:39:33:924] SAGAT answer given: "Green" (correct; "Green")
[06/04/2022 15:39:33:924] SAGAT Complete
[06/04/2022 15:39:37:183] right pressed
[06/04/2022 15:39:37:183] Camera angle: 20.04485
[06/04/2022 15:39:38:0] right released
[06/04/2022 15:39:39:377] left pressed
[06/04/2022 15:39:39:377] Camera angle: 357.4508
[06/04/2022 15:39:46:424] Quiz question: <Dendrophobia is fear of what>, Target: <Carol>, Distractor: <Michael>, Target_Answer: <Trees>, Distractor_Answer: <Teeth>, Target_correct: <True>
[06/04/2022 15:39:46:425] RightAnswerTask: Showing onscreen question 3
[06/04/2022 15:39:49:973] RightAnswerTask: Correct answer 3 logged (Target correct, A pressed)
[06/04/2022 15:40:07:473] Quiz question: <What was the first movie to be rated PG-13>, Target: <Michael>, Distractor: <Carol>, Target_Answer: <Gone with the Wind>, Distractor_Answer: <Red Dawn>, Target_correct: <False>
[06/04/2022 15:40:07:473] RightAnswerTask: Showing onscreen question 4
[06/04/2022 15:40:09:335] RightAnswerTask: Correct answer 4 logged (Distractor correct, A pressed)
[06/04/2022 15:40:27:880] Quiz question: <What is the surface area of the Earth?>, Target: <Paul>, Distractor: <Emma>, Target_Answer: <510 million km>, Distractor_Answer: <197 million km>, Target_correct: <True>
[06/04/2022 15:40:27:880] RightAnswerTask: Showing onscreen question 5
[06/04/2022 15:40:31:13] RightAnswerTask: Correct answer 5 logged (Target correct, D pressed)
[06/04/2022 15:40:46:433] Quiz question: <When was the first digital computer invented>, Target: <Amy>, Distractor: <Michael>, Target_Answer: <1960>, Distractor_Answer: <1946>, Target_correct: <False>
[06/04/2022 15:40:46:433] RightAnswerTask: Showing onscreen question 6
[06/04/2022 15:40:47:575] RightAnswerTask: Correct answer 6 logged (Distractor correct, A pressed)
[06/04/2022 15:41:07:432] Quiz question: <What species of land animal has the largest eyes>, Target: <Paul>, Distractor: <Emma>, Target_Answer: <Elephant>, Distractor_Answer: <Ostrich>, Target_correct: <False>
[06/04/2022 15:41:07:432] RightAnswerTask: Showing onscreen question 7
[06/04/2022 15:41:08:452] RightAnswerTask: Correct answer 7 logged (Distractor correct, A pressed)
[06/04/2022 15:41:25:432] Quiz question: <Who was the first performer at Woodstock>, Target: <Emma>, Distractor: <Paul>, Target_Answer: <Fleetwood Mac>, Distractor_Answer: <Richie Havens>, Target_correct: <False>
[06/04/2022 15:41:25:432] RightAnswerTask: Showing onscreen question 8
[06/04/2022 15:41:27:188] RightAnswerTask: Correct answer 8 logged (Distractor correct, A pressed)
[06/04/2022 15:41:46:422] Quiz question: <Where are the most Trappist breweries>, Target: <Michael>, Distractor: <Carol>, Target_Answer: <Denmark>, Distractor_Answer: <Belgium>, Target_correct: <False>
[06/04/2022 15:41:46:423] RightAnswerTask: Showing onscreen question 9
[06/04/2022 15:41:48:132] RightAnswerTask: Correct answer 9 logged (Distractor correct, D pressed)
[06/04/2022 15:41:51:418] Starting SAGAT 2
[06/04/2022 15:41:51:419] SAGAT question loaded: "Who was asked to answer a question most recently?" Answers: Megan ; Emma ; Amy ; Paul ; Carol ; [Michael] ; )
[06/04/2022 15:41:55:427] Toggle pressed: Michael
[06/04/2022 15:41:56:567] SAGAT answer given: "Michael" (correct; "Michael")
[06/04/2022 15:41:56:568] SAGAT question loaded: "Who last answered incorrectly?" Answers: [Michael] ; Megan ; Amy ; Paul ; Carol ; Emma ; )
[06/04/2022 15:41:59:196] Toggle pressed: Michael
[06/04/2022 15:42:00:394] SAGAT answer given: "Michael" (correct; "Michael")
[06/04/2022 15:42:00:395] SAGAT question loaded: "Who last answered correctly?" Answers: [Carol] ; Megan ; Emma ; Amy ; Paul ; Michael ; )
[06/04/2022 15:42:03:909] Toggle pressed: Carol
[06/04/2022 15:42:04:828] SAGAT answer given: "Carol" (correct; "Carol")
[06/04/2022 15:42:04:828] SAGAT question loaded: "Who is sitting two seats to the left of the quiz master (your left)?" Answers: Emma ; Megan ; Michael ; Paul ; Amy ; [Carol] ; )
[06/04/2022 15:42:08:756] Toggle pressed: Carol
[06/04/2022 15:42:09:803] SAGAT answer given: "Carol" (correct; "Carol")
[06/04/2022 15:42:09:803] SAGAT question loaded: "What is the colour of the quiz master's shirt?" Answers: Black ; Blue ; [Green] ; Yellow ; White ; Brown ; )
[06/04/2022 15:42:12:356] Toggle pressed: Green
[06/04/2022 15:42:12:964] SAGAT answer given: "Green" (correct; "Green")
[06/04/2022 15:42:12:964] SAGAT Complete
[06/04/2022 15:42:28:4] Quiz question: <How many countries are there in the Southern Hemisphere>, Target: <Emma>, Distractor: <Paul>, Target_Answer: <35>, Distractor_Answer: <32>, Target_correct: <False>
[06/04/2022 15:42:28:4] RightAnswerTask: Showing onscreen question 10
[06/04/2022 15:42:29:638] RightAnswerTask: Incorrect answer 10 logged (Distractor correct, D pressed)
[06/04/2022 15:42:37:318] Video finished
[06/04/2022 15:46:25:158] Escape pressed during experiment
[06/04/2022 15:46:25:159] Log creation for experiment proper...
