[11/04/2022 16:30:53:716] Participant ID: 26
[11/04/2022 16:30:53:716] Session: Actual
[11/04/2022 16:30:53:716] Scene: Scene 1
[11/04/2022 16:30:53:717] Audio: Mono
[11/04/2022 16:30:53:717] Loading video from file: C:/windows_build/Videos/Scene1.mp4
[11/04/2022 16:30:53:717] Got SAGAT times: 192s and 317s
[11/04/2022 16:30:53:717] RightAnswerTask: Ready
[11/04/2022 16:30:55:666] left pressed
[11/04/2022 16:30:55:736] Camera angle: 354.8653
[11/04/2022 16:30:55:762] left released
[11/04/2022 16:30:56:258] left pressed
[11/04/2022 16:30:56:303] Camera angle: 349.7823
[11/04/2022 16:30:56:376] Camera angle: 344.6369
[11/04/2022 16:30:56:449] Camera angle: 339.5002
[11/04/2022 16:30:56:521] Camera angle: 334.4799
[11/04/2022 16:30:56:593] Camera angle: 329.4561
[11/04/2022 16:30:56:667] Camera angle: 324.3181
[11/04/2022 16:30:56:706] left released
[11/04/2022 16:30:57:75] right pressed
[11/04/2022 16:30:57:182] Camera angle: 329.4033
[11/04/2022 16:30:57:254] Camera angle: 334.4219
[11/04/2022 16:30:57:325] Camera angle: 339.4463
[11/04/2022 16:30:57:397] Camera angle: 344.4647
[11/04/2022 16:30:57:471] Camera angle: 349.6036
[11/04/2022 16:30:57:544] Camera angle: 354.7455
[11/04/2022 16:30:57:618] Camera angle: 359.8824
[11/04/2022 16:30:57:691] Camera angle: 5.024253
[11/04/2022 16:30:57:764] Camera angle: 10.15976
[11/04/2022 16:30:57:838] Camera angle: 15.29616
[11/04/2022 16:30:57:909] Camera angle: 20.32026
[11/04/2022 16:30:57:981] Camera angle: 25.34136
[11/04/2022 16:30:58:54] Camera angle: 30.41883
[11/04/2022 16:30:58:128] Camera angle: 35.61732
[11/04/2022 16:30:58:178] right released
[11/04/2022 16:30:59:74] right pressed
[11/04/2022 16:30:59:99] Camera angle: 40.71825
[11/04/2022 16:30:59:172] Camera angle: 45.85594
[11/04/2022 16:30:59:246] Camera angle: 50.99948
[11/04/2022 16:30:59:317] Camera angle: 56.01703
[11/04/2022 16:30:59:389] Camera angle: 61.0375
[11/04/2022 16:30:59:461] Camera angle: 66.06575
[11/04/2022 16:30:59:533] Camera angle: 71.08627
[11/04/2022 16:30:59:606] Camera angle: 76.22244
[11/04/2022 16:30:59:678] Camera angle: 81.24255
[11/04/2022 16:30:59:750] Camera angle: 86.26729
[11/04/2022 16:30:59:821] Camera angle: 91.28773
[11/04/2022 16:30:59:893] Camera angle: 96.31239
[11/04/2022 16:30:59:967] Camera angle: 101.4491
[11/04/2022 16:31:00:40] Camera angle: 106.5873
[11/04/2022 16:31:00:98] right released
[11/04/2022 16:31:00:420] right pressed
[11/04/2022 16:31:00:434] Camera angle: 111.6133
[11/04/2022 16:31:00:507] Camera angle: 116.742
[11/04/2022 16:31:00:531] right released
[11/04/2022 16:31:00:771] right pressed
[11/04/2022 16:31:00:817] Camera angle: 121.7709
[11/04/2022 16:31:00:853] right released
[11/04/2022 16:31:01:251] right pressed
[11/04/2022 16:31:01:288] Camera angle: 126.7939
[11/04/2022 16:31:01:360] Camera angle: 131.8228
[11/04/2022 16:31:01:432] Camera angle: 136.9019
[11/04/2022 16:31:01:505] Camera angle: 141.9788
[11/04/2022 16:31:01:578] Camera angle: 147.1239
[11/04/2022 16:31:01:652] Camera angle: 152.2581
[11/04/2022 16:31:01:723] Camera angle: 157.2757
[11/04/2022 16:31:01:797] Camera angle: 162.4219
[11/04/2022 16:31:01:868] Camera angle: 167.4365
[11/04/2022 16:31:01:892] right released
[11/04/2022 16:31:02:178] right pressed
[11/04/2022 16:31:02:227] Camera angle: 172.454
[11/04/2022 16:31:02:300] Camera angle: 177.542
[11/04/2022 16:31:02:372] Camera angle: 182.619
[11/04/2022 16:31:02:446] Camera angle: 187.7614
[11/04/2022 16:31:02:519] Camera angle: 192.8928
[11/04/2022 16:31:02:564] right released
[11/04/2022 16:31:02:898] left pressed
[11/04/2022 16:31:03:10] Camera angle: 187.7602
[11/04/2022 16:31:03:81] Camera angle: 182.7343
[11/04/2022 16:31:03:153] Camera angle: 177.7184
[11/04/2022 16:31:03:226] Camera angle: 172.5794
[11/04/2022 16:31:03:300] Camera angle: 167.4373
[11/04/2022 16:31:03:373] Camera angle: 162.3011
[11/04/2022 16:31:03:444] Camera angle: 157.2751
[11/04/2022 16:31:03:518] Camera angle: 152.2
[11/04/2022 16:31:03:591] Camera angle: 147.0638
[11/04/2022 16:31:03:665] Camera angle: 141.8604
[11/04/2022 16:31:03:737] Camera angle: 136.8409
[11/04/2022 16:31:03:810] Camera angle: 131.7059
[11/04/2022 16:31:03:882] Camera angle: 126.6792
[11/04/2022 16:31:03:954] Camera angle: 121.6608
[11/04/2022 16:31:04:27] Camera angle: 116.5259
[11/04/2022 16:31:04:99] Camera angle: 111.5003
[11/04/2022 16:31:04:171] Camera angle: 106.4782
[11/04/2022 16:31:04:245] Camera angle: 101.2822
[11/04/2022 16:31:04:317] Camera angle: 96.20525
[11/04/2022 16:31:04:390] Camera angle: 91.12115
[11/04/2022 16:31:04:462] Camera angle: 86.10524
[11/04/2022 16:31:04:535] Camera angle: 80.96124
[11/04/2022 16:31:04:608] Camera angle: 75.88046
[11/04/2022 16:31:04:679] Camera angle: 70.86247
[11/04/2022 16:31:04:751] Camera angle: 65.83915
[11/04/2022 16:31:04:823] Camera angle: 60.81633
[11/04/2022 16:31:04:895] Camera angle: 55.79555
[11/04/2022 16:31:04:967] Camera angle: 50.76956
[11/04/2022 16:31:05:38] Camera angle: 45.75378
[11/04/2022 16:31:05:112] Camera angle: 40.61461
[11/04/2022 16:31:05:185] Camera angle: 35.47722
[11/04/2022 16:31:05:259] Camera angle: 30.33937
[11/04/2022 16:31:05:330] Camera angle: 25.30659
[11/04/2022 16:31:05:402] Camera angle: 20.28882
[11/04/2022 16:31:05:475] left released
[11/04/2022 16:31:05:842] left pressed
[11/04/2022 16:31:05:843] Camera angle: 15.15388
[11/04/2022 16:31:05:913] Camera angle: 10.13535
[11/04/2022 16:31:05:956] left released
[11/04/2022 16:31:06:276] left pressed
[11/04/2022 16:31:06:306] Camera angle: 5.107532
[11/04/2022 16:31:06:370] left released
[11/04/2022 16:31:07:265] left pressed
[11/04/2022 16:31:07:274] Camera angle: 0.08335232
[11/04/2022 16:31:07:346] Camera angle: 355.0635
[11/04/2022 16:31:07:417] Camera angle: 350.0439
[11/04/2022 16:31:07:491] Camera angle: 344.9043
[11/04/2022 16:31:07:564] Camera angle: 339.7689
[11/04/2022 16:31:07:636] Camera angle: 334.7398
[11/04/2022 16:31:07:709] Camera angle: 329.6086
[11/04/2022 16:31:07:781] Camera angle: 324.5844
[11/04/2022 16:31:07:854] Camera angle: 319.444
[11/04/2022 16:31:07:928] Camera angle: 314.3077
[11/04/2022 16:31:07:988] left released
[11/04/2022 16:31:08:625] left pressed
[11/04/2022 16:31:08:639] Camera angle: 309.2836
[11/04/2022 16:31:08:711] Camera angle: 304.2098
[11/04/2022 16:31:08:722] left released
[11/04/2022 16:31:09:507] left pressed
[11/04/2022 16:31:09:568] Camera angle: 299.1529
[11/04/2022 16:31:09:640] Camera angle: 294.1528
[11/04/2022 16:31:09:713] Camera angle: 289.0163
[11/04/2022 16:31:09:785] Camera angle: 283.9866
[11/04/2022 16:31:09:857] Camera angle: 278.9693
[11/04/2022 16:31:09:928] Camera angle: 273.953
[11/04/2022 16:31:10:1] Camera angle: 268.8728
[11/04/2022 16:31:10:74] Camera angle: 263.7297
[11/04/2022 16:31:10:147] Camera angle: 258.6525
[11/04/2022 16:31:10:163] left released
[11/04/2022 16:31:10:627] left pressed
[11/04/2022 16:31:10:686] Camera angle: 253.4596
[11/04/2022 16:31:10:758] Camera angle: 248.4322
[11/04/2022 16:31:10:831] Camera angle: 243.2966
[11/04/2022 16:31:10:903] Camera angle: 238.2566
[11/04/2022 16:31:10:975] Camera angle: 233.1967
[11/04/2022 16:31:11:47] Camera angle: 228.1172
[11/04/2022 16:31:11:119] Camera angle: 223.0915
[11/04/2022 16:31:11:192] Camera angle: 218.0129
[11/04/2022 16:31:11:265] Camera angle: 212.8766
[11/04/2022 16:31:11:340] Camera angle: 207.6736
[11/04/2022 16:31:11:411] Camera angle: 202.657
[11/04/2022 16:31:11:458] left released
[11/04/2022 16:31:11:922] left pressed
[11/04/2022 16:31:11:948] Camera angle: 197.5143
[11/04/2022 16:31:12:22] Camera angle: 192.3721
[11/04/2022 16:31:12:95] Camera angle: 187.2358
[11/04/2022 16:31:12:168] Camera angle: 182.1055
[11/04/2022 16:31:12:241] Camera angle: 177.0732
[11/04/2022 16:31:12:312] Camera angle: 172.0548
[11/04/2022 16:31:12:386] Camera angle: 166.9201
[11/04/2022 16:31:12:459] Camera angle: 161.7813
[11/04/2022 16:31:12:532] Camera angle: 156.6418
[11/04/2022 16:31:12:606] Camera angle: 151.4985
[11/04/2022 16:31:12:679] Camera angle: 146.3678
[11/04/2022 16:31:12:737] left released
[11/04/2022 16:31:13:61] left pressed
[11/04/2022 16:31:13:75] Camera angle: 141.2202
[11/04/2022 16:31:13:146] Camera angle: 136.2008
[11/04/2022 16:31:13:220] Camera angle: 131.0645
[11/04/2022 16:31:13:292] Camera angle: 125.9801
[11/04/2022 16:31:13:367] Camera angle: 120.7862
[11/04/2022 16:31:13:440] Camera angle: 115.6438
[11/04/2022 16:31:13:513] Camera angle: 110.5101
[11/04/2022 16:31:13:585] Camera angle: 105.4872
[11/04/2022 16:31:13:660] Camera angle: 100.2312
[11/04/2022 16:31:13:731] Camera angle: 95.21719
[11/04/2022 16:31:13:805] Camera angle: 90.13254
[11/04/2022 16:31:13:878] Camera angle: 84.99226
[11/04/2022 16:31:13:951] Camera angle: 79.91357
[11/04/2022 16:31:14:2] left released
[11/04/2022 16:31:14:244] left pressed
[11/04/2022 16:31:14:264] Camera angle: 74.83177
[11/04/2022 16:31:14:338] Camera angle: 69.6973
[11/04/2022 16:31:14:409] Camera angle: 64.67037
[11/04/2022 16:31:14:481] Camera angle: 59.65003
[11/04/2022 16:31:14:545] left released
[11/04/2022 16:31:15:77] left pressed
[11/04/2022 16:31:15:85] Camera angle: 54.50477
[11/04/2022 16:31:15:157] Camera angle: 49.48537
[11/04/2022 16:31:15:228] Camera angle: 44.46613
[11/04/2022 16:31:15:302] Camera angle: 39.32375
[11/04/2022 16:31:15:375] Camera angle: 34.18462
[11/04/2022 16:31:15:448] Camera angle: 29.04412
[11/04/2022 16:31:15:522] Camera angle: 23.91052
[11/04/2022 16:31:15:600] Camera angle: 18.47492
[11/04/2022 16:31:15:666] left released
[11/04/2022 16:31:16:2] left pressed
[11/04/2022 16:31:16:9] Camera angle: 13.38887
[11/04/2022 16:31:16:80] Camera angle: 8.372178
[11/04/2022 16:31:16:98] left released
[11/04/2022 16:31:16:322] left pressed
[11/04/2022 16:31:16:338] left released
[11/04/2022 16:31:16:691] left pressed
[11/04/2022 16:31:16:731] Camera angle: 3.164068
[11/04/2022 16:31:16:771] left released
[11/04/2022 16:31:41:42] left pressed
[11/04/2022 16:31:41:78] Camera angle: 357.9728
[11/04/2022 16:31:41:138] left released
[11/04/2022 16:31:41:442] left pressed
[11/04/2022 16:31:41:455] Camera angle: 352.8289
[11/04/2022 16:31:41:528] Camera angle: 347.6951
[11/04/2022 16:31:41:599] Camera angle: 342.6738
[11/04/2022 16:31:41:672] Camera angle: 337.5892
[11/04/2022 16:31:41:746] Camera angle: 332.4533
[11/04/2022 16:31:41:818] Camera angle: 327.3695
[11/04/2022 16:31:41:875] left released
[11/04/2022 16:31:42:322] right pressed
[11/04/2022 16:31:42:443] Camera angle: 332.3933
[11/04/2022 16:31:42:516] Camera angle: 337.5293
[11/04/2022 16:31:42:589] Camera angle: 342.6088
[11/04/2022 16:31:42:661] Camera angle: 347.6347
[11/04/2022 16:31:42:732] Camera angle: 352.6535
[11/04/2022 16:31:42:804] Camera angle: 357.6802
[11/04/2022 16:31:42:876] Camera angle: 2.698631
[11/04/2022 16:31:42:948] Camera angle: 7.719282
[11/04/2022 16:31:43:20] Camera angle: 12.74642
[11/04/2022 16:31:43:93] Camera angle: 17.88073
[11/04/2022 16:31:43:165] Camera angle: 22.90273
[11/04/2022 16:31:43:201] right released
[11/04/2022 16:31:43:591] right pressed
[11/04/2022 16:31:43:623] Camera angle: 27.92683
[11/04/2022 16:31:43:697] Camera angle: 33.06196
[11/04/2022 16:31:43:714] right released
[11/04/2022 16:31:44:306] right pressed
[11/04/2022 16:31:44:361] Camera angle: 38.08563
[11/04/2022 16:31:44:434] Camera angle: 43.22453
[11/04/2022 16:31:44:506] Camera angle: 48.25484
[11/04/2022 16:31:44:577] Camera angle: 53.27188
[11/04/2022 16:31:44:651] Camera angle: 58.40226
[11/04/2022 16:31:44:725] Camera angle: 63.6068
[11/04/2022 16:31:44:797] Camera angle: 68.62321
[11/04/2022 16:31:44:851] right released
[11/04/2022 16:31:45:155] right pressed
[11/04/2022 16:31:45:175] Camera angle: 73.82293
[11/04/2022 16:31:45:247] Camera angle: 78.84441
[11/04/2022 16:31:45:318] Camera angle: 83.8616
[11/04/2022 16:31:45:392] Camera angle: 89.00512
[11/04/2022 16:31:45:465] Camera angle: 94.14122
[11/04/2022 16:31:45:537] Camera angle: 99.15972
[11/04/2022 16:31:45:610] Camera angle: 104.246
[11/04/2022 16:31:45:683] Camera angle: 109.3803
[11/04/2022 16:31:45:699] right released
[11/04/2022 16:31:46:2] right pressed
[11/04/2022 16:31:46:59] Camera angle: 114.468
[11/04/2022 16:31:46:133] Camera angle: 119.603
[11/04/2022 16:31:46:206] Camera angle: 124.7421
[11/04/2022 16:31:46:279] Camera angle: 129.8788
[11/04/2022 16:31:46:353] Camera angle: 135.0173
[11/04/2022 16:31:46:428] Camera angle: 140.273
[11/04/2022 16:31:46:500] Camera angle: 145.354
[11/04/2022 16:31:46:574] Camera angle: 150.5551
[11/04/2022 16:31:46:646] Camera angle: 155.5723
[11/04/2022 16:31:46:720] Camera angle: 160.7091
[11/04/2022 16:31:46:793] Camera angle: 165.8509
[11/04/2022 16:31:46:852] right released
[11/04/2022 16:31:47:93] right pressed
[11/04/2022 16:31:47:105] Camera angle: 170.8744
[11/04/2022 16:31:47:177] Camera angle: 175.8925
[11/04/2022 16:31:47:250] Camera angle: 181.0309
[11/04/2022 16:31:47:323] Camera angle: 186.1725
[11/04/2022 16:31:47:395] Camera angle: 191.1898
[11/04/2022 16:31:47:467] Camera angle: 196.2074
[11/04/2022 16:31:47:539] Camera angle: 201.2339
[11/04/2022 16:31:47:611] Camera angle: 206.2604
[11/04/2022 16:31:47:684] Camera angle: 211.393
[11/04/2022 16:31:47:756] Camera angle: 216.4229
[11/04/2022 16:31:47:829] Camera angle: 221.4999
[11/04/2022 16:31:47:861] right released
[11/04/2022 16:31:48:210] right pressed
[11/04/2022 16:31:48:252] Camera angle: 226.637
[11/04/2022 16:31:48:325] Camera angle: 231.7163
[11/04/2022 16:31:48:398] Camera angle: 236.8544
[11/04/2022 16:31:48:472] Camera angle: 241.9892
[11/04/2022 16:31:48:545] Camera angle: 247.129
[11/04/2022 16:31:48:618] Camera angle: 252.2649
[11/04/2022 16:31:48:690] Camera angle: 257.2884
[11/04/2022 16:31:48:762] Camera angle: 262.3137
[11/04/2022 16:31:48:835] Camera angle: 267.4498
[11/04/2022 16:31:48:906] Camera angle: 272.4716
[11/04/2022 16:31:48:979] Camera angle: 277.5515
[11/04/2022 16:31:49:53] Camera angle: 282.6283
[11/04/2022 16:31:49:124] Camera angle: 287.664
[11/04/2022 16:31:49:140] right released
[11/04/2022 16:31:49:491] right pressed
[11/04/2022 16:31:49:549] Camera angle: 292.7963
[11/04/2022 16:31:49:623] Camera angle: 297.9342
[11/04/2022 16:31:49:697] Camera angle: 303.1377
[11/04/2022 16:31:49:770] Camera angle: 308.2141
[11/04/2022 16:31:49:842] Camera angle: 313.241
[11/04/2022 16:31:49:914] Camera angle: 318.3197
[11/04/2022 16:31:49:986] Camera angle: 323.3962
[11/04/2022 16:31:50:58] Camera angle: 328.4115
[11/04/2022 16:31:50:130] Camera angle: 333.4379
[11/04/2022 16:31:50:203] Camera angle: 338.5774
[11/04/2022 16:31:50:275] Camera angle: 343.601
[11/04/2022 16:31:50:307] right released
[11/04/2022 16:31:50:515] right pressed
[11/04/2022 16:31:50:555] Camera angle: 348.6206
[11/04/2022 16:31:50:627] right released
[11/04/2022 16:31:50:737] right pressed
[11/04/2022 16:31:50:737] Camera angle: 353.6923
[11/04/2022 16:31:50:808] Camera angle: 358.7121
[11/04/2022 16:31:50:834] right released
[11/04/2022 16:31:58:228] right pressed
[11/04/2022 16:31:58:276] Camera angle: 3.862362
[11/04/2022 16:31:58:350] Camera angle: 8.995364
[11/04/2022 16:31:58:422] Camera angle: 14.07981
[11/04/2022 16:31:58:495] Camera angle: 19.15808
[11/04/2022 16:31:58:568] Camera angle: 24.3003
[11/04/2022 16:31:58:642] Camera angle: 29.43744
[11/04/2022 16:31:58:713] Camera angle: 34.45785
[11/04/2022 16:31:58:772] right released
[11/04/2022 16:31:59:10] right pressed
[11/04/2022 16:31:59:25] Camera angle: 39.47649
[11/04/2022 16:31:59:97] Camera angle: 44.49944
[11/04/2022 16:31:59:169] Camera angle: 49.52293
[11/04/2022 16:31:59:203] right released
[11/04/2022 16:31:59:443] right pressed
[11/04/2022 16:31:59:482] Camera angle: 54.65306
[11/04/2022 16:31:59:491] right released
[11/04/2022 16:32:01:778] right pressed
[11/04/2022 16:32:01:843] Camera angle: 59.79491
[11/04/2022 16:32:01:917] Camera angle: 64.93108
[11/04/2022 16:32:01:989] Camera angle: 69.95418
[11/04/2022 16:32:02:62] Camera angle: 75.0933
[11/04/2022 16:32:02:135] Camera angle: 80.2291
[11/04/2022 16:32:02:212] Camera angle: 85.60302
[11/04/2022 16:32:02:285] Camera angle: 90.74017
[11/04/2022 16:32:02:358] Camera angle: 95.82238
[11/04/2022 16:32:02:430] Camera angle: 100.8455
[11/04/2022 16:32:02:502] Camera angle: 105.9212
[11/04/2022 16:32:02:576] Camera angle: 111.0614
[11/04/2022 16:32:02:579] right released
[11/04/2022 16:32:02:849] right pressed
[11/04/2022 16:32:02:919] Camera angle: 116.1395
[11/04/2022 16:32:02:963] right released
[11/04/2022 16:32:03:315] right pressed
[11/04/2022 16:32:03:343] Camera angle: 121.2208
[11/04/2022 16:32:03:412] right released
[11/04/2022 16:32:05:427] right pressed
[11/04/2022 16:32:05:435] Camera angle: 126.3678
[11/04/2022 16:32:05:507] Camera angle: 131.388
[11/04/2022 16:32:05:580] Camera angle: 136.5312
[11/04/2022 16:32:05:652] Camera angle: 141.5511
[11/04/2022 16:32:05:724] Camera angle: 146.5728
[11/04/2022 16:32:05:796] Camera angle: 151.5952
[11/04/2022 16:32:05:867] Camera angle: 156.6157
[11/04/2022 16:32:05:939] Camera angle: 161.6306
[11/04/2022 16:32:06:12] Camera angle: 166.7769
[11/04/2022 16:32:06:84] Camera angle: 171.7941
[11/04/2022 16:32:06:158] Camera angle: 176.9346
[11/04/2022 16:32:06:163] right released
[11/04/2022 16:32:06:468] right pressed
[11/04/2022 16:32:06:536] Camera angle: 182.0801
[11/04/2022 16:32:06:561] right released
[11/04/2022 16:32:08:68] right pressed
[11/04/2022 16:32:08:115] Camera angle: 187.1556
[11/04/2022 16:32:08:187] Camera angle: 192.1749
[11/04/2022 16:32:08:259] Camera angle: 197.1947
[11/04/2022 16:32:08:332] Camera angle: 202.3364
[11/04/2022 16:32:08:404] Camera angle: 207.4124
[11/04/2022 16:32:08:477] Camera angle: 212.4356
[11/04/2022 16:32:08:549] Camera angle: 217.5209
[11/04/2022 16:32:08:621] Camera angle: 222.539
[11/04/2022 16:32:08:693] Camera angle: 227.5604
[11/04/2022 16:32:08:723] right released
[11/04/2022 16:32:08:980] right pressed
[11/04/2022 16:32:09:22] Camera angle: 232.6435
[11/04/2022 16:32:09:93] Camera angle: 237.6636
[11/04/2022 16:32:09:138] right released
[11/04/2022 16:32:10:817] right pressed
[11/04/2022 16:32:10:845] Camera angle: 242.7452
[11/04/2022 16:32:10:917] Camera angle: 247.8289
[11/04/2022 16:32:10:989] Camera angle: 252.8491
[11/04/2022 16:32:11:62] Camera angle: 257.9276
[11/04/2022 16:32:11:134] Camera angle: 263.0096
[11/04/2022 16:32:11:206] Camera angle: 268.0335
[11/04/2022 16:32:11:277] Camera angle: 273.0526
[11/04/2022 16:32:11:351] Camera angle: 278.193
[11/04/2022 16:32:11:424] Camera angle: 283.3273
[11/04/2022 16:32:11:496] Camera angle: 288.3525
[11/04/2022 16:32:11:508] right released
[11/04/2022 16:32:11:796] right pressed
[11/04/2022 16:32:11:858] Camera angle: 293.5407
[11/04/2022 16:32:11:892] right released
[11/04/2022 16:32:13:603] right pressed
[11/04/2022 16:32:13:643] Camera angle: 298.6774
[11/04/2022 16:32:13:715] Camera angle: 303.7049
[11/04/2022 16:32:13:786] Camera angle: 308.7241
[11/04/2022 16:32:13:859] Camera angle: 313.7985
[11/04/2022 16:32:13:932] Camera angle: 318.8751
[11/04/2022 16:32:14:5] Camera angle: 323.9623
[11/04/2022 16:32:14:76] Camera angle: 329.0421
[11/04/2022 16:32:14:149] Camera angle: 334.0597
[11/04/2022 16:32:14:224] Camera angle: 339.3199
[11/04/2022 16:32:14:228] right released
[11/04/2022 16:32:14:562] right pressed
[11/04/2022 16:32:14:631] Camera angle: 344.3405
[11/04/2022 16:32:14:704] Camera angle: 349.4843
[11/04/2022 16:32:14:708] right released
[11/04/2022 16:32:14:931] right pressed
[11/04/2022 16:32:15:1] Camera angle: 354.5692
[11/04/2022 16:32:15:29] right released
[11/04/2022 16:32:15:234] right pressed
[11/04/2022 16:32:15:280] Camera angle: 359.5883
[11/04/2022 16:32:15:300] right released
[11/04/2022 16:32:30:674] left pressed
[11/04/2022 16:32:30:738] left released
[11/04/2022 16:32:31:298] right pressed
[11/04/2022 16:32:31:348] right released
[11/04/2022 16:32:33:540] left pressed
[11/04/2022 16:32:33:613] Camera angle: 354.5609
[11/04/2022 16:32:33:684] Camera angle: 349.5395
[11/04/2022 16:32:33:757] Camera angle: 344.4565
[11/04/2022 16:32:33:832] Camera angle: 339.2601
[11/04/2022 16:32:33:904] Camera angle: 334.2359
[11/04/2022 16:32:33:975] Camera angle: 329.2156
[11/04/2022 16:32:34:49] Camera angle: 324.0833
[11/04/2022 16:32:34:122] Camera angle: 318.9381
[11/04/2022 16:32:34:194] Camera angle: 313.9211
[11/04/2022 16:32:34:267] Camera angle: 308.7816
[11/04/2022 16:32:34:341] Camera angle: 303.6406
[11/04/2022 16:32:34:413] Camera angle: 298.5649
[11/04/2022 16:32:34:485] Camera angle: 293.4847
[11/04/2022 16:32:34:558] Camera angle: 288.3995
[11/04/2022 16:32:34:633] Camera angle: 283.204
[11/04/2022 16:32:34:708] Camera angle: 277.9474
[11/04/2022 16:32:34:779] Camera angle: 272.9277
[11/04/2022 16:32:34:851] Camera angle: 267.9081
[11/04/2022 16:32:34:925] Camera angle: 262.7654
[11/04/2022 16:32:34:999] Camera angle: 257.5726
[11/04/2022 16:32:35:75] Camera angle: 252.2552
[11/04/2022 16:32:35:148] Camera angle: 247.1236
[11/04/2022 16:32:35:220] Camera angle: 242.1004
[11/04/2022 16:32:35:291] Camera angle: 237.0761
[11/04/2022 16:32:35:363] Camera angle: 232.0532
[11/04/2022 16:32:35:436] Camera angle: 226.9771
[11/04/2022 16:32:35:509] Camera angle: 221.8909
[11/04/2022 16:32:35:580] Camera angle: 216.8709
[11/04/2022 16:32:35:652] Camera angle: 211.8528
[11/04/2022 16:32:35:726] Camera angle: 206.7096
[11/04/2022 16:32:35:795] left released
[11/04/2022 16:32:36:289] right pressed
[11/04/2022 16:32:36:426] Camera angle: 211.8503
[11/04/2022 16:32:36:497] Camera angle: 216.8699
[11/04/2022 16:32:36:571] Camera angle: 222.007
[11/04/2022 16:32:36:645] Camera angle: 227.1501
[11/04/2022 16:32:36:716] Camera angle: 232.1672
[11/04/2022 16:32:36:788] Camera angle: 237.1881
[11/04/2022 16:32:36:861] Camera angle: 242.2742
[11/04/2022 16:32:36:934] Camera angle: 247.4086
[11/04/2022 16:32:37:6] Camera angle: 252.4889
[11/04/2022 16:32:37:79] Camera angle: 257.5125
[11/04/2022 16:32:37:152] Camera angle: 262.65
[11/04/2022 16:32:37:225] Camera angle: 267.792
[11/04/2022 16:32:37:297] Camera angle: 272.8113
[11/04/2022 16:32:37:369] Camera angle: 277.8898
[11/04/2022 16:32:37:444] Camera angle: 283.089
[11/04/2022 16:32:37:517] Camera angle: 288.2238
[11/04/2022 16:32:37:589] Camera angle: 293.2442
[11/04/2022 16:32:37:661] Camera angle: 298.2697
[11/04/2022 16:32:37:734] Camera angle: 303.4059
[11/04/2022 16:32:37:807] Camera angle: 308.5423
[11/04/2022 16:32:37:881] Quiz question: <Which European city hosted the 1936 Summer Olympics>, Target: <Annie>, Distractor: <Maria>, Target_Answer: <London>, Distractor_Answer: <Berlin>, Target_correct: <False>
[11/04/2022 16:32:37:881] Camera angle: 313.685
[11/04/2022 16:32:37:881] RightAnswerTask: Showing onscreen question 1
[11/04/2022 16:32:37:954] Camera angle: 318.8201
[11/04/2022 16:32:38:28] Camera angle: 323.9581
[11/04/2022 16:32:38:101] Camera angle: 329.0949
[11/04/2022 16:32:38:173] Camera angle: 334.1176
[11/04/2022 16:32:38:244] Camera angle: 339.1431
[11/04/2022 16:32:38:316] Camera angle: 344.1668
[11/04/2022 16:32:38:372] right released
[11/04/2022 16:32:38:882] right pressed
[11/04/2022 16:32:38:902] Camera angle: 349.3569
[11/04/2022 16:32:38:945] right released
[11/04/2022 16:32:40:868] RightAnswerTask: Correct answer 1 logged (Distractor correct, D pressed)
[11/04/2022 16:32:42:52] right pressed
[11/04/2022 16:32:42:83] Camera angle: 354.508
[11/04/2022 16:32:42:157] Camera angle: 359.6405
[11/04/2022 16:32:42:182] right released
[11/04/2022 16:32:42:402] right pressed
[11/04/2022 16:32:42:452] Camera angle: 4.724803
[11/04/2022 16:32:42:466] right released
[11/04/2022 16:32:42:737] left pressed
[11/04/2022 16:32:42:803] left released
[11/04/2022 16:32:49:428] right pressed
[11/04/2022 16:32:49:549] Camera angle: 9.803998
[11/04/2022 16:32:49:623] Camera angle: 14.94573
[11/04/2022 16:32:49:697] Camera angle: 20.14002
[11/04/2022 16:32:49:769] Camera angle: 25.22259
[11/04/2022 16:32:49:843] Camera angle: 30.35699
[11/04/2022 16:32:49:916] Camera angle: 35.49593
[11/04/2022 16:32:49:971] right released
[11/04/2022 16:32:50:180] right pressed
[11/04/2022 16:32:50:197] Camera angle: 40.57638
[11/04/2022 16:32:50:272] Camera angle: 45.77866
[11/04/2022 16:32:50:343] Camera angle: 50.79844
[11/04/2022 16:32:50:417] Camera angle: 55.93412
[11/04/2022 16:32:50:490] Camera angle: 61.07591
[11/04/2022 16:32:50:562] Camera angle: 66.09695
[11/04/2022 16:32:50:635] Camera angle: 71.22774
[11/04/2022 16:32:50:707] Camera angle: 76.2577
[11/04/2022 16:32:50:780] Camera angle: 81.39405
[11/04/2022 16:32:50:854] Camera angle: 86.53601
[11/04/2022 16:32:50:927] Camera angle: 91.66865
[11/04/2022 16:32:51:1] Camera angle: 96.867
[11/04/2022 16:32:51:75] Camera angle: 102.0084
[11/04/2022 16:32:51:148] Camera angle: 107.0854
[11/04/2022 16:32:51:170] right released
[11/04/2022 16:32:51:635] left pressed
[11/04/2022 16:32:51:725] Camera angle: 101.9469
[11/04/2022 16:32:51:796] Camera angle: 96.92664
[11/04/2022 16:32:51:869] Camera angle: 91.79057
[11/04/2022 16:32:51:942] Camera angle: 86.76381
[11/04/2022 16:32:52:13] Camera angle: 81.74175
[11/04/2022 16:32:52:87] Camera angle: 76.60825
[11/04/2022 16:32:52:159] Camera angle: 71.58477
[11/04/2022 16:32:52:230] Camera angle: 66.56602
[11/04/2022 16:32:52:302] Camera angle: 61.54322
[11/04/2022 16:32:52:374] Camera angle: 56.51579
[11/04/2022 16:32:52:445] Camera angle: 51.4961
[11/04/2022 16:32:52:516] Camera angle: 46.47509
[11/04/2022 16:32:52:589] Camera angle: 41.45258
[11/04/2022 16:32:52:662] Camera angle: 36.31585
[11/04/2022 16:32:52:726] left released
[11/04/2022 16:32:53:122] left pressed
[11/04/2022 16:32:53:135] Camera angle: 31.10599
[11/04/2022 16:32:53:208] Camera angle: 26.02454
[11/04/2022 16:32:53:251] left released
[11/04/2022 16:32:53:538] left pressed
[11/04/2022 16:32:53:570] Camera angle: 20.87749
[11/04/2022 16:32:53:603] left released
[11/04/2022 16:32:53:875] left pressed
[11/04/2022 16:32:53:914] Camera angle: 15.85048
[11/04/2022 16:32:53:924] left released
[11/04/2022 16:32:54:67] left pressed
[11/04/2022 16:32:54:129] Camera angle: 10.77233
[11/04/2022 16:32:54:132] left released
[11/04/2022 16:32:54:388] left pressed
[11/04/2022 16:32:54:435] left released
[11/04/2022 16:32:58:99] right pressed
[11/04/2022 16:32:58:215] Camera angle: 15.84529
[11/04/2022 16:32:58:287] Camera angle: 20.92896
[11/04/2022 16:32:58:361] Camera angle: 26.06627
[11/04/2022 16:32:58:435] Camera angle: 31.20589
[11/04/2022 16:32:58:482] right released
[11/04/2022 16:33:03:587] left pressed
[11/04/2022 16:33:03:705] Camera angle: 25.95286
[11/04/2022 16:33:03:776] Camera angle: 20.93434
[11/04/2022 16:33:03:849] Camera angle: 15.90271
[11/04/2022 16:33:03:921] Camera angle: 10.82626
[11/04/2022 16:33:03:995] Camera angle: 5.634517
[11/04/2022 16:33:04:19] left released
[11/04/2022 16:33:04:593] left pressed
[11/04/2022 16:33:04:609] left released
[11/04/2022 16:33:04:851] Quiz question: <When is World Literacy Day celebrated>, Target: <John>, Distractor: <Susan>, Target_Answer: <October 7>, Distractor_Answer: <September 8>, Target_correct: <False>
[11/04/2022 16:33:04:851] RightAnswerTask: Showing onscreen question 2
[11/04/2022 16:33:05:634] left pressed
[11/04/2022 16:33:05:666] Camera angle: 0.6080832
[11/04/2022 16:33:05:698] left released
[11/04/2022 16:33:07:153] RightAnswerTask: Correct answer 2 logged (Distractor correct, A pressed)
[11/04/2022 16:33:08:49] left pressed
[11/04/2022 16:33:08:89] Camera angle: 355.59
[11/04/2022 16:33:08:162] Camera angle: 350.5131
[11/04/2022 16:33:08:236] Camera angle: 345.322
[11/04/2022 16:33:08:309] Camera angle: 340.2375
[11/04/2022 16:33:08:381] Camera angle: 335.1557
[11/04/2022 16:33:08:453] Camera angle: 330.1369
[11/04/2022 16:33:08:526] Camera angle: 324.9938
[11/04/2022 16:33:08:600] Camera angle: 319.8577
[11/04/2022 16:33:08:658] left released
[11/04/2022 16:33:09:172] right pressed
[11/04/2022 16:33:09:296] Camera angle: 324.8808
[11/04/2022 16:33:09:367] Camera angle: 329.9024
[11/04/2022 16:33:09:443] Camera angle: 335.2191
[11/04/2022 16:33:09:506] right released
[11/04/2022 16:33:09:828] right pressed
[11/04/2022 16:33:09:836] Camera angle: 340.2311
[11/04/2022 16:33:09:910] Camera angle: 345.4333
[11/04/2022 16:33:09:983] Camera angle: 350.5114
[11/04/2022 16:33:10:55] Camera angle: 355.5335
[11/04/2022 16:33:10:127] Camera angle: 0.6137286
[11/04/2022 16:33:10:180] right released
[11/04/2022 16:33:10:515] left pressed
[11/04/2022 16:33:10:633] Camera angle: 355.5969
[11/04/2022 16:33:10:707] Camera angle: 350.4517
[11/04/2022 16:33:10:780] Camera angle: 345.3181
[11/04/2022 16:33:10:851] Camera angle: 340.2952
[11/04/2022 16:33:10:926] Camera angle: 335.1536
[11/04/2022 16:33:10:999] Camera angle: 330.0216
[11/04/2022 16:33:11:71] Camera angle: 324.9975
[11/04/2022 16:33:11:144] Camera angle: 319.8561
[11/04/2022 16:33:11:217] Camera angle: 314.7224
[11/04/2022 16:33:11:289] Camera angle: 309.6999
[11/04/2022 16:33:11:361] Camera angle: 304.6765
[11/04/2022 16:33:11:433] Camera angle: 299.6534
[11/04/2022 16:33:11:506] Camera angle: 294.5186
[11/04/2022 16:33:11:578] Camera angle: 289.4933
[11/04/2022 16:33:11:651] Camera angle: 284.356
[11/04/2022 16:33:11:725] Camera angle: 279.214
[11/04/2022 16:33:11:796] Camera angle: 274.1937
[11/04/2022 16:33:11:868] Camera angle: 269.1763
[11/04/2022 16:33:11:940] Camera angle: 264.1547
[11/04/2022 16:33:12:12] Camera angle: 259.1295
[11/04/2022 16:33:12:83] Camera angle: 254.1089
[11/04/2022 16:33:12:146] left released
[11/04/2022 16:33:12:578] left pressed
[11/04/2022 16:33:12:592] Camera angle: 248.9138
[11/04/2022 16:33:12:665] Camera angle: 243.8333
[11/04/2022 16:33:12:739] Camera angle: 238.6402
[11/04/2022 16:33:12:813] Camera angle: 233.4391
[11/04/2022 16:33:12:888] Camera angle: 228.2432
[11/04/2022 16:33:12:959] Camera angle: 223.2193
[11/04/2022 16:33:13:30] Camera angle: 218.1987
[11/04/2022 16:33:13:103] Camera angle: 213.125
[11/04/2022 16:33:13:140] left released
[11/04/2022 16:33:15:299] left pressed
[11/04/2022 16:33:15:337] Camera angle: 208.0447
[11/04/2022 16:33:15:409] Camera angle: 203.0231
[11/04/2022 16:33:15:482] Camera angle: 197.8841
[11/04/2022 16:33:15:553] Camera angle: 192.8638
[11/04/2022 16:33:15:627] Camera angle: 187.7294
[11/04/2022 16:33:15:699] Camera angle: 182.7064
[11/04/2022 16:33:15:770] Camera angle: 177.6643
[11/04/2022 16:33:15:843] Camera angle: 172.6049
[11/04/2022 16:33:15:916] Camera angle: 167.462
[11/04/2022 16:33:15:990] Camera angle: 162.3279
[11/04/2022 16:33:16:62] Camera angle: 157.2426
[11/04/2022 16:33:16:136] Camera angle: 152.1064
[11/04/2022 16:33:16:195] left released
[11/04/2022 16:33:17:109] right pressed
[11/04/2022 16:33:17:234] Camera angle: 157.131
[11/04/2022 16:33:17:305] Camera angle: 162.1514
[11/04/2022 16:33:17:377] Camera angle: 167.1716
[11/04/2022 16:33:17:450] Camera angle: 172.3116
[11/04/2022 16:33:17:524] Camera angle: 177.4475
[11/04/2022 16:33:17:595] Camera angle: 182.4671
[11/04/2022 16:33:17:667] Camera angle: 187.4963
[11/04/2022 16:33:17:739] Camera angle: 192.5155
[11/04/2022 16:33:17:812] Camera angle: 197.6476
[11/04/2022 16:33:17:884] Camera angle: 202.6764
[11/04/2022 16:33:17:958] Camera angle: 207.8118
[11/04/2022 16:33:18:31] Camera angle: 212.9541
[11/04/2022 16:33:18:104] Camera angle: 218.0882
[11/04/2022 16:33:18:178] Camera angle: 223.2258
[11/04/2022 16:33:18:252] Camera angle: 228.4274
[11/04/2022 16:33:18:325] Camera angle: 233.5042
[11/04/2022 16:33:18:398] Camera angle: 238.6435
[11/04/2022 16:33:18:470] Camera angle: 243.6672
[11/04/2022 16:33:18:541] Camera angle: 248.6838
[11/04/2022 16:33:18:613] Camera angle: 253.7039
[11/04/2022 16:33:18:685] Camera angle: 258.7303
[11/04/2022 16:33:18:759] Camera angle: 263.9272
[11/04/2022 16:33:18:832] Camera angle: 269.0103
[11/04/2022 16:33:18:905] Camera angle: 274.146
[11/04/2022 16:33:18:977] Camera angle: 279.1675
[11/04/2022 16:33:19:52] Camera angle: 284.4242
[11/04/2022 16:33:19:125] Camera angle: 289.5025
[11/04/2022 16:33:19:196] Camera angle: 294.5749
[11/04/2022 16:33:19:271] Camera angle: 299.7242
[11/04/2022 16:33:19:343] Camera angle: 304.8008
[11/04/2022 16:33:19:419] Camera angle: 310.1155
[11/04/2022 16:33:19:476] right released
[11/04/2022 16:33:19:763] right pressed
[11/04/2022 16:33:19:780] Camera angle: 315.25
[11/04/2022 16:33:19:853] Camera angle: 320.3322
[11/04/2022 16:33:19:891] right released
[11/04/2022 16:33:20:115] right pressed
[11/04/2022 16:33:20:152] Camera angle: 325.5944
[11/04/2022 16:33:20:227] Camera angle: 330.789
[11/04/2022 16:33:20:243] right released
[11/04/2022 16:33:21:28] right pressed
[11/04/2022 16:33:21:84] Camera angle: 335.8719
[11/04/2022 16:33:21:158] Camera angle: 341.0083
[11/04/2022 16:33:21:231] Camera angle: 346.1431
[11/04/2022 16:33:21:266] right released
[11/04/2022 16:33:21:891] right pressed
[11/04/2022 16:33:21:927] Camera angle: 351.1642
[11/04/2022 16:33:21:998] Camera angle: 356.1831
[11/04/2022 16:33:22:2] right released
[11/04/2022 16:33:24:2] right pressed
[11/04/2022 16:33:24:73] Camera angle: 1.266947
[11/04/2022 16:33:24:147] Camera angle: 6.461256
[11/04/2022 16:33:24:219] Camera angle: 11.48042
[11/04/2022 16:33:24:292] Camera angle: 16.62385
[11/04/2022 16:33:24:364] Camera angle: 21.64321
[11/04/2022 16:33:24:438] Camera angle: 26.84049
[11/04/2022 16:33:24:468] right released
[11/04/2022 16:33:30:861] Quiz question: <How far is the target in Olympic Archery>, Target: <John>, Distractor: <Annie>, Target_Answer: <70 metres>, Distractor_Answer: <80 metres>, Target_correct: <True>
[11/04/2022 16:33:30:861] RightAnswerTask: Showing onscreen question 3
[11/04/2022 16:33:32:452] RightAnswerTask: Correct answer 3 logged (Target correct, A pressed)
[11/04/2022 16:33:34:4] right pressed
[11/04/2022 16:33:34:45] Camera angle: 31.85911
[11/04/2022 16:33:34:117] Camera angle: 36.88096
[11/04/2022 16:33:34:189] Camera angle: 41.90216
[11/04/2022 16:33:34:262] Camera angle: 46.97493
[11/04/2022 16:33:34:334] Camera angle: 52.06202
[11/04/2022 16:33:34:407] Camera angle: 57.19733
[11/04/2022 16:33:34:481] Camera angle: 62.33724
[11/04/2022 16:33:34:554] Camera angle: 67.47639
[11/04/2022 16:33:34:626] Camera angle: 72.49615
[11/04/2022 16:33:34:697] Camera angle: 77.52444
[11/04/2022 16:33:34:771] Camera angle: 82.65716
[11/04/2022 16:33:34:845] Camera angle: 87.85483
[11/04/2022 16:33:34:881] right released
[11/04/2022 16:33:35:410] right pressed
[11/04/2022 16:33:35:445] Camera angle: 92.87598
[11/04/2022 16:33:35:517] Camera angle: 97.90145
[11/04/2022 16:33:35:589] Camera angle: 102.9806
[11/04/2022 16:33:35:662] Camera angle: 108.0563
[11/04/2022 16:33:35:735] Camera angle: 113.1981
[11/04/2022 16:33:35:807] Camera angle: 118.2193
[11/04/2022 16:33:35:879] Camera angle: 123.2322
[11/04/2022 16:33:35:952] Camera angle: 128.3818
[11/04/2022 16:33:36:25] Camera angle: 133.5181
[11/04/2022 16:33:36:99] Camera angle: 138.6603
[11/04/2022 16:33:36:172] Camera angle: 143.7951
[11/04/2022 16:33:36:244] Camera angle: 148.8164
[11/04/2022 16:33:36:275] right released
[11/04/2022 16:33:37:442] right pressed
[11/04/2022 16:33:37:484] Camera angle: 153.9522
[11/04/2022 16:33:37:521] right released
[11/04/2022 16:33:39:973] right pressed
[11/04/2022 16:33:40:6] Camera angle: 159.1
[11/04/2022 16:33:40:80] Camera angle: 164.2374
[11/04/2022 16:33:40:151] Camera angle: 169.2579
[11/04/2022 16:33:40:223] Camera angle: 174.3402
[11/04/2022 16:33:40:296] Camera angle: 179.4174
[11/04/2022 16:33:40:370] Camera angle: 184.5615
[11/04/2022 16:33:40:441] Camera angle: 189.5798
[11/04/2022 16:33:40:514] Camera angle: 194.6575
[11/04/2022 16:33:40:589] Camera angle: 199.8582
[11/04/2022 16:33:40:660] Camera angle: 204.8808
[11/04/2022 16:33:40:733] Camera angle: 210.0142
[11/04/2022 16:33:40:754] right released
[11/04/2022 16:33:42:515] left pressed
[11/04/2022 16:33:42:601] Camera angle: 204.9303
[11/04/2022 16:33:42:675] Camera angle: 199.7937
[11/04/2022 16:33:42:748] Camera angle: 194.77
[11/04/2022 16:33:42:820] Camera angle: 189.637
[11/04/2022 16:33:42:894] Camera angle: 184.4939
[11/04/2022 16:33:42:966] Camera angle: 179.4751
[11/04/2022 16:33:43:39] Camera angle: 174.3329
[11/04/2022 16:33:43:113] Camera angle: 169.1963
[11/04/2022 16:33:43:186] Camera angle: 164.0612
[11/04/2022 16:33:43:203] left released
[11/04/2022 16:33:43:522] right pressed
[11/04/2022 16:33:43:606] Camera angle: 169.202
[11/04/2022 16:33:43:680] Camera angle: 174.3411
[11/04/2022 16:33:43:752] Camera angle: 179.3597
[11/04/2022 16:33:43:825] Camera angle: 184.5022
[11/04/2022 16:33:43:899] Camera angle: 189.6382
[11/04/2022 16:33:43:971] Camera angle: 194.657
[11/04/2022 16:33:44:42] Camera angle: 199.6834
[11/04/2022 16:33:44:114] Camera angle: 204.7602
[11/04/2022 16:33:44:161] right released
[11/04/2022 16:33:44:819] right pressed
[11/04/2022 16:33:44:845] Camera angle: 209.8392
[11/04/2022 16:33:44:881] right released
[11/04/2022 16:33:47:442] right pressed
[11/04/2022 16:33:47:477] Camera angle: 214.9269
[11/04/2022 16:33:47:550] Camera angle: 220.0654
[11/04/2022 16:33:47:624] Camera angle: 225.2007
[11/04/2022 16:33:47:697] Camera angle: 230.3421
[11/04/2022 16:33:47:771] Camera angle: 235.4792
[11/04/2022 16:33:47:842] Camera angle: 240.4992
[11/04/2022 16:33:47:916] Camera angle: 245.6418
[11/04/2022 16:33:47:988] Camera angle: 250.717
[11/04/2022 16:33:48:62] Camera angle: 255.8642
[11/04/2022 16:33:48:133] Camera angle: 260.8796
[11/04/2022 16:33:48:178] right released
[11/04/2022 16:33:48:529] right pressed
[11/04/2022 16:33:48:556] Camera angle: 265.9588
[11/04/2022 16:33:48:612] right released
[11/04/2022 16:33:49:73] right pressed
[11/04/2022 16:33:49:92] Camera angle: 271.0316
[11/04/2022 16:33:49:136] right released
[11/04/2022 16:33:49:618] right pressed
[11/04/2022 16:33:49:644] Camera angle: 276.1118
[11/04/2022 16:33:49:718] Camera angle: 281.2551
[11/04/2022 16:33:49:790] Camera angle: 286.3337
[11/04/2022 16:33:49:863] Camera angle: 291.4188
[11/04/2022 16:33:49:936] Camera angle: 296.5537
[11/04/2022 16:33:50:8] Camera angle: 301.5733
[11/04/2022 16:33:50:80] Camera angle: 306.5932
[11/04/2022 16:33:50:151] Camera angle: 311.6195
[11/04/2022 16:33:50:223] Camera angle: 316.6368
[11/04/2022 16:33:50:294] Camera angle: 321.6554
[11/04/2022 16:33:50:367] Camera angle: 326.6851
[11/04/2022 16:33:50:438] Camera angle: 331.7068
[11/04/2022 16:33:50:512] Camera angle: 336.84
[11/04/2022 16:33:50:514] right released
[11/04/2022 16:33:50:611] right pressed
[11/04/2022 16:33:50:681] Camera angle: 341.9784
[11/04/2022 16:33:50:752] Camera angle: 346.9994
[11/04/2022 16:33:50:825] Camera angle: 352.0811
[11/04/2022 16:33:50:897] Camera angle: 357.1058
[11/04/2022 16:33:50:970] Camera angle: 2.242498
[11/04/2022 16:33:51:42] Camera angle: 7.262765
[11/04/2022 16:33:51:113] Camera angle: 12.28293
[11/04/2022 16:33:51:124] right released
[11/04/2022 16:33:51:314] right pressed
[11/04/2022 16:33:51:377] Camera angle: 17.42602
[11/04/2022 16:33:51:441] right released
[11/04/2022 16:33:51:618] right pressed
[11/04/2022 16:33:51:626] Camera angle: 22.44659
[11/04/2022 16:33:51:697] Camera angle: 27.47182
[11/04/2022 16:33:51:715] right released
[11/04/2022 16:33:54:708] left pressed
[11/04/2022 16:33:54:789] Camera angle: 22.44391
[11/04/2022 16:33:54:862] Camera angle: 17.36549
[11/04/2022 16:33:54:934] Camera angle: 12.28253
[11/04/2022 16:33:55:6] Camera angle: 7.262975
[11/04/2022 16:33:55:78] Camera angle: 2.183768
[11/04/2022 16:33:55:151] Camera angle: 357.1031
[11/04/2022 16:33:55:225] Camera angle: 351.9641
[11/04/2022 16:33:55:298] Camera angle: 346.8286
[11/04/2022 16:33:55:370] Camera angle: 341.803
[11/04/2022 16:33:55:442] Camera angle: 336.7822
[11/04/2022 16:33:55:515] Camera angle: 331.6468
[11/04/2022 16:33:55:557] left released
[11/04/2022 16:33:55:861] Quiz question: <What was invented by James Dewer in 1872>, Target: <John>, Distractor: <Susan>, Target_Answer: <Steam pump>, Distractor_Answer: <Thermos flask>, Target_correct: <False>
[11/04/2022 16:33:55:861] RightAnswerTask: Showing onscreen question 4
[11/04/2022 16:33:58:293] RightAnswerTask: Correct answer 4 logged (Distractor correct, D pressed)
[11/04/2022 16:33:59:666] left pressed
[11/04/2022 16:33:59:696] Camera angle: 326.6229
[11/04/2022 16:33:59:769] Camera angle: 321.546
[11/04/2022 16:33:59:843] Camera angle: 316.4044
[11/04/2022 16:33:59:914] Camera angle: 311.3911
[11/04/2022 16:33:59:988] Camera angle: 306.254
[11/04/2022 16:34:00:60] Camera angle: 301.2225
[11/04/2022 16:34:00:133] Camera angle: 296.0876
[11/04/2022 16:34:00:204] Camera angle: 291.0623
[11/04/2022 16:34:00:276] Camera angle: 286.0419
[11/04/2022 16:34:00:350] Camera angle: 280.9056
[11/04/2022 16:34:00:422] Camera angle: 275.8604
[11/04/2022 16:34:00:495] Camera angle: 270.749
[11/04/2022 16:34:00:530] left released
[11/04/2022 16:34:05:857] Starting SAGAT 1
[11/04/2022 16:34:05:859] SAGAT question loaded: "What was the most recent quiz question?" Answers: How far is the target in Olympic Archery ; How long is the longest river in the UK? ; When is World Literacy Day celebrated ; What pigment is mercurial sulfate? ; [What was invented by James Dewer in 1872] ; What continent covers four hemispheres? ; )
[11/04/2022 16:34:11:451] Toggle pressed: What was invented by James Dewer in 1872
[11/04/2022 16:34:12:859] SAGAT answer given: "What was invented by James Dewer in 1872" (correct; "What was invented by James Dewer in 1872")
[11/04/2022 16:34:12:860] SAGAT question loaded: "Who is sitting two seats to the right of the quiz master (your right)?" Answers: Maria ; John ; Carlos ; Annie ; Susan ; [Elizabeth] ; )
[11/04/2022 16:34:20:668] Toggle pressed: Elizabeth
[11/04/2022 16:34:22:91] SAGAT answer given: "Elizabeth" (correct; "Elizabeth")
[11/04/2022 16:34:22:93] SAGAT question loaded: "Identify one person who was in your field of view just before the simulation paused." Answers: John ; Elizabeth ; Annie ; Carlos ; Susan ; Maria ; )
[11/04/2022 16:34:30:547] Toggle pressed: Annie
[11/04/2022 16:34:32:506] SAGAT answer given: "Annie" (correct; "Susan|Maria|Annie")
[11/04/2022 16:34:32:506] SAGAT question loaded: "Who is the quiz master?" Answers: Annie ; Elizabeth ; Maria ; John ; Susan ; [Carlos] ; )
[11/04/2022 16:34:35:235] Toggle pressed: Carlos
[11/04/2022 16:34:36:282] SAGAT answer given: "Carlos" (correct; "Carlos")
[11/04/2022 16:34:36:284] SAGAT question loaded: "Who is sitting left of the quiz master (your left)?" Answers: John ; Susan ; [Maria] ; Elizabeth ; Carlos ; Annie ; )
[11/04/2022 16:34:41:891] Toggle pressed: Maria
[11/04/2022 16:34:43:34] SAGAT answer given: "Maria" (correct; "Maria")
[11/04/2022 16:34:43:34] SAGAT Complete
[11/04/2022 16:34:47:698] left pressed
[11/04/2022 16:34:47:737] Camera angle: 265.608
[11/04/2022 16:34:47:810] Camera angle: 260.4727
[11/04/2022 16:34:47:883] Camera angle: 255.394
[11/04/2022 16:34:47:957] Camera angle: 250.195
[11/04/2022 16:34:48:31] Camera angle: 245.058
[11/04/2022 16:34:48:102] Camera angle: 240.0368
[11/04/2022 16:34:48:174] Camera angle: 235.0117
[11/04/2022 16:34:48:248] Camera angle: 229.8786
[11/04/2022 16:34:48:321] Camera angle: 224.7337
[11/04/2022 16:34:48:392] Camera angle: 219.7151
[11/04/2022 16:34:48:464] Camera angle: 214.6939
[11/04/2022 16:34:48:536] Camera angle: 209.674
[11/04/2022 16:34:48:578] left released
[11/04/2022 16:34:49:12] right pressed
[11/04/2022 16:34:49:119] Camera angle: 214.6927
[11/04/2022 16:34:49:192] Camera angle: 219.8336
[11/04/2022 16:34:49:265] Camera angle: 224.9703
[11/04/2022 16:34:49:338] Camera angle: 230.1111
[11/04/2022 16:34:49:362] right released
[11/04/2022 16:34:49:634] right pressed
[11/04/2022 16:34:49:682] Camera angle: 235.123
[11/04/2022 16:34:49:754] Camera angle: 240.1463
[11/04/2022 16:34:49:827] Camera angle: 245.2888
[11/04/2022 16:34:49:900] Camera angle: 250.3674
[11/04/2022 16:34:49:973] Camera angle: 255.4513
[11/04/2022 16:34:50:46] Camera angle: 260.5875
[11/04/2022 16:34:50:117] Camera angle: 265.6066
[11/04/2022 16:34:50:163] right released
[11/04/2022 16:34:51:569] left pressed
[11/04/2022 16:34:51:681] Camera angle: 260.4673
[11/04/2022 16:34:51:753] Camera angle: 255.444
[11/04/2022 16:34:51:824] Camera angle: 250.4192
[11/04/2022 16:34:51:898] Camera angle: 245.2809
[11/04/2022 16:34:51:971] Camera angle: 240.1474
[11/04/2022 16:34:52:45] Camera angle: 235.0085
[11/04/2022 16:34:52:118] Camera angle: 229.8689
[11/04/2022 16:34:52:192] Camera angle: 224.7264
[11/04/2022 16:34:52:265] Camera angle: 219.5939
[11/04/2022 16:34:52:337] Camera angle: 214.5695
[11/04/2022 16:34:52:410] Camera angle: 209.4296
[11/04/2022 16:34:52:482] Camera angle: 204.3534
[11/04/2022 16:34:52:557] Camera angle: 199.1581
[11/04/2022 16:34:52:628] Camera angle: 194.1269
[11/04/2022 16:34:52:702] Camera angle: 188.9959
[11/04/2022 16:34:52:773] Camera angle: 183.9801
[11/04/2022 16:34:52:845] Camera angle: 178.9512
[11/04/2022 16:34:52:919] Camera angle: 173.8153
[11/04/2022 16:34:52:991] Camera angle: 168.7943
[11/04/2022 16:34:53:62] Camera angle: 163.7665
[11/04/2022 16:34:53:136] Camera angle: 158.6305
[11/04/2022 16:34:53:209] Camera angle: 153.4897
[11/04/2022 16:34:53:249] left released
[11/04/2022 16:34:53:780] right pressed
[11/04/2022 16:34:53:886] Camera angle: 158.5679
[11/04/2022 16:34:53:958] Camera angle: 163.5849
[11/04/2022 16:34:54:30] Camera angle: 168.6717
[11/04/2022 16:34:54:103] Camera angle: 173.6903
[11/04/2022 16:34:54:175] Camera angle: 178.7804
[11/04/2022 16:34:54:247] Camera angle: 183.7933
[11/04/2022 16:34:54:320] Camera angle: 188.9316
[11/04/2022 16:34:54:394] Camera angle: 194.0735
[11/04/2022 16:34:54:467] Camera angle: 199.2093
[11/04/2022 16:34:54:539] Camera angle: 204.2276
[11/04/2022 16:34:54:612] Camera angle: 209.3719
[11/04/2022 16:34:54:684] Camera angle: 214.3872
[11/04/2022 16:34:54:757] Camera angle: 219.5228
[11/04/2022 16:34:54:829] Camera angle: 224.5524
[11/04/2022 16:34:54:901] Camera angle: 229.5726
[11/04/2022 16:34:54:974] Camera angle: 234.7095
[11/04/2022 16:34:55:46] Camera angle: 239.7365
[11/04/2022 16:34:55:118] Camera angle: 244.7514
[11/04/2022 16:34:55:190] Camera angle: 249.778
[11/04/2022 16:34:55:262] Camera angle: 254.8569
[11/04/2022 16:34:55:336] Camera angle: 260.0551
[11/04/2022 16:34:55:407] Camera angle: 265.0707
[11/04/2022 16:34:55:480] Camera angle: 270.099
[11/04/2022 16:34:55:551] Camera angle: 275.115
[11/04/2022 16:34:55:625] Camera angle: 280.2543
[11/04/2022 16:34:55:697] Camera angle: 285.2774
[11/04/2022 16:34:55:768] Camera angle: 290.2977
[11/04/2022 16:34:55:840] Camera angle: 295.321
[11/04/2022 16:34:55:914] Camera angle: 300.4639
[11/04/2022 16:34:55:985] Camera angle: 305.4832
[11/04/2022 16:34:56:39] Quiz question: <Where is the largest bowlilng alley>, Target: <Elizabeth>, Distractor: <Maria>, Target_Answer: <Japan>, Distractor_Answer: <Minnesota>, Target_correct: <True>
[11/04/2022 16:34:56:40] RightAnswerTask: Showing onscreen question 5
[11/04/2022 16:34:56:58] Camera angle: 310.6175
[11/04/2022 16:34:56:132] Camera angle: 315.7621
[11/04/2022 16:34:56:204] Camera angle: 320.7815
[11/04/2022 16:34:56:277] Camera angle: 325.9155
[11/04/2022 16:34:56:350] Camera angle: 330.9986
[11/04/2022 16:34:56:422] Camera angle: 336.0768
[11/04/2022 16:34:56:493] Camera angle: 341.0918
[11/04/2022 16:34:56:566] Camera angle: 346.1257
[11/04/2022 16:34:56:637] Camera angle: 351.1436
[11/04/2022 16:34:56:710] Camera angle: 356.223
[11/04/2022 16:34:56:740] right released
[11/04/2022 16:34:58:932] RightAnswerTask: Correct answer 5 logged (Target correct, D pressed)
[11/04/2022 16:35:03:379] right pressed
[11/04/2022 16:35:03:423] Camera angle: 1.306915
[11/04/2022 16:35:03:496] Camera angle: 6.439826
[11/04/2022 16:35:03:568] Camera angle: 11.46071
[11/04/2022 16:35:03:640] Camera angle: 16.54522
[11/04/2022 16:35:03:715] Camera angle: 21.74034
[11/04/2022 16:35:03:786] Camera angle: 26.76284
[11/04/2022 16:35:03:858] Camera angle: 31.78613
[11/04/2022 16:35:03:930] Camera angle: 36.80632
[11/04/2022 16:35:04:2] right released
[11/04/2022 16:35:04:451] left pressed
[11/04/2022 16:35:04:588] Camera angle: 31.77812
[11/04/2022 16:35:04:595] left released
[11/04/2022 16:35:05:954] right pressed
[11/04/2022 16:35:06:27] Camera angle: 36.79495
[11/04/2022 16:35:06:100] Camera angle: 41.8748
[11/04/2022 16:35:06:173] Camera angle: 47.01791
[11/04/2022 16:35:06:247] Camera angle: 52.21174
[11/04/2022 16:35:06:320] Camera angle: 57.28985
[11/04/2022 16:35:06:392] Camera angle: 62.3745
[11/04/2022 16:35:06:466] Camera angle: 67.50977
[11/04/2022 16:35:06:539] Camera angle: 72.64992
[11/04/2022 16:35:06:612] Camera angle: 77.78115
[11/04/2022 16:35:06:686] Camera angle: 82.92303
[11/04/2022 16:35:06:757] Camera angle: 87.94902
[11/04/2022 16:35:06:829] Camera angle: 92.96994
[11/04/2022 16:35:06:836] right released
[11/04/2022 16:35:07:891] right pressed
[11/04/2022 16:35:07:956] Camera angle: 97.9891
[11/04/2022 16:35:08:27] Camera angle: 103.0137
[11/04/2022 16:35:08:100] Camera angle: 108.093
[11/04/2022 16:35:08:173] Camera angle: 113.1784
[11/04/2022 16:35:08:244] Camera angle: 118.1994
[11/04/2022 16:35:08:316] Camera angle: 123.2173
[11/04/2022 16:35:08:389] Camera angle: 128.2952
[11/04/2022 16:35:08:461] Camera angle: 133.3809
[11/04/2022 16:35:08:534] Camera angle: 138.5155
[11/04/2022 16:35:08:606] Camera angle: 143.5483
[11/04/2022 16:35:08:678] Camera angle: 148.5554
[11/04/2022 16:35:08:692] right released
[11/04/2022 16:35:09:876] right pressed
[11/04/2022 16:35:09:938] Camera angle: 153.8119
[11/04/2022 16:35:09:969] right released
[11/04/2022 16:35:15:521] right pressed
[11/04/2022 16:35:15:562] Camera angle: 158.8253
[11/04/2022 16:35:15:637] Camera angle: 164.0273
[11/04/2022 16:35:15:708] Camera angle: 169.0461
[11/04/2022 16:35:15:780] Camera angle: 174.0621
[11/04/2022 16:35:15:852] Camera angle: 179.1469
[11/04/2022 16:35:15:927] Camera angle: 184.3458
[11/04/2022 16:35:15:998] Camera angle: 189.3696
[11/04/2022 16:35:16:71] Camera angle: 194.5059
[11/04/2022 16:35:16:145] Camera angle: 199.6433
[11/04/2022 16:35:16:217] Camera angle: 204.6669
[11/04/2022 16:35:16:291] Camera angle: 209.8062
[11/04/2022 16:35:16:362] Camera angle: 214.8236
[11/04/2022 16:35:16:436] Camera angle: 219.9684
[11/04/2022 16:35:16:467] right released
[11/04/2022 16:35:17:26] right pressed
[11/04/2022 16:35:17:70] Camera angle: 225.1667
[11/04/2022 16:35:17:143] Camera angle: 230.3032
[11/04/2022 16:35:17:217] Camera angle: 235.5008
[11/04/2022 16:35:17:282] right released
[11/04/2022 16:35:22:61] Quiz question: <Who was the first Tsar of Russia>, Target: <Susan>, Distractor: <John>, Target_Answer: <Ivan the Terrible>, Distractor_Answer: <Catherine the Great>, Target_correct: <True>
[11/04/2022 16:35:22:62] RightAnswerTask: Showing onscreen question 6
[11/04/2022 16:35:24:276] RightAnswerTask: Correct answer 6 logged (Target correct, D pressed)
[11/04/2022 16:35:27:587] right pressed
[11/04/2022 16:35:27:594] Camera angle: 240.6396
[11/04/2022 16:35:27:666] Camera angle: 245.7127
[11/04/2022 16:35:27:739] Camera angle: 250.7359
[11/04/2022 16:35:27:764] right released
[11/04/2022 16:35:28:434] right pressed
[11/04/2022 16:35:28:481] Camera angle: 255.8207
[11/04/2022 16:35:28:547] right released
[11/04/2022 16:35:29:42] left pressed
[11/04/2022 16:35:29:173] Camera angle: 250.7345
[11/04/2022 16:35:29:246] Camera angle: 245.5942
[11/04/2022 16:35:29:319] Camera angle: 240.5726
[11/04/2022 16:35:29:330] left released
[11/04/2022 16:35:29:649] right pressed
[11/04/2022 16:35:29:724] Camera angle: 245.5831
[11/04/2022 16:35:29:797] Camera angle: 250.7179
[11/04/2022 16:35:29:869] Camera angle: 255.743
[11/04/2022 16:35:29:942] Camera angle: 260.8799
[11/04/2022 16:35:30:14] Camera angle: 265.9058
[11/04/2022 16:35:30:85] Camera angle: 270.9221
[11/04/2022 16:35:30:159] Camera angle: 276.0605
[11/04/2022 16:35:30:232] Camera angle: 281.1995
[11/04/2022 16:35:30:306] Camera angle: 286.334
[11/04/2022 16:35:30:323] right released
[11/04/2022 16:35:30:801] right pressed
[11/04/2022 16:35:30:857] Camera angle: 291.3528
[11/04/2022 16:35:30:928] Camera angle: 296.3675
[11/04/2022 16:35:30:932] right released
[11/04/2022 16:35:32:770] right pressed
[11/04/2022 16:35:32:838] Camera angle: 301.3835
[11/04/2022 16:35:32:912] Camera angle: 306.5235
[11/04/2022 16:35:32:986] Camera angle: 311.6643
[11/04/2022 16:35:33:58] Camera angle: 316.801
[11/04/2022 16:35:33:131] Camera angle: 321.8188
[11/04/2022 16:35:33:139] right released
[11/04/2022 16:35:33:570] right pressed
[11/04/2022 16:35:33:635] right released
[11/04/2022 16:35:34:738] left pressed
[11/04/2022 16:35:34:849] left released
[11/04/2022 16:35:35:139] right pressed
[11/04/2022 16:35:35:251] right released
[11/04/2022 16:35:39:986] left pressed
[11/04/2022 16:35:40:116] left released
[11/04/2022 16:35:40:258] left pressed
[11/04/2022 16:35:40:268] Camera angle: 316.74
[11/04/2022 16:35:40:323] left released
[11/04/2022 16:35:40:450] left pressed
[11/04/2022 16:35:40:467] Camera angle: 311.7199
[11/04/2022 16:35:40:531] left released
[11/04/2022 16:35:40:643] left pressed
[11/04/2022 16:35:40:652] Camera angle: 306.6387
[11/04/2022 16:35:40:721] left released
[11/04/2022 16:35:40:820] left pressed
[11/04/2022 16:35:40:821] Camera angle: 301.6323
[11/04/2022 16:35:40:893] Camera angle: 296.6017
[11/04/2022 16:35:40:931] left released
[11/04/2022 16:35:41:10] left pressed
[11/04/2022 16:35:41:47] Camera angle: 291.407
[11/04/2022 16:35:41:120] Camera angle: 286.2705
[11/04/2022 16:35:41:137] left released
[11/04/2022 16:35:41:602] left pressed
[11/04/2022 16:35:41:659] Camera angle: 281.0671
[11/04/2022 16:35:41:731] Camera angle: 276.0523
[11/04/2022 16:35:41:804] Camera angle: 270.9114
[11/04/2022 16:35:41:876] Camera angle: 265.8865
[11/04/2022 16:35:41:949] Camera angle: 260.7504
[11/04/2022 16:35:42:22] Camera angle: 255.673
[11/04/2022 16:35:42:96] Camera angle: 250.4718
[11/04/2022 16:35:42:169] Camera angle: 245.3966
[11/04/2022 16:35:42:241] Camera angle: 240.3108
[11/04/2022 16:35:42:315] Camera angle: 235.1748
[11/04/2022 16:35:42:386] Camera angle: 230.153
[11/04/2022 16:35:42:458] Camera angle: 225.1313
[11/04/2022 16:35:42:530] Camera angle: 220.1081
[11/04/2022 16:35:42:603] Camera angle: 215.0297
[11/04/2022 16:35:42:677] Camera angle: 209.8309
[11/04/2022 16:35:42:748] Camera angle: 204.8132
[11/04/2022 16:35:42:820] Camera angle: 199.7903
[11/04/2022 16:35:42:892] Camera angle: 194.7657
[11/04/2022 16:35:42:966] Camera angle: 189.6285
[11/04/2022 16:35:43:39] Camera angle: 184.4935
[11/04/2022 16:35:43:112] Camera angle: 179.352
[11/04/2022 16:35:43:186] Camera angle: 174.2156
[11/04/2022 16:35:43:257] Camera angle: 169.1987
[11/04/2022 16:35:43:329] Camera angle: 164.1682
[11/04/2022 16:35:43:403] Camera angle: 159.0327
[11/04/2022 16:35:43:474] Camera angle: 154.0155
[11/04/2022 16:35:43:546] Camera angle: 148.9904
[11/04/2022 16:35:43:617] Camera angle: 143.9681
[11/04/2022 16:35:43:668] left released
[11/04/2022 16:35:43:984] left pressed
[11/04/2022 16:35:44:10] Camera angle: 138.8259
[11/04/2022 16:35:44:81] Camera angle: 133.8094
[11/04/2022 16:35:44:98] left released
[11/04/2022 16:35:44:227] left pressed
[11/04/2022 16:35:44:285] Camera angle: 128.6054
[11/04/2022 16:35:44:340] left released
[11/04/2022 16:35:45:347] right pressed
[11/04/2022 16:35:45:467] Camera angle: 133.752
[11/04/2022 16:35:45:475] right released
[11/04/2022 16:35:45:810] left pressed
[11/04/2022 16:35:45:887] Camera angle: 128.669
[11/04/2022 16:35:45:905] left released
[11/04/2022 16:35:48:31] Quiz question: <Where is the oldest tree in the world>, Target: <Elizabeth>, Distractor: <Maria>, Target_Answer: <Colorado>, Distractor_Answer: <California>, Target_correct: <False>
[11/04/2022 16:35:48:31] RightAnswerTask: Showing onscreen question 7
[11/04/2022 16:35:51:202] RightAnswerTask: Correct answer 7 logged (Distractor correct, D pressed)
[11/04/2022 16:35:53:731] left pressed
[11/04/2022 16:35:53:784] Camera angle: 123.6505
[11/04/2022 16:35:53:856] Camera angle: 118.6231
[11/04/2022 16:35:53:927] Camera angle: 113.6021
[11/04/2022 16:35:54:1] Camera angle: 108.5262
[11/04/2022 16:35:54:75] Camera angle: 103.3241
[11/04/2022 16:35:54:146] Camera angle: 98.30613
[11/04/2022 16:35:54:218] Camera angle: 93.28477
[11/04/2022 16:35:54:290] Camera angle: 88.26243
[11/04/2022 16:35:54:363] Camera angle: 83.12242
[11/04/2022 16:35:54:435] Camera angle: 78.10339
[11/04/2022 16:35:54:507] Camera angle: 73.07655
[11/04/2022 16:35:54:581] Camera angle: 67.88094
[11/04/2022 16:35:54:655] Camera angle: 62.68424
[11/04/2022 16:35:54:689] left released
[11/04/2022 16:35:55:249] left pressed
[11/04/2022 16:35:55:288] Camera angle: 57.55215
[11/04/2022 16:35:55:361] Camera angle: 52.47482
[11/04/2022 16:35:55:394] left released
[11/04/2022 16:35:56:354] left pressed
[11/04/2022 16:35:56:394] Camera angle: 47.38388
[11/04/2022 16:35:56:466] Camera angle: 42.36559
[11/04/2022 16:35:56:537] Camera angle: 37.34033
[11/04/2022 16:35:56:609] Camera angle: 32.32137
[11/04/2022 16:35:56:681] Camera angle: 27.30099
[11/04/2022 16:35:56:753] Camera angle: 22.28156
[11/04/2022 16:35:56:826] Camera angle: 17.14046
[11/04/2022 16:35:56:897] Camera angle: 12.1184
[11/04/2022 16:35:56:970] Camera angle: 7.042033
[11/04/2022 16:35:57:42] Camera angle: 1.960594
[11/04/2022 16:35:57:116] Camera angle: 356.8197
[11/04/2022 16:35:57:190] Camera angle: 351.6778
[11/04/2022 16:35:57:263] Camera angle: 346.541
[11/04/2022 16:35:57:335] Camera angle: 341.522
[11/04/2022 16:35:57:406] Camera angle: 336.4947
[11/04/2022 16:35:57:480] Camera angle: 331.3622
[11/04/2022 16:35:57:553] Camera angle: 326.2232
[11/04/2022 16:35:57:625] Camera angle: 321.1988
[11/04/2022 16:35:57:699] Camera angle: 316.0605
[11/04/2022 16:35:57:730] left released
[11/04/2022 16:35:58:67] left pressed
[11/04/2022 16:35:58:109] Camera angle: 310.9228
[11/04/2022 16:35:58:181] Camera angle: 305.9004
[11/04/2022 16:35:58:252] Camera angle: 300.8834
[11/04/2022 16:35:58:324] Camera angle: 295.8552
[11/04/2022 16:35:58:398] Camera angle: 290.7196
[11/04/2022 16:35:58:471] Camera angle: 285.5815
[11/04/2022 16:35:58:543] Camera angle: 280.5559
[11/04/2022 16:35:58:614] Camera angle: 275.5383
[11/04/2022 16:35:58:686] Camera angle: 270.5158
[11/04/2022 16:35:58:760] Camera angle: 265.3727
[11/04/2022 16:35:58:831] Camera angle: 260.3578
[11/04/2022 16:35:58:898] left released
[11/04/2022 16:35:59:377] left pressed
[11/04/2022 16:35:59:381] Camera angle: 255.3298
[11/04/2022 16:35:59:455] Camera angle: 250.1922
[11/04/2022 16:35:59:528] Camera angle: 245.052
[11/04/2022 16:35:59:600] Camera angle: 240.0297
[11/04/2022 16:35:59:674] Camera angle: 234.8947
[11/04/2022 16:35:59:747] Camera angle: 229.7539
[11/04/2022 16:35:59:820] Camera angle: 224.6748
[11/04/2022 16:35:59:892] Camera angle: 219.5896
[11/04/2022 16:35:59:966] Camera angle: 214.4531
[11/04/2022 16:36:00:36] left released
[11/04/2022 16:36:00:369] left pressed
[11/04/2022 16:36:00:373] Camera angle: 209.3137
[11/04/2022 16:36:00:446] Camera angle: 204.1715
[11/04/2022 16:36:00:520] Camera angle: 199.0354
[11/04/2022 16:36:00:591] Camera angle: 194.0113
[11/04/2022 16:36:00:665] Camera angle: 188.8724
[11/04/2022 16:36:00:738] Camera angle: 183.7432
[11/04/2022 16:36:00:810] Camera angle: 178.7127
[11/04/2022 16:36:00:883] Camera angle: 173.5799
[11/04/2022 16:36:00:930] left released
[11/04/2022 16:36:01:379] right pressed
[11/04/2022 16:36:01:492] Camera angle: 178.6432
[11/04/2022 16:36:01:521] right released
[11/04/2022 16:36:01:684] right pressed
[11/04/2022 16:36:01:729] Camera angle: 183.8454
[11/04/2022 16:36:01:796] right released
[11/04/2022 16:36:01:938] right pressed
[11/04/2022 16:36:01:943] Camera angle: 188.8627
[11/04/2022 16:36:02:14] Camera angle: 193.8892
[11/04/2022 16:36:02:18] right released
[11/04/2022 16:36:02:130] right pressed
[11/04/2022 16:36:02:198] Camera angle: 198.9178
[11/04/2022 16:36:02:226] right released
[11/04/2022 16:36:02:321] right pressed
[11/04/2022 16:36:02:366] Camera angle: 203.9938
[11/04/2022 16:36:02:420] right released
[11/04/2022 16:36:02:964] right pressed
[11/04/2022 16:36:02:982] Camera angle: 209.0225
[11/04/2022 16:36:02:994] right released
[11/04/2022 16:36:09:105] left pressed
[11/04/2022 16:36:09:185] left released
[11/04/2022 16:36:09:457] left pressed
[11/04/2022 16:36:09:457] Camera angle: 203.8257
[11/04/2022 16:36:09:523] left released
[11/04/2022 16:36:09:793] left pressed
[11/04/2022 16:36:09:800] Camera angle: 198.7502
[11/04/2022 16:36:09:826] left released
[11/04/2022 16:36:10:100] left pressed
[11/04/2022 16:36:10:145] left released
[11/04/2022 16:36:11:619] right pressed
[11/04/2022 16:36:11:759] Camera angle: 203.8807
[11/04/2022 16:36:11:831] Camera angle: 208.9607
[11/04/2022 16:36:11:902] Camera angle: 213.9753
[11/04/2022 16:36:11:975] Camera angle: 219.0605
[11/04/2022 16:36:12:39] Quiz question: <What is the tallest mountain in Canada>, Target: <Annie>, Distractor: <John>, Target_Answer: <Mount Columbia>, Distractor_Answer: <Mount Logan>, Target_correct: <False>
[11/04/2022 16:36:12:40] RightAnswerTask: Showing onscreen question 8
[11/04/2022 16:36:12:47] Camera angle: 224.1418
[11/04/2022 16:36:12:120] Camera angle: 229.1564
[11/04/2022 16:36:12:191] Camera angle: 234.1807
[11/04/2022 16:36:12:264] Camera angle: 239.3183
[11/04/2022 16:36:12:336] Camera angle: 244.3409
[11/04/2022 16:36:12:409] Camera angle: 249.4255
[11/04/2022 16:36:12:482] Camera angle: 254.4976
[11/04/2022 16:36:12:555] Camera angle: 259.6399
[11/04/2022 16:36:12:628] Camera angle: 264.7813
[11/04/2022 16:36:12:702] Camera angle: 269.9185
[11/04/2022 16:36:12:775] Camera angle: 275.0571
[11/04/2022 16:36:12:848] Camera angle: 280.1919
[11/04/2022 16:36:12:922] Camera angle: 285.3365
[11/04/2022 16:36:12:995] Camera angle: 290.4766
[11/04/2022 16:36:13:68] Camera angle: 295.6093
[11/04/2022 16:36:13:141] Camera angle: 300.635
[11/04/2022 16:36:13:213] Camera angle: 305.6541
[11/04/2022 16:36:13:285] Camera angle: 310.7895
[11/04/2022 16:36:13:359] Camera angle: 315.9275
[11/04/2022 16:36:13:431] Camera angle: 320.9552
[11/04/2022 16:36:13:503] Camera angle: 326.0339
[11/04/2022 16:36:13:577] Camera angle: 331.1735
[11/04/2022 16:36:13:649] Camera angle: 336.2528
[11/04/2022 16:36:13:721] Camera angle: 341.2729
[11/04/2022 16:36:13:794] Camera angle: 346.3528
[11/04/2022 16:36:13:867] Camera angle: 351.4864
[11/04/2022 16:36:13:940] Camera angle: 356.6333
[11/04/2022 16:36:13:985] right released
[11/04/2022 16:36:15:939] RightAnswerTask: Correct answer 8 logged (Distractor correct, D pressed)
[11/04/2022 16:36:24:40] Video time: 293
[11/04/2022 16:36:29:31] Video time: 298
[11/04/2022 16:36:31:362] right pressed
[11/04/2022 16:36:31:387] Camera angle: 1.649049
[11/04/2022 16:36:31:462] Camera angle: 6.790823
[11/04/2022 16:36:31:536] Camera angle: 11.98583
[11/04/2022 16:36:31:607] Camera angle: 17.0111
[11/04/2022 16:36:31:679] Camera angle: 22.03045
[11/04/2022 16:36:31:751] Camera angle: 27.05102
[11/04/2022 16:36:31:823] Camera angle: 32.06828
[11/04/2022 16:36:31:896] Camera angle: 37.21243
[11/04/2022 16:36:31:968] Camera angle: 42.29038
[11/04/2022 16:36:32:41] Camera angle: 47.37338
[11/04/2022 16:36:32:112] Camera angle: 52.39234
[11/04/2022 16:36:32:186] Camera angle: 57.5307
[11/04/2022 16:36:32:260] Camera angle: 62.67211
[11/04/2022 16:36:32:331] Camera angle: 67.69233
[11/04/2022 16:36:32:405] Camera angle: 72.8259
[11/04/2022 16:36:32:478] Camera angle: 77.96803
[11/04/2022 16:36:32:546] right released
[11/04/2022 16:36:32:865] right pressed
[11/04/2022 16:36:32:869] Camera angle: 82.98918
[11/04/2022 16:36:32:942] Camera angle: 88.1305
[11/04/2022 16:36:33:14] Camera angle: 93.15346
[11/04/2022 16:36:33:86] Camera angle: 98.29041
[11/04/2022 16:36:33:139] right released
[11/04/2022 16:36:34:51] Video time: 303
[11/04/2022 16:36:35:218] left pressed
[11/04/2022 16:36:35:313] left released
[11/04/2022 16:36:35:825] left pressed
[11/04/2022 16:36:35:848] Camera angle: 93.26591
[11/04/2022 16:36:35:922] Camera angle: 88.12997
[11/04/2022 16:36:35:995] Camera angle: 82.98602
[11/04/2022 16:36:36:68] Camera angle: 77.85446
[11/04/2022 16:36:36:142] Camera angle: 72.71443
[11/04/2022 16:36:36:179] left released
[11/04/2022 16:36:36:450] left pressed
[11/04/2022 16:36:36:486] Camera angle: 67.63461
[11/04/2022 16:36:36:559] Camera angle: 62.50102
[11/04/2022 16:36:36:631] Camera angle: 57.47392
[11/04/2022 16:36:36:702] Camera angle: 52.45453
[11/04/2022 16:36:36:776] Camera angle: 47.31843
[11/04/2022 16:36:36:849] Camera angle: 42.1765
[11/04/2022 16:36:36:921] Camera angle: 37.15509
[11/04/2022 16:36:36:994] Camera angle: 32.07834
[11/04/2022 16:36:37:31] Quiz question: <Who wrote Flowers for Algernon>, Target: <Elizabeth>, Distractor: <Maria>, Target_Answer: <Daniel Keyes>, Distractor_Answer: <Isaac Asimov>, Target_correct: <True>
[11/04/2022 16:36:37:31] RightAnswerTask: Showing onscreen question 9
[11/04/2022 16:36:37:65] Camera angle: 27.05788
[11/04/2022 16:36:37:137] Camera angle: 21.97886
[11/04/2022 16:36:37:202] left released
[11/04/2022 16:36:37:506] left pressed
[11/04/2022 16:36:37:515] Camera angle: 16.77344
[11/04/2022 16:36:37:588] Camera angle: 11.63637
[11/04/2022 16:36:37:660] Camera angle: 6.61764
[11/04/2022 16:36:37:730] left released
[11/04/2022 16:36:38:833] RightAnswerTask: Correct answer 9 logged (Target correct, A pressed)
[11/04/2022 16:36:39:41] Video time: 308
[11/04/2022 16:36:44:31] Video time: 313
[11/04/2022 16:36:48:35] Starting SAGAT 2
[11/04/2022 16:36:48:36] SAGAT question loaded: "Identify one person who was in your field of view just before the simulation paused." Answers: Susan ; John ; Maria ; Elizabeth ; Carlos ; Annie ; )
[11/04/2022 16:36:53:659] Toggle pressed: Carlos
[11/04/2022 16:36:54:810] SAGAT answer given: "Carlos" (correct; "Carlos|John|Maria")
[11/04/2022 16:36:54:811] SAGAT question loaded: "Who is sitting left of the quiz master (your left)?" Answers: [Maria] ; Carlos ; Annie ; John ; Susan ; Elizabeth ; )
[11/04/2022 16:37:00:81] Toggle pressed: Maria
[11/04/2022 16:37:01:457] SAGAT answer given: "Maria" (correct; "Maria")
[11/04/2022 16:37:01:459] SAGAT question loaded: "Who is sitting two seats to the left of the quiz master (your left)?" Answers: Annie ; [Susan] ; Carlos ; Maria ; Elizabeth ; John ; )
[11/04/2022 16:37:06:105] Toggle pressed: Susan
[11/04/2022 16:37:07:602] SAGAT answer given: "Susan" (correct; "Susan")
[11/04/2022 16:37:07:603] SAGAT question loaded: "What was the most recent quiz question?" Answers: Who was the first Tsar of Russia ; What is the tallest mountain in Canada ; [Who wrote Flowers for Algernon] ; What was invented by James Dewer in 1872 ; Where is the largest bowlilng alley ; Where is the oldest tree in the world ; )
[11/04/2022 16:37:17:106] Toggle pressed: Who wrote Flowers for Algernon
[11/04/2022 16:37:19:499] SAGAT answer given: "Who wrote Flowers for Algernon" (correct; "Who wrote Flowers for Algernon")
[11/04/2022 16:37:19:500] SAGAT question loaded: "Who was asked to answer a question most recently?" Answers: [Elizabeth] ; Annie ; Carlos ; Maria ; Susan ; John ; )
[11/04/2022 16:37:30:306] Toggle pressed: Elizabeth
[11/04/2022 16:37:32:98] SAGAT answer given: "Elizabeth" (correct; "Elizabeth")
[11/04/2022 16:37:32:98] SAGAT Complete
[11/04/2022 16:37:33:120] Video time: 318
[11/04/2022 16:37:38:112] Video time: 323
[11/04/2022 16:37:39:506] left pressed
[11/04/2022 16:37:39:508] Camera angle: 1.540267
[11/04/2022 16:37:39:578] Camera angle: 356.4618
[11/04/2022 16:37:39:650] Camera angle: 351.4418
[11/04/2022 16:37:39:721] Camera angle: 346.4194
[11/04/2022 16:37:39:794] Camera angle: 341.3925
[11/04/2022 16:37:39:866] Camera angle: 336.3136
[11/04/2022 16:37:39:940] Camera angle: 331.1763
[11/04/2022 16:37:40:13] Camera angle: 326.0378
[11/04/2022 16:37:40:86] Camera angle: 320.8981
[11/04/2022 16:37:40:161] Camera angle: 315.6984
[11/04/2022 16:37:40:234] Camera angle: 310.563
[11/04/2022 16:37:40:308] Camera angle: 305.4191
[11/04/2022 16:37:40:379] Camera angle: 300.4035
[11/04/2022 16:37:40:452] Camera angle: 295.2661
[11/04/2022 16:37:40:524] Camera angle: 290.2466
[11/04/2022 16:37:40:596] Camera angle: 285.2193
[11/04/2022 16:37:40:668] Camera angle: 280.1417
[11/04/2022 16:37:40:743] Camera angle: 274.9414
[11/04/2022 16:37:40:816] Camera angle: 269.8051
[11/04/2022 16:37:40:890] Camera angle: 264.6719
[11/04/2022 16:37:40:963] Camera angle: 259.5273
[11/04/2022 16:37:40:995] left released
[11/04/2022 16:37:42:112] right pressed
[11/04/2022 16:37:42:192] right released
[11/04/2022 16:37:43:120] Video time: 328
[11/04/2022 16:37:44:210] right pressed
[11/04/2022 16:37:44:227] Camera angle: 264.6067
[11/04/2022 16:37:44:302] Camera angle: 269.8074
[11/04/2022 16:37:44:374] Camera angle: 274.886
[11/04/2022 16:37:44:447] Camera angle: 279.9649
[11/04/2022 16:37:44:519] Camera angle: 284.9872
[11/04/2022 16:37:44:590] Camera angle: 290.0084
[11/04/2022 16:37:44:663] Camera angle: 295.1487
[11/04/2022 16:37:44:735] Camera angle: 300.168
[11/04/2022 16:37:44:808] Camera angle: 305.2495
[11/04/2022 16:37:44:881] Camera angle: 310.3914
[11/04/2022 16:37:44:956] Camera angle: 315.5846
[11/04/2022 16:37:45:27] Camera angle: 320.6016
[11/04/2022 16:37:45:101] Camera angle: 325.745
[11/04/2022 16:37:45:111] Quiz question: <What colour is the Mallow flower>, Target: <Susan>, Distractor: <John>, Target_Answer: <Pink>, Distractor_Answer: <Purple>, Target_correct: <False>
[11/04/2022 16:37:45:113] RightAnswerTask: Showing onscreen question 10
[11/04/2022 16:37:45:174] Camera angle: 330.8802
[11/04/2022 16:37:45:247] Camera angle: 336.0185
[11/04/2022 16:37:45:319] Camera angle: 341.0433
[11/04/2022 16:37:45:391] Camera angle: 346.0647
[11/04/2022 16:37:45:464] Camera angle: 351.1997
[11/04/2022 16:37:45:506] right released
[11/04/2022 16:37:46:914] RightAnswerTask: Correct answer 10 logged (Distractor correct, D pressed)
[11/04/2022 16:37:48:120] Video time: 333
[11/04/2022 16:37:48:475] Video finished
[11/04/2022 16:37:48:547] right pressed
[11/04/2022 16:37:48:577] Camera angle: 356.2282
[11/04/2022 16:37:48:643] right released
[11/04/2022 16:38:08:483] Escape pressed during experiment
[11/04/2022 16:38:08:484] Log creation for experiment proper...
