[11/04/2022 16:44:52:635] Participant ID: 27
[11/04/2022 16:44:52:635] Session: Actual
[11/04/2022 16:44:52:635] Scene: Scene 1
[11/04/2022 16:44:52:635] Audio: Spatial
[11/04/2022 16:44:52:635] Loading video from file: C:/windows_build/Videos/Scene1.mp4
[11/04/2022 16:44:52:635] Got SAGAT times: 192s and 317s
[11/04/2022 16:44:52:635] RightAnswerTask: Ready
[11/04/2022 16:45:01:250] left pressed
[11/04/2022 16:45:01:319] Camera angle: 354.8591
[11/04/2022 16:45:01:392] left released
[11/04/2022 16:45:01:553] left pressed
[11/04/2022 16:45:01:553] Camera angle: 349.7223
[11/04/2022 16:45:01:626] Camera angle: 344.5839
[11/04/2022 16:45:01:700] Camera angle: 339.4427
[11/04/2022 16:45:01:773] Camera angle: 334.3074
[11/04/2022 16:45:01:846] Camera angle: 329.1728
[11/04/2022 16:45:01:919] Camera angle: 324.0308
[11/04/2022 16:45:01:993] Camera angle: 318.8943
[11/04/2022 16:45:02:66] Camera angle: 313.7524
[11/04/2022 16:45:02:84] left released
[11/04/2022 16:45:02:371] left pressed
[11/04/2022 16:45:02:427] Camera angle: 308.6241
[11/04/2022 16:45:02:500] Camera angle: 303.482
[11/04/2022 16:45:02:573] Camera angle: 298.3453
[11/04/2022 16:45:02:594] left released
[11/04/2022 16:45:03:122] left pressed
[11/04/2022 16:45:03:174] Camera angle: 293.2104
[11/04/2022 16:45:03:247] Camera angle: 288.0743
[11/04/2022 16:45:03:321] Camera angle: 282.9337
[11/04/2022 16:45:03:394] Camera angle: 277.7963
[11/04/2022 16:45:03:468] Camera angle: 272.6546
[11/04/2022 16:45:03:541] Camera angle: 267.5211
[11/04/2022 16:45:03:615] Camera angle: 262.3811
[11/04/2022 16:45:03:682] left released
[11/04/2022 16:45:03:905] left pressed
[11/04/2022 16:45:03:911] Camera angle: 257.249
[11/04/2022 16:45:03:985] Camera angle: 252.1048
[11/04/2022 16:45:04:58] Camera angle: 246.9681
[11/04/2022 16:45:04:132] Camera angle: 241.8351
[11/04/2022 16:45:04:205] Camera angle: 236.6907
[11/04/2022 16:45:04:279] Camera angle: 231.5559
[11/04/2022 16:45:04:352] Camera angle: 226.4144
[11/04/2022 16:45:04:425] Camera angle: 221.2769
[11/04/2022 16:45:04:499] Camera angle: 216.1403
[11/04/2022 16:45:04:512] left released
[11/04/2022 16:45:04:754] left pressed
[11/04/2022 16:45:04:813] Camera angle: 210.9985
[11/04/2022 16:45:04:886] Camera angle: 205.8555
[11/04/2022 16:45:04:960] Camera angle: 200.7221
[11/04/2022 16:45:05:33] Camera angle: 195.5857
[11/04/2022 16:45:05:106] Camera angle: 190.4439
[11/04/2022 16:45:05:180] Camera angle: 185.3073
[11/04/2022 16:45:05:254] Camera angle: 180.1653
[11/04/2022 16:45:05:284] left released
[11/04/2022 16:45:05:426] left pressed
[11/04/2022 16:45:05:470] Camera angle: 175.0278
[11/04/2022 16:45:05:543] Camera angle: 169.8922
[11/04/2022 16:45:05:617] Camera angle: 164.7557
[11/04/2022 16:45:05:667] left released
[11/04/2022 16:45:05:988] left pressed
[11/04/2022 16:45:06:10] Camera angle: 159.6093
[11/04/2022 16:45:06:84] Camera angle: 154.4751
[11/04/2022 16:45:06:157] Camera angle: 149.3322
[11/04/2022 16:45:06:230] Camera angle: 144.1962
[11/04/2022 16:45:06:304] Camera angle: 139.0522
[11/04/2022 16:45:06:377] Camera angle: 133.9165
[11/04/2022 16:45:06:434] left released
[11/04/2022 16:45:06:754] left pressed
[11/04/2022 16:45:06:770] Camera angle: 128.8753
[11/04/2022 16:45:06:842] Camera angle: 123.8104
[11/04/2022 16:45:06:915] Camera angle: 118.7353
[11/04/2022 16:45:06:987] Camera angle: 113.6935
[11/04/2022 16:45:07:58] Camera angle: 108.6931
[11/04/2022 16:45:07:131] Camera angle: 103.5564
[11/04/2022 16:45:07:205] Camera angle: 98.4125
[11/04/2022 16:45:07:278] Camera angle: 93.27529
[11/04/2022 16:45:07:352] Camera angle: 88.14084
[11/04/2022 16:45:07:377] left released
[11/04/2022 16:45:07:745] left pressed
[11/04/2022 16:45:07:793] Camera angle: 82.99792
[11/04/2022 16:45:07:866] Camera angle: 77.97829
[11/04/2022 16:45:07:938] Camera angle: 72.93417
[11/04/2022 16:45:08:9] Camera angle: 67.93234
[11/04/2022 16:45:08:83] Camera angle: 62.79703
[11/04/2022 16:45:08:154] Camera angle: 57.75202
[11/04/2022 16:45:08:227] Camera angle: 52.69489
[11/04/2022 16:45:08:299] Camera angle: 47.61541
[11/04/2022 16:45:08:372] Camera angle: 42.56588
[11/04/2022 16:45:08:444] Camera angle: 37.50909
[11/04/2022 16:45:08:516] Camera angle: 32.4313
[11/04/2022 16:45:08:588] Camera angle: 27.39036
[11/04/2022 16:45:08:659] Camera angle: 22.38755
[11/04/2022 16:45:08:707] left released
[11/04/2022 16:45:08:931] left pressed
[11/04/2022 16:45:08:955] Camera angle: 17.34677
[11/04/2022 16:45:09:30] Camera angle: 12.11596
[11/04/2022 16:45:09:103] Camera angle: 6.977853
[11/04/2022 16:45:09:177] Camera angle: 1.835746
[11/04/2022 16:45:09:250] Camera angle: 356.7008
[11/04/2022 16:45:09:298] left released
[11/04/2022 16:45:10:288] right pressed
[11/04/2022 16:45:10:401] Camera angle: 1.718671
[11/04/2022 16:45:10:418] right released
[11/04/2022 16:45:13:760] left pressed
[11/04/2022 16:45:13:845] Camera angle: 356.5778
[11/04/2022 16:45:13:918] Camera angle: 351.4404
[11/04/2022 16:45:13:991] Camera angle: 346.3048
[11/04/2022 16:45:14:65] Camera angle: 341.1614
[11/04/2022 16:45:14:138] Camera angle: 336.0256
[11/04/2022 16:45:14:212] Camera angle: 330.8821
[11/04/2022 16:45:14:242] left released
[11/04/2022 16:45:14:659] left pressed
[11/04/2022 16:45:14:703] Camera angle: 325.6875
[11/04/2022 16:45:14:776] Camera angle: 320.6115
[11/04/2022 16:45:14:786] left released
[11/04/2022 16:45:15:600] left pressed
[11/04/2022 16:45:15:663] Camera angle: 315.4657
[11/04/2022 16:45:15:737] Camera angle: 310.3362
[11/04/2022 16:45:15:810] Camera angle: 305.1941
[11/04/2022 16:45:15:882] Camera angle: 300.1672
[11/04/2022 16:45:15:954] Camera angle: 295.1519
[11/04/2022 16:45:16:27] Camera angle: 290.0133
[11/04/2022 16:45:16:81] left released
[11/04/2022 16:45:16:305] left pressed
[11/04/2022 16:45:16:324] Camera angle: 284.8788
[11/04/2022 16:45:16:397] Camera angle: 279.7421
[11/04/2022 16:45:16:471] Camera angle: 274.546
[11/04/2022 16:45:16:544] Camera angle: 269.4648
[11/04/2022 16:45:16:618] Camera angle: 264.3238
[11/04/2022 16:45:16:691] left released
[11/04/2022 16:45:17:41] left pressed
[11/04/2022 16:45:17:41] Camera angle: 259.2462
[11/04/2022 16:45:17:115] Camera angle: 254.1081
[11/04/2022 16:45:17:188] Camera angle: 248.9721
[11/04/2022 16:45:17:261] Camera angle: 243.837
[11/04/2022 16:45:17:333] Camera angle: 238.8117
[11/04/2022 16:45:17:406] Camera angle: 233.7313
[11/04/2022 16:45:17:478] Camera angle: 228.6532
[11/04/2022 16:45:17:552] Camera angle: 223.5128
[11/04/2022 16:45:17:625] Camera angle: 218.3785
[11/04/2022 16:45:17:698] Camera angle: 213.3293
[11/04/2022 16:45:17:769] Camera angle: 208.274
[11/04/2022 16:45:17:842] Camera angle: 203.1929
[11/04/2022 16:45:17:916] Camera angle: 198.0504
[11/04/2022 16:45:17:989] Camera angle: 192.9165
[11/04/2022 16:45:18:62] Camera angle: 187.7805
[11/04/2022 16:45:18:134] Camera angle: 182.7524
[11/04/2022 16:45:18:208] Camera angle: 177.618
[11/04/2022 16:45:18:280] Camera angle: 172.5983
[11/04/2022 16:45:18:290] left released
[11/04/2022 16:45:18:627] left pressed
[11/04/2022 16:45:18:690] Camera angle: 167.4281
[11/04/2022 16:45:18:763] Camera angle: 162.3201
[11/04/2022 16:45:18:836] Camera angle: 157.1788
[11/04/2022 16:45:18:910] Camera angle: 152.0427
[11/04/2022 16:45:18:983] Camera angle: 146.8991
[11/04/2022 16:45:19:57] Camera angle: 141.7642
[11/04/2022 16:45:19:131] Camera angle: 136.6288
[11/04/2022 16:45:19:202] Camera angle: 131.6044
[11/04/2022 16:45:19:219] left released
[11/04/2022 16:45:19:552] left pressed
[11/04/2022 16:45:19:611] Camera angle: 126.3517
[11/04/2022 16:45:19:684] Camera angle: 121.2092
[11/04/2022 16:45:19:757] Camera angle: 116.0702
[11/04/2022 16:45:19:831] Camera angle: 110.9369
[11/04/2022 16:45:19:903] Camera angle: 105.9096
[11/04/2022 16:45:19:974] Camera angle: 100.8903
[11/04/2022 16:45:20:48] Camera angle: 95.75298
[11/04/2022 16:45:20:119] Camera angle: 90.7321
[11/04/2022 16:45:20:191] Camera angle: 85.70977
[11/04/2022 16:45:20:265] Camera angle: 80.5721
[11/04/2022 16:45:20:338] Camera angle: 75.42992
[11/04/2022 16:45:20:411] Camera angle: 70.29294
[11/04/2022 16:45:20:485] Camera angle: 65.15115
[11/04/2022 16:45:20:558] Camera angle: 60.01661
[11/04/2022 16:45:20:631] Camera angle: 54.88063
[11/04/2022 16:45:20:703] Camera angle: 49.85255
[11/04/2022 16:45:20:776] Camera angle: 44.77494
[11/04/2022 16:45:20:848] Camera angle: 39.6977
[11/04/2022 16:45:20:922] Camera angle: 34.55544
[11/04/2022 16:45:20:995] Camera angle: 29.42003
[11/04/2022 16:45:21:68] Camera angle: 24.37322
[11/04/2022 16:45:21:75] left released
[11/04/2022 16:45:21:170] left pressed
[11/04/2022 16:45:21:239] Camera angle: 19.15992
[11/04/2022 16:45:21:250] left released
[11/04/2022 16:45:21:876] left pressed
[11/04/2022 16:45:21:936] Camera angle: 14.13844
[11/04/2022 16:45:22:12] Camera angle: 8.885649
[11/04/2022 16:45:22:66] left released
[11/04/2022 16:45:57:826] right pressed
[11/04/2022 16:45:57:949] Camera angle: 14.02433
[11/04/2022 16:45:58:20] Camera angle: 19.07014
[11/04/2022 16:45:58:93] Camera angle: 24.13036
[11/04/2022 16:45:58:166] Camera angle: 29.20537
[11/04/2022 16:45:58:238] Camera angle: 34.25673
[11/04/2022 16:45:58:313] Camera angle: 39.48459
[11/04/2022 16:45:58:369] right released
[11/04/2022 16:45:58:849] right pressed
[11/04/2022 16:45:58:863] Camera angle: 44.56765
[11/04/2022 16:45:58:936] Camera angle: 49.70374
[11/04/2022 16:45:58:977] right released
[11/04/2022 16:46:02:146] right pressed
[11/04/2022 16:46:02:176] Camera angle: 54.73588
[11/04/2022 16:46:02:250] Camera angle: 59.89708
[11/04/2022 16:46:02:323] Camera angle: 65.00591
[11/04/2022 16:46:02:396] Camera angle: 70.14458
[11/04/2022 16:46:02:470] Camera angle: 75.28216
[11/04/2022 16:46:02:543] Camera angle: 80.42529
[11/04/2022 16:46:02:617] Camera angle: 85.56237
[11/04/2022 16:46:02:690] Camera angle: 90.69762
[11/04/2022 16:46:02:764] Camera angle: 95.83628
[11/04/2022 16:46:02:837] Camera angle: 100.9755
[11/04/2022 16:46:02:909] Camera angle: 106.02
[11/04/2022 16:46:02:944] right released
[11/04/2022 16:46:03:345] right pressed
[11/04/2022 16:46:03:385] Camera angle: 111.2522
[11/04/2022 16:46:03:458] Camera angle: 116.389
[11/04/2022 16:46:03:531] Camera angle: 121.5326
[11/04/2022 16:46:03:604] Camera angle: 126.6691
[11/04/2022 16:46:03:679] Camera angle: 131.8095
[11/04/2022 16:46:03:715] right released
[11/04/2022 16:46:04:65] right pressed
[11/04/2022 16:46:04:102] Camera angle: 136.9453
[11/04/2022 16:46:04:175] Camera angle: 142.0788
[11/04/2022 16:46:04:249] Camera angle: 147.2168
[11/04/2022 16:46:04:322] Camera angle: 152.3563
[11/04/2022 16:46:04:396] Camera angle: 157.5012
[11/04/2022 16:46:04:469] Camera angle: 162.6359
[11/04/2022 16:46:04:543] Camera angle: 167.7743
[11/04/2022 16:46:04:592] right released
[11/04/2022 16:46:04:928] right pressed
[11/04/2022 16:46:04:953] Camera angle: 172.9686
[11/04/2022 16:46:05:26] Camera angle: 178.0466
[11/04/2022 16:46:05:99] Camera angle: 183.1862
[11/04/2022 16:46:05:170] right released
[11/04/2022 16:46:05:748] right pressed
[11/04/2022 16:46:05:750] Camera angle: 188.3261
[11/04/2022 16:46:05:823] Camera angle: 193.462
[11/04/2022 16:46:05:891] right released
[11/04/2022 16:46:06:449] right pressed
[11/04/2022 16:46:06:457] Camera angle: 198.7521
[11/04/2022 16:46:06:529] Camera angle: 203.7971
[11/04/2022 16:46:06:604] Camera angle: 209.0276
[11/04/2022 16:46:06:678] Camera angle: 214.1644
[11/04/2022 16:46:06:751] Camera angle: 219.3085
[11/04/2022 16:46:06:824] Camera angle: 224.4436
[11/04/2022 16:46:06:898] Camera angle: 229.5867
[11/04/2022 16:46:06:915] right released
[11/04/2022 16:46:07:186] right pressed
[11/04/2022 16:46:07:241] Camera angle: 234.5978
[11/04/2022 16:46:07:313] Camera angle: 239.6416
[11/04/2022 16:46:07:385] Camera angle: 244.6451
[11/04/2022 16:46:07:408] right released
[11/04/2022 16:46:09:619] right pressed
[11/04/2022 16:46:09:667] Camera angle: 249.6451
[11/04/2022 16:46:09:740] Camera angle: 254.782
[11/04/2022 16:46:09:814] Camera angle: 259.9179
[11/04/2022 16:46:09:888] Camera angle: 265.0586
[11/04/2022 16:46:09:961] Camera angle: 270.1904
[11/04/2022 16:46:10:33] Camera angle: 275.2394
[11/04/2022 16:46:10:105] Camera angle: 280.3011
[11/04/2022 16:46:10:114] right released
[11/04/2022 16:46:10:338] right pressed
[11/04/2022 16:46:10:403] Camera angle: 285.4936
[11/04/2022 16:46:10:475] Camera angle: 290.5138
[11/04/2022 16:46:10:548] Camera angle: 295.6498
[11/04/2022 16:46:10:619] Camera angle: 300.6768
[11/04/2022 16:46:10:675] right released
[11/04/2022 16:46:12:450] right pressed
[11/04/2022 16:46:12:467] Camera angle: 305.6927
[11/04/2022 16:46:12:540] Camera angle: 310.8349
[11/04/2022 16:46:12:613] Camera angle: 315.9705
[11/04/2022 16:46:12:686] Camera angle: 320.9988
[11/04/2022 16:46:12:760] Camera angle: 326.2446
[11/04/2022 16:46:12:833] Camera angle: 331.3846
[11/04/2022 16:46:12:907] Camera angle: 336.5254
[11/04/2022 16:46:12:977] right released
[11/04/2022 16:46:13:201] right pressed
[11/04/2022 16:46:13:204] Camera angle: 341.6723
[11/04/2022 16:46:13:277] Camera angle: 346.8055
[11/04/2022 16:46:13:351] Camera angle: 351.9398
[11/04/2022 16:46:13:424] Camera angle: 357.0838
[11/04/2022 16:46:13:497] Camera angle: 2.223279
[11/04/2022 16:46:13:504] right released
[11/04/2022 16:46:31:760] left pressed
[11/04/2022 16:46:31:825] left released
[11/04/2022 16:46:32:50] left pressed
[11/04/2022 16:46:32:60] Camera angle: 357.0579
[11/04/2022 16:46:32:133] Camera angle: 351.9814
[11/04/2022 16:46:32:205] Camera angle: 346.9395
[11/04/2022 16:46:32:277] Camera angle: 341.8765
[11/04/2022 16:46:32:349] Camera angle: 336.8003
[11/04/2022 16:46:32:423] Camera angle: 331.6567
[11/04/2022 16:46:32:497] Camera angle: 326.5202
[11/04/2022 16:46:32:570] Camera angle: 321.386
[11/04/2022 16:46:32:642] Camera angle: 316.3615
[11/04/2022 16:46:32:717] Camera angle: 311.108
[11/04/2022 16:46:32:789] Camera angle: 306.0761
[11/04/2022 16:46:32:860] Camera angle: 301.0625
[11/04/2022 16:46:32:934] Camera angle: 295.9253
[11/04/2022 16:46:33:6] Camera angle: 290.8831
[11/04/2022 16:46:33:80] Camera angle: 285.6453
[11/04/2022 16:46:33:154] Camera angle: 280.5096
[11/04/2022 16:46:33:227] Camera angle: 275.3693
[11/04/2022 16:46:33:301] Camera angle: 270.232
[11/04/2022 16:46:33:372] Camera angle: 265.2055
[11/04/2022 16:46:33:445] Camera angle: 260.1277
[11/04/2022 16:46:33:518] Camera angle: 254.9923
[11/04/2022 16:46:33:592] Camera angle: 249.7959
[11/04/2022 16:46:33:665] Camera angle: 244.7715
[11/04/2022 16:46:33:738] Camera angle: 239.6371
[11/04/2022 16:46:33:810] Camera angle: 234.6081
[11/04/2022 16:46:33:881] Camera angle: 229.5941
[11/04/2022 16:46:33:955] Camera angle: 224.4574
[11/04/2022 16:46:34:28] Camera angle: 219.3123
[11/04/2022 16:46:34:102] Camera angle: 214.178
[11/04/2022 16:46:34:174] Camera angle: 209.1315
[11/04/2022 16:46:34:246] Camera angle: 204.0721
[11/04/2022 16:46:34:319] Camera angle: 198.9364
[11/04/2022 16:46:34:353] left released
[11/04/2022 16:46:34:578] left pressed
[11/04/2022 16:46:34:622] Camera angle: 193.8029
[11/04/2022 16:46:34:696] Camera angle: 188.6627
[11/04/2022 16:46:34:769] left released
[11/04/2022 16:46:35:345] right pressed
[11/04/2022 16:46:35:486] Camera angle: 193.8939
[11/04/2022 16:46:35:558] Camera angle: 198.9232
[11/04/2022 16:46:35:629] Camera angle: 203.9393
[11/04/2022 16:46:35:703] Camera angle: 209.075
[11/04/2022 16:46:35:775] Camera angle: 214.1055
[11/04/2022 16:46:35:847] Camera angle: 219.1211
[11/04/2022 16:46:35:921] Camera angle: 224.3168
[11/04/2022 16:46:35:993] Camera angle: 229.4008
[11/04/2022 16:46:36:67] Camera angle: 234.5364
[11/04/2022 16:46:36:140] Camera angle: 239.6715
[11/04/2022 16:46:36:212] Camera angle: 244.6986
[11/04/2022 16:46:36:288] Camera angle: 250.0116
[11/04/2022 16:46:36:362] Camera angle: 255.2051
[11/04/2022 16:46:36:433] Camera angle: 260.2248
[11/04/2022 16:46:36:507] Camera angle: 265.364
[11/04/2022 16:46:36:579] Camera angle: 270.389
[11/04/2022 16:46:36:652] Camera angle: 275.5273
[11/04/2022 16:46:36:724] Camera angle: 280.5473
[11/04/2022 16:46:36:798] Camera angle: 285.6876
[11/04/2022 16:46:36:871] Camera angle: 290.8242
[11/04/2022 16:46:36:891] Quiz question: <Which European city hosted the 1936 Summer Olympics>, Target: <Annie>, Distractor: <Maria>, Target_Answer: <London>, Distractor_Answer: <Berlin>, Target_correct: <False>
[11/04/2022 16:46:36:892] RightAnswerTask: Showing onscreen question 1
[11/04/2022 16:46:36:943] Camera angle: 295.8568
[11/04/2022 16:46:37:14] Camera angle: 300.8686
[11/04/2022 16:46:37:88] Camera angle: 306.0071
[11/04/2022 16:46:37:161] Camera angle: 311.149
[11/04/2022 16:46:37:235] Camera angle: 316.2842
[11/04/2022 16:46:37:308] Camera angle: 321.42
[11/04/2022 16:46:37:331] right released
[11/04/2022 16:46:37:631] right pressed
[11/04/2022 16:46:37:681] Camera angle: 326.5067
[11/04/2022 16:46:37:753] Camera angle: 331.5226
[11/04/2022 16:46:37:825] Camera angle: 336.6058
[11/04/2022 16:46:37:897] Camera angle: 341.6284
[11/04/2022 16:46:37:969] Camera angle: 346.6502
[11/04/2022 16:46:38:17] right released
[11/04/2022 16:46:40:561] RightAnswerTask: Correct answer 1 logged (Distractor correct, D pressed)
[11/04/2022 16:46:51:409] right pressed
[11/04/2022 16:46:51:432] Camera angle: 351.6795
[11/04/2022 16:46:51:505] Camera angle: 356.8138
[11/04/2022 16:46:51:553] right released
[11/04/2022 16:46:56:896] right pressed
[11/04/2022 16:46:56:924] Camera angle: 1.956775
[11/04/2022 16:46:56:996] Camera angle: 6.984456
[11/04/2022 16:46:57:68] Camera angle: 12.00201
[11/04/2022 16:46:57:141] Camera angle: 17.13778
[11/04/2022 16:46:57:213] Camera angle: 22.18074
[11/04/2022 16:46:57:286] Camera angle: 27.24356
[11/04/2022 16:46:57:358] Camera angle: 32.32064
[11/04/2022 16:46:57:430] Camera angle: 37.34764
[11/04/2022 16:46:57:502] Camera angle: 42.42093
[11/04/2022 16:46:57:522] right released
[11/04/2022 16:46:57:778] right pressed
[11/04/2022 16:46:57:835] Camera angle: 47.73753
[11/04/2022 16:46:57:909] Camera angle: 52.87643
[11/04/2022 16:46:57:982] Camera angle: 58.01666
[11/04/2022 16:46:57:985] right released
[11/04/2022 16:47:02:769] left pressed
[11/04/2022 16:47:02:838] Camera angle: 52.98743
[11/04/2022 16:47:02:911] Camera angle: 47.97432
[11/04/2022 16:47:02:984] Camera angle: 42.83482
[11/04/2022 16:47:03:57] Camera angle: 37.69401
[11/04/2022 16:47:03:131] Camera angle: 32.55588
[11/04/2022 16:47:03:204] Camera angle: 27.41355
[11/04/2022 16:47:03:279] Camera angle: 22.16101
[11/04/2022 16:47:03:297] left released
[11/04/2022 16:47:03:505] left pressed
[11/04/2022 16:47:03:558] Camera angle: 17.13646
[11/04/2022 16:47:03:631] Camera angle: 11.99965
[11/04/2022 16:47:03:704] Camera angle: 6.859289
[11/04/2022 16:47:03:714] left released
[11/04/2022 16:47:03:861] Quiz question: <When is World Literacy Day celebrated>, Target: <John>, Distractor: <Susan>, Target_Answer: <October 7>, Distractor_Answer: <September 8>, Target_correct: <False>
[11/04/2022 16:47:03:862] RightAnswerTask: Showing onscreen question 2
[11/04/2022 16:47:04:18] left pressed
[11/04/2022 16:47:04:81] Camera angle: 1.781279
[11/04/2022 16:47:04:98] left released
[11/04/2022 16:47:05:984] RightAnswerTask: Correct answer 2 logged (Distractor correct, A pressed)
[11/04/2022 16:47:23:138] right pressed
[11/04/2022 16:47:23:220] Camera angle: 6.857148
[11/04/2022 16:47:23:293] Camera angle: 11.88421
[11/04/2022 16:47:23:367] Camera angle: 17.13523
[11/04/2022 16:47:23:439] Camera angle: 22.18342
[11/04/2022 16:47:23:515] Camera angle: 27.41313
[11/04/2022 16:47:23:588] Camera angle: 32.54968
[11/04/2022 16:47:23:659] Camera angle: 37.577
[11/04/2022 16:47:23:731] Camera angle: 42.59289
[11/04/2022 16:47:23:795] right released
[11/04/2022 16:47:24:145] right pressed
[11/04/2022 16:47:24:155] Camera angle: 47.63303
[11/04/2022 16:47:24:229] Camera angle: 52.76343
[11/04/2022 16:47:24:300] Camera angle: 57.78313
[11/04/2022 16:47:24:305] right released
[11/04/2022 16:47:27:825] left pressed
[11/04/2022 16:47:27:898] Camera angle: 52.58175
[11/04/2022 16:47:27:972] Camera angle: 47.4442
[11/04/2022 16:47:28:44] Camera angle: 42.41549
[11/04/2022 16:47:28:116] Camera angle: 37.33879
[11/04/2022 16:47:28:189] Camera angle: 32.26497
[11/04/2022 16:47:28:263] Camera angle: 27.0938
[11/04/2022 16:47:28:336] Camera angle: 21.9866
[11/04/2022 16:47:28:386] left released
[11/04/2022 16:47:28:626] left pressed
[11/04/2022 16:47:28:649] Camera angle: 16.84311
[11/04/2022 16:47:28:723] Camera angle: 11.70639
[11/04/2022 16:47:28:794] Camera angle: 6.677495
[11/04/2022 16:47:28:867] Camera angle: 1.601115
[11/04/2022 16:47:28:915] left released
[11/04/2022 16:47:29:874] Quiz question: <How far is the target in Olympic Archery>, Target: <John>, Distractor: <Annie>, Target_Answer: <70 metres>, Distractor_Answer: <80 metres>, Target_correct: <True>
[11/04/2022 16:47:29:874] RightAnswerTask: Showing onscreen question 3
[11/04/2022 16:47:31:445] RightAnswerTask: Correct answer 3 logged (Target correct, D pressed)
[11/04/2022 16:47:47:729] right pressed
[11/04/2022 16:47:47:842] Camera angle: 6.677865
[11/04/2022 16:47:47:914] Camera angle: 11.72159
[11/04/2022 16:47:47:985] Camera angle: 16.72339
[11/04/2022 16:47:48:59] Camera angle: 21.85899
[11/04/2022 16:47:48:130] Camera angle: 26.89072
[11/04/2022 16:47:48:203] Camera angle: 31.96534
[11/04/2022 16:47:48:276] Camera angle: 37.04247
[11/04/2022 16:47:48:348] Camera angle: 42.06898
[11/04/2022 16:47:48:417] right released
[11/04/2022 16:47:48:723] right pressed
[11/04/2022 16:47:48:726] Camera angle: 47.21924
[11/04/2022 16:47:48:797] Camera angle: 52.2476
[11/04/2022 16:47:48:869] Camera angle: 57.26373
[11/04/2022 16:47:48:884] right released
[11/04/2022 16:47:52:480] left pressed
[11/04/2022 16:47:52:561] Camera angle: 52.12197
[11/04/2022 16:47:52:633] Camera angle: 47.04307
[11/04/2022 16:47:52:707] Camera angle: 41.90156
[11/04/2022 16:47:52:780] Camera angle: 36.76488
[11/04/2022 16:47:52:852] Camera angle: 31.7185
[11/04/2022 16:47:52:897] left released
[11/04/2022 16:47:53:153] left pressed
[11/04/2022 16:47:53:184] Camera angle: 26.49075
[11/04/2022 16:47:53:256] Camera angle: 21.46508
[11/04/2022 16:47:53:329] Camera angle: 16.32845
[11/04/2022 16:47:53:400] Camera angle: 11.31012
[11/04/2022 16:47:53:425] left released
[11/04/2022 16:47:53:651] left pressed
[11/04/2022 16:47:53:701] Camera angle: 6.279757
[11/04/2022 16:47:53:762] left released
[11/04/2022 16:47:54:874] Quiz question: <What was invented by James Dewer in 1872>, Target: <John>, Distractor: <Susan>, Target_Answer: <Steam pump>, Distractor_Answer: <Thermos flask>, Target_correct: <False>
[11/04/2022 16:47:54:874] RightAnswerTask: Showing onscreen question 4
[11/04/2022 16:47:57:312] RightAnswerTask: Correct answer 4 logged (Distractor correct, A pressed)
[11/04/2022 16:48:04:862] Starting SAGAT 1
[11/04/2022 16:48:04:863] SAGAT question loaded: "Who is the quiz master?" Answers: Maria ; Annie ; John ; Susan ; Elizabeth ; [Carlos] ; )
[11/04/2022 16:48:10:298] Toggle pressed: Carlos
[11/04/2022 16:48:11:536] SAGAT answer given: "Carlos" (correct; "Carlos")
[11/04/2022 16:48:11:537] SAGAT question loaded: "Who was asked to answer a question most recently?" Answers: Annie ; Maria ; Carlos ; Susan ; Elizabeth ; [John] ; )
[11/04/2022 16:48:15:513] Toggle pressed: Susan
[11/04/2022 16:48:18:936] Toggle pressed: John
[11/04/2022 16:48:18:938] Toggle pressed: John
[11/04/2022 16:48:20:680] SAGAT answer given: "John" (correct; "John")
[11/04/2022 16:48:20:681] SAGAT question loaded: "Who is sitting two seats to the left of the quiz master (your left)?" Answers: [Susan] ; Maria ; John ; Elizabeth ; Annie ; Carlos ; )
[11/04/2022 16:48:28:93] Toggle pressed: Susan
[11/04/2022 16:48:29:347] SAGAT answer given: "Susan" (correct; "Susan")
[11/04/2022 16:48:29:347] SAGAT question loaded: "Identify one person who was in your field of view just before the simulation paused." Answers: Annie ; Susan ; Elizabeth ; Carlos ; Maria ; John ; )
[11/04/2022 16:48:44:379] Toggle pressed: Carlos
[11/04/2022 16:48:46:856] SAGAT answer given: "Carlos" (correct; "Carlos|John|Maria")
[11/04/2022 16:48:46:858] SAGAT question loaded: "Who last answered correctly?" Answers: Carlos ; Maria ; Elizabeth ; [Susan] ; John ; Annie ; )
[11/04/2022 16:48:50:749] Toggle pressed: Susan
[11/04/2022 16:48:51:993] SAGAT answer given: "Susan" (correct; "Susan")
[11/04/2022 16:48:51:993] SAGAT Complete
[11/04/2022 16:48:58:771] right pressed
[11/04/2022 16:48:58:899] Camera angle: 11.47331
[11/04/2022 16:48:58:972] Camera angle: 16.49775
[11/04/2022 16:48:59:43] Camera angle: 21.51988
[11/04/2022 16:48:59:116] Camera angle: 26.6559
[11/04/2022 16:48:59:189] Camera angle: 31.79712
[11/04/2022 16:48:59:263] Camera angle: 36.93266
[11/04/2022 16:48:59:335] Camera angle: 41.95742
[11/04/2022 16:48:59:407] Camera angle: 47.03898
[11/04/2022 16:48:59:480] Camera angle: 52.17472
[11/04/2022 16:48:59:557] Camera angle: 57.4879
[11/04/2022 16:48:59:630] Camera angle: 62.62625
[11/04/2022 16:48:59:704] Camera angle: 67.76557
[11/04/2022 16:48:59:777] Camera angle: 72.90513
[11/04/2022 16:48:59:851] Camera angle: 78.0993
[11/04/2022 16:48:59:925] Camera angle: 83.2412
[11/04/2022 16:48:59:997] Camera angle: 88.32014
[11/04/2022 16:49:00:69] Camera angle: 93.36348
[11/04/2022 16:49:00:142] Camera angle: 98.36355
[11/04/2022 16:49:00:214] Camera angle: 103.5019
[11/04/2022 16:49:00:286] Camera angle: 108.549
[11/04/2022 16:49:00:355] right released
[11/04/2022 16:49:01:104] right pressed
[11/04/2022 16:49:01:109] Camera angle: 113.55
[11/04/2022 16:49:01:182] Camera angle: 118.7454
[11/04/2022 16:49:01:255] Camera angle: 123.829
[11/04/2022 16:49:01:265] right released
[11/04/2022 16:49:02:867] left pressed
[11/04/2022 16:49:02:943] Camera angle: 118.6838
[11/04/2022 16:49:03:17] Camera angle: 113.5485
[11/04/2022 16:49:03:89] Camera angle: 108.5233
[11/04/2022 16:49:03:161] Camera angle: 103.4426
[11/04/2022 16:49:03:234] Camera angle: 98.36626
[11/04/2022 16:49:03:306] Camera angle: 93.34084
[11/04/2022 16:49:03:378] Camera angle: 88.26248
[11/04/2022 16:49:03:451] Camera angle: 83.1864
[11/04/2022 16:49:03:522] Camera angle: 78.13925
[11/04/2022 16:49:03:594] Camera angle: 73.13806
[11/04/2022 16:49:03:667] Camera angle: 68.0028
[11/04/2022 16:49:03:739] Camera angle: 62.98006
[11/04/2022 16:49:03:812] Camera angle: 57.95576
[11/04/2022 16:49:03:884] Camera angle: 52.81972
[11/04/2022 16:49:03:958] Camera angle: 47.67879
[11/04/2022 16:49:04:31] Camera angle: 42.54344
[11/04/2022 16:49:04:104] Camera angle: 37.40762
[11/04/2022 16:49:04:178] Camera angle: 32.26464
[11/04/2022 16:49:04:250] Camera angle: 27.24391
[11/04/2022 16:49:04:305] left released
[11/04/2022 16:49:04:512] left pressed
[11/04/2022 16:49:04:532] Camera angle: 22.10939
[11/04/2022 16:49:04:605] Camera angle: 16.97382
[11/04/2022 16:49:04:678] Camera angle: 11.83211
[11/04/2022 16:49:04:752] Camera angle: 6.634443
[11/04/2022 16:49:04:819] left released
[11/04/2022 16:49:04:994] Quiz question: <Where is the largest bowlilng alley>, Target: <Elizabeth>, Distractor: <Maria>, Target_Answer: <Japan>, Distractor_Answer: <Minnesota>, Target_correct: <True>
[11/04/2022 16:49:04:995] RightAnswerTask: Showing onscreen question 5
[11/04/2022 16:49:06:819] RightAnswerTask: Correct answer 5 logged (Target correct, A pressed)
[11/04/2022 16:49:22:803] left pressed
[11/04/2022 16:49:22:807] Camera angle: 1.613748
[11/04/2022 16:49:22:880] Camera angle: 356.4764
[11/04/2022 16:49:22:953] Camera angle: 351.3353
[11/04/2022 16:49:23:25] Camera angle: 346.3065
[11/04/2022 16:49:23:97] Camera angle: 341.2962
[11/04/2022 16:49:23:171] Camera angle: 336.0995
[11/04/2022 16:49:23:247] Camera angle: 330.7811
[11/04/2022 16:49:23:321] Camera angle: 325.6418
[11/04/2022 16:49:23:392] Camera angle: 320.6008
[11/04/2022 16:49:23:464] Camera angle: 315.5396
[11/04/2022 16:49:23:538] Camera angle: 310.4021
[11/04/2022 16:49:23:610] Camera angle: 305.3226
[11/04/2022 16:49:23:684] Camera angle: 300.1831
[11/04/2022 16:49:23:757] Camera angle: 295.0471
[11/04/2022 16:49:23:829] Camera angle: 290.021
[11/04/2022 16:49:23:887] left released
[11/04/2022 16:49:24:1] Video time: 224
[11/04/2022 16:49:24:499] left pressed
[11/04/2022 16:49:24:510] Camera angle: 285.0108
[11/04/2022 16:49:24:581] Camera angle: 279.9949
[11/04/2022 16:49:24:655] Camera angle: 274.8549
[11/04/2022 16:49:24:729] Camera angle: 269.7122
[11/04/2022 16:49:24:803] Camera angle: 264.5168
[11/04/2022 16:49:24:875] Camera angle: 259.4394
[11/04/2022 16:49:24:949] Camera angle: 254.2965
[11/04/2022 16:49:25:22] Camera angle: 249.162
[11/04/2022 16:49:25:26] left released
[11/04/2022 16:49:28:819] right pressed
[11/04/2022 16:49:28:887] Camera angle: 254.2428
[11/04/2022 16:49:28:959] Camera angle: 259.3189
[11/04/2022 16:49:28:993] Video time: 229
[11/04/2022 16:49:29:31] Camera angle: 264.3509
[11/04/2022 16:49:29:103] Camera angle: 269.3644
[11/04/2022 16:49:29:176] Camera angle: 274.5003
[11/04/2022 16:49:29:250] Camera angle: 279.6442
[11/04/2022 16:49:29:323] Camera angle: 284.7788
[11/04/2022 16:49:29:397] Camera angle: 289.9135
[11/04/2022 16:49:29:469] Camera angle: 294.9989
[11/04/2022 16:49:29:543] Camera angle: 300.1926
[11/04/2022 16:49:29:617] Camera angle: 305.3309
[11/04/2022 16:49:29:690] Camera angle: 310.4702
[11/04/2022 16:49:29:763] Camera angle: 315.6069
[11/04/2022 16:49:29:837] Camera angle: 320.7513
[11/04/2022 16:49:29:910] Camera angle: 325.8883
[11/04/2022 16:49:29:982] Camera angle: 330.916
[11/04/2022 16:49:30:54] Camera angle: 335.9292
[11/04/2022 16:49:30:127] Camera angle: 341.067
[11/04/2022 16:49:30:177] right released
[11/04/2022 16:49:30:527] right pressed
[11/04/2022 16:49:30:553] Camera angle: 346.1562
[11/04/2022 16:49:30:625] Camera angle: 351.1736
[11/04/2022 16:49:30:698] Camera angle: 356.3093
[11/04/2022 16:49:30:771] Camera angle: 1.449596
[11/04/2022 16:49:30:799] right released
[11/04/2022 16:49:31:1] Quiz question: <Who was the first Tsar of Russia>, Target: <Susan>, Distractor: <John>, Target_Answer: <Ivan the Terrible>, Distractor_Answer: <Catherine the Great>, Target_correct: <True>
[11/04/2022 16:49:31:2] RightAnswerTask: Showing onscreen question 6
[11/04/2022 16:49:33:875] RightAnswerTask: Correct answer 6 logged (Target correct, A pressed)
[11/04/2022 16:49:33:991] Video time: 234
[11/04/2022 16:49:39:3] Video time: 239
[11/04/2022 16:49:43:991] Video time: 244
[11/04/2022 16:49:48:983] Video time: 249
[11/04/2022 16:49:50:724] right pressed
[11/04/2022 16:49:50:765] Camera angle: 6.524232
[11/04/2022 16:49:50:838] Camera angle: 11.60786
[11/04/2022 16:49:50:911] Camera angle: 16.7451
[11/04/2022 16:49:50:984] Camera angle: 21.87962
[11/04/2022 16:49:51:58] Camera angle: 27.02113
[11/04/2022 16:49:51:131] Camera angle: 32.15889
[11/04/2022 16:49:51:203] Camera angle: 37.18612
[11/04/2022 16:49:51:275] Camera angle: 42.20309
[11/04/2022 16:49:51:348] Camera angle: 47.33945
[11/04/2022 16:49:51:420] Camera angle: 52.35983
[11/04/2022 16:49:51:493] Camera angle: 57.44607
[11/04/2022 16:49:51:565] Camera angle: 62.52098
[11/04/2022 16:49:51:637] Camera angle: 67.54973
[11/04/2022 16:49:51:709] Camera angle: 72.56589
[11/04/2022 16:49:51:782] Camera angle: 77.69993
[11/04/2022 16:49:51:854] Camera angle: 82.74811
[11/04/2022 16:49:51:926] Camera angle: 87.74866
[11/04/2022 16:49:51:999] Camera angle: 92.88606
[11/04/2022 16:49:52:71] Camera angle: 97.91128
[11/04/2022 16:49:52:143] Camera angle: 102.99
[11/04/2022 16:49:52:216] Camera angle: 108.0642
[11/04/2022 16:49:52:243] right released
[11/04/2022 16:49:52:720] right pressed
[11/04/2022 16:49:52:768] Camera angle: 113.2091
[11/04/2022 16:49:52:840] Camera angle: 118.2331
[11/04/2022 16:49:52:913] right released
[11/04/2022 16:49:54:2] Video time: 254
[11/04/2022 16:49:54:785] left pressed
[11/04/2022 16:49:54:926] Camera angle: 113.0923
[11/04/2022 16:49:54:999] Camera angle: 107.9541
[11/04/2022 16:49:55:71] Camera angle: 102.8167
[11/04/2022 16:49:55:145] Camera angle: 97.67687
[11/04/2022 16:49:55:219] Camera angle: 92.54256
[11/04/2022 16:49:55:290] Camera angle: 87.51295
[11/04/2022 16:49:55:362] Camera angle: 82.49583
[11/04/2022 16:49:55:437] Camera angle: 77.29911
[11/04/2022 16:49:55:509] Camera angle: 72.21973
[11/04/2022 16:49:55:583] Camera angle: 67.07972
[11/04/2022 16:49:55:656] Camera angle: 61.94482
[11/04/2022 16:49:55:728] Camera angle: 56.91889
[11/04/2022 16:49:55:800] Camera angle: 51.83955
[11/04/2022 16:49:55:873] Camera angle: 46.75845
[11/04/2022 16:49:55:946] Camera angle: 41.61893
[11/04/2022 16:49:56:20] Camera angle: 36.48346
[11/04/2022 16:49:56:92] Camera angle: 31.43874
[11/04/2022 16:49:56:164] Camera angle: 26.38148
[11/04/2022 16:49:56:237] Camera angle: 21.24384
[11/04/2022 16:49:56:311] Camera angle: 16.04478
[11/04/2022 16:49:56:372] left released
[11/04/2022 16:49:56:609] left pressed
[11/04/2022 16:49:56:624] Camera angle: 11.02257
[11/04/2022 16:49:56:697] Camera angle: 5.880787
[11/04/2022 16:49:56:770] Camera angle: 0.7444385
[11/04/2022 16:49:56:801] left released
[11/04/2022 16:49:56:981] Quiz question: <Where is the oldest tree in the world>, Target: <Elizabeth>, Distractor: <Maria>, Target_Answer: <Colorado>, Distractor_Answer: <California>, Target_correct: <False>
[11/04/2022 16:49:56:982] RightAnswerTask: Showing onscreen question 7
[11/04/2022 16:49:57:41] left pressed
[11/04/2022 16:49:57:84] Camera angle: 355.6597
[11/04/2022 16:49:57:88] left released
[11/04/2022 16:49:58:993] Video time: 259
[11/04/2022 16:49:59:828] RightAnswerTask: Correct answer 7 logged (Distractor correct, D pressed)
[11/04/2022 16:50:04:2] Video time: 264
[11/04/2022 16:50:09:3] Video time: 269
[11/04/2022 16:50:13:992] Video time: 274
[11/04/2022 16:50:14:225] left pressed
[11/04/2022 16:50:14:295] Camera angle: 350.5167
[11/04/2022 16:50:14:368] Camera angle: 345.3824
[11/04/2022 16:50:14:441] Camera angle: 340.2457
[11/04/2022 16:50:14:513] Camera angle: 335.2191
[11/04/2022 16:50:14:588] Camera angle: 329.966
[11/04/2022 16:50:14:660] Camera angle: 324.9445
[11/04/2022 16:50:14:732] Camera angle: 319.9225
[11/04/2022 16:50:14:805] Camera angle: 314.7844
[11/04/2022 16:50:14:877] Camera angle: 309.7573
[11/04/2022 16:50:14:949] Camera angle: 304.6827
[11/04/2022 16:50:15:23] Camera angle: 299.5428
[11/04/2022 16:50:15:99] Camera angle: 294.2306
[11/04/2022 16:50:15:172] Camera angle: 289.0934
[11/04/2022 16:50:15:244] Camera angle: 284.0661
[11/04/2022 16:50:15:316] Camera angle: 278.9926
[11/04/2022 16:50:15:390] Camera angle: 273.8525
[11/04/2022 16:50:15:466] Camera angle: 268.5373
[11/04/2022 16:50:15:539] Camera angle: 263.4021
[11/04/2022 16:50:15:610] Camera angle: 258.3719
[11/04/2022 16:50:15:683] Camera angle: 253.3007
[11/04/2022 16:50:15:757] Camera angle: 248.1602
[11/04/2022 16:50:15:833] Camera angle: 242.8459
[11/04/2022 16:50:15:906] Camera angle: 237.7087
[11/04/2022 16:50:15:978] Camera angle: 232.6857
[11/04/2022 16:50:16:50] Camera angle: 227.6622
[11/04/2022 16:50:16:124] Camera angle: 222.468
[11/04/2022 16:50:16:196] Camera angle: 217.3831
[11/04/2022 16:50:16:269] Camera angle: 212.2501
[11/04/2022 16:50:16:343] Camera angle: 207.1126
[11/04/2022 16:50:16:417] Camera angle: 201.9743
[11/04/2022 16:50:16:490] Camera angle: 196.8371
[11/04/2022 16:50:16:561] left released
[11/04/2022 16:50:18:226] right pressed
[11/04/2022 16:50:18:362] Camera angle: 201.97
[11/04/2022 16:50:18:435] Camera angle: 207.1113
[11/04/2022 16:50:18:509] Camera angle: 212.2462
[11/04/2022 16:50:18:580] Camera angle: 217.2767
[11/04/2022 16:50:18:652] Camera angle: 222.2945
[11/04/2022 16:50:18:726] Camera angle: 227.4326
[11/04/2022 16:50:18:799] Camera angle: 232.5727
[11/04/2022 16:50:18:872] Camera angle: 237.7081
[11/04/2022 16:50:18:946] Camera angle: 242.8446
[11/04/2022 16:50:19:1] Video time: 279
[11/04/2022 16:50:19:18] Camera angle: 247.8699
[11/04/2022 16:50:19:91] Camera angle: 253.0079
[11/04/2022 16:50:19:163] Camera angle: 258.0247
[11/04/2022 16:50:19:236] Camera angle: 263.1624
[11/04/2022 16:50:19:309] Camera angle: 268.3032
[11/04/2022 16:50:19:381] Camera angle: 273.3374
[11/04/2022 16:50:19:454] Camera angle: 278.3495
[11/04/2022 16:50:19:526] Camera angle: 283.4831
[11/04/2022 16:50:19:598] Camera angle: 288.5127
[11/04/2022 16:50:19:670] Camera angle: 293.5296
[11/04/2022 16:50:19:743] Camera angle: 298.6682
[11/04/2022 16:50:19:815] Camera angle: 303.6948
[11/04/2022 16:50:19:888] Camera angle: 308.7724
[11/04/2022 16:50:19:960] Camera angle: 313.8513
[11/04/2022 16:50:20:35] Camera angle: 319.0518
[11/04/2022 16:50:20:107] Camera angle: 324.1265
[11/04/2022 16:50:20:181] Camera angle: 329.2575
[11/04/2022 16:50:20:252] Camera angle: 334.2884
[11/04/2022 16:50:20:324] Camera angle: 339.3077
[11/04/2022 16:50:20:397] Camera angle: 344.4474
[11/04/2022 16:50:20:464] right released
[11/04/2022 16:50:20:705] right pressed
[11/04/2022 16:50:20:711] Camera angle: 349.6418
[11/04/2022 16:50:20:782] Camera angle: 354.6666
[11/04/2022 16:50:20:855] Camera angle: 359.7468
[11/04/2022 16:50:20:929] right released
[11/04/2022 16:50:20:981] Quiz question: <What is the tallest mountain in Canada>, Target: <Annie>, Distractor: <John>, Target_Answer: <Mount Columbia>, Distractor_Answer: <Mount Logan>, Target_correct: <False>
[11/04/2022 16:50:20:982] RightAnswerTask: Showing onscreen question 8
[11/04/2022 16:50:23:537] RightAnswerTask: Correct answer 8 logged (Distractor correct, A pressed)
[11/04/2022 16:50:23:992] Video time: 284
[11/04/2022 16:50:28:982] Video time: 289
[11/04/2022 16:50:34:1] Video time: 294
[11/04/2022 16:50:38:992] Video time: 299
[11/04/2022 16:50:39:266] right pressed
[11/04/2022 16:50:39:267] Camera angle: 4.87906
[11/04/2022 16:50:39:338] Camera angle: 9.906433
[11/04/2022 16:50:39:413] Camera angle: 15.15797
[11/04/2022 16:50:39:486] Camera angle: 20.30019
[11/04/2022 16:50:39:559] Camera angle: 25.43447
[11/04/2022 16:50:39:633] Camera angle: 30.57282
[11/04/2022 16:50:39:707] Camera angle: 35.71434
[11/04/2022 16:50:39:781] Camera angle: 40.90567
[11/04/2022 16:50:39:854] Camera angle: 45.98937
[11/04/2022 16:50:39:927] Camera angle: 51.12566
[11/04/2022 16:50:40:0] Camera angle: 56.26527
[11/04/2022 16:50:40:74] Camera angle: 61.40554
[11/04/2022 16:50:40:147] Camera angle: 66.54261
[11/04/2022 16:50:40:220] Camera angle: 71.68192
[11/04/2022 16:50:40:294] Camera angle: 76.82092
[11/04/2022 16:50:40:367] Camera angle: 81.95799
[11/04/2022 16:50:40:440] Camera angle: 86.98074
[11/04/2022 16:50:40:510] Camera angle: 92.00056
[11/04/2022 16:50:40:584] Camera angle: 97.13811
[11/04/2022 16:50:40:658] Camera angle: 102.3382
[11/04/2022 16:50:40:731] Camera angle: 107.4187
[11/04/2022 16:50:40:802] right released
[11/04/2022 16:50:43:904] left pressed
[11/04/2022 16:50:44:1] Video time: 304
[11/04/2022 16:50:44:39] Camera angle: 102.3939
[11/04/2022 16:50:44:111] Camera angle: 97.31433
[11/04/2022 16:50:44:185] Camera angle: 92.17418
[11/04/2022 16:50:44:258] Camera angle: 87.0892
[11/04/2022 16:50:44:331] Camera angle: 81.95537
[11/04/2022 16:50:44:405] Camera angle: 76.81876
[11/04/2022 16:50:44:479] Camera angle: 71.65219
[11/04/2022 16:50:44:552] Camera angle: 66.48216
[11/04/2022 16:50:44:625] Camera angle: 61.39937
[11/04/2022 16:50:44:698] Camera angle: 56.26457
[11/04/2022 16:50:44:772] Camera angle: 51.12743
[11/04/2022 16:50:44:845] Camera angle: 45.98659
[11/04/2022 16:50:44:917] Camera angle: 40.9649
[11/04/2022 16:50:44:988] Camera angle: 35.94581
[11/04/2022 16:50:45:60] Camera angle: 30.91886
[11/04/2022 16:50:45:133] Camera angle: 25.837
[11/04/2022 16:50:45:205] Camera angle: 20.76106
[11/04/2022 16:50:45:279] Camera angle: 15.62248
[11/04/2022 16:50:45:313] left released
[11/04/2022 16:50:45:506] left pressed
[11/04/2022 16:50:45:544] Camera angle: 10.48038
[11/04/2022 16:50:45:619] Camera angle: 5.227546
[11/04/2022 16:50:45:691] Camera angle: 0.2044721
[11/04/2022 16:50:45:763] Camera angle: 355.1259
[11/04/2022 16:50:45:780] left released
[11/04/2022 16:50:45:993] Quiz question: <Who wrote Flowers for Algernon>, Target: <Elizabeth>, Distractor: <Maria>, Target_Answer: <Daniel Keyes>, Distractor_Answer: <Isaac Asimov>, Target_correct: <True>
[11/04/2022 16:50:45:994] RightAnswerTask: Showing onscreen question 9
[11/04/2022 16:50:48:355] RightAnswerTask: Correct answer 9 logged (Target correct, A pressed)
[11/04/2022 16:50:48:992] Video time: 309
[11/04/2022 16:50:53:994] Video time: 314
[11/04/2022 16:50:56:994] Starting SAGAT 2
[11/04/2022 16:50:56:995] SAGAT question loaded: "What kind of social event is taking place here?" Answers: Workshop ; Presentation ; Debate ; [Quiz] ; Exam ; Focus Group ; )
[11/04/2022 16:51:17:722] Toggle pressed: I don't know
[11/04/2022 16:51:19:417] SAGAT answer given: "I don't know" (incorrect; "Quiz")
[11/04/2022 16:51:19:418] SAGAT question loaded: "Who is sitting two seats to the right of the quiz master (your right)?" Answers: Carlos ; Susan ; Annie ; John ; Maria ; [Elizabeth] ; )
[11/04/2022 16:51:30:481] Toggle pressed: Elizabeth
[11/04/2022 16:51:32:369] SAGAT answer given: "Elizabeth" (correct; "Elizabeth")
[11/04/2022 16:51:32:372] SAGAT question loaded: "What was the most recent quiz question?" Answers: Where is the oldest tree in the world ; What is the tallest mountain in Canada ; What was invented by James Dewer in 1872 ; [Who wrote Flowers for Algernon] ; Who was the first Tsar of Russia ; Where is the largest bowlilng alley ; )
[11/04/2022 16:51:40:714] Toggle pressed: What is the tallest mountain in Canada
[11/04/2022 16:51:45:810] Toggle pressed: Who wrote Flowers for Algernon
[11/04/2022 16:51:45:810] Toggle pressed: Who wrote Flowers for Algernon
[11/04/2022 16:51:53:515] SAGAT answer given: "Who wrote Flowers for Algernon" (correct; "Who wrote Flowers for Algernon")
[11/04/2022 16:51:53:516] SAGAT question loaded: "Identify one person who was in your field of view just before the simulation paused." Answers: Annie ; Elizabeth ; John ; Carlos ; Maria ; Susan ; )
[11/04/2022 16:52:00:914] Toggle pressed: Elizabeth
[11/04/2022 16:52:02:43] SAGAT answer given: "Elizabeth" (incorrect; "Carlos|John|Maria")
[11/04/2022 16:52:02:43] SAGAT question loaded: "Who last answered correctly?" Answers: John ; Annie ; Carlos ; Maria ; Susan ; [Elizabeth] ; )
[11/04/2022 16:52:06:784] Toggle pressed: Elizabeth
[11/04/2022 16:52:07:882] SAGAT answer given: "Elizabeth" (correct; "Elizabeth")
[11/04/2022 16:52:07:882] SAGAT Complete
[11/04/2022 16:52:09:873] Video time: 319
[11/04/2022 16:52:14:675] left pressed
[11/04/2022 16:52:14:735] Camera angle: 349.9194
[11/04/2022 16:52:14:808] Camera angle: 344.7809
[11/04/2022 16:52:14:862] Video time: 324
[11/04/2022 16:52:14:880] Camera angle: 339.763
[11/04/2022 16:52:14:952] Camera angle: 334.7393
[11/04/2022 16:52:15:25] Camera angle: 329.6034
[11/04/2022 16:52:15:98] Camera angle: 324.4613
[11/04/2022 16:52:15:172] Camera angle: 319.324
[11/04/2022 16:52:15:245] Camera angle: 314.1876
[11/04/2022 16:52:15:319] Camera angle: 309.0473
[11/04/2022 16:52:15:390] Camera angle: 304.0253
[11/04/2022 16:52:15:462] Camera angle: 299.0054
[11/04/2022 16:52:15:535] Camera angle: 293.8649
[11/04/2022 16:52:15:609] Camera angle: 288.7282
[11/04/2022 16:52:15:681] Camera angle: 283.7014
[11/04/2022 16:52:15:752] Camera angle: 278.6835
[11/04/2022 16:52:15:827] Camera angle: 273.489
[11/04/2022 16:52:15:899] Camera angle: 268.4048
[11/04/2022 16:52:15:972] Camera angle: 263.269
[11/04/2022 16:52:16:46] Camera angle: 258.1326
[11/04/2022 16:52:16:48] left released
[11/04/2022 16:52:16:352] left pressed
[11/04/2022 16:52:16:421] Camera angle: 253.0579
[11/04/2022 16:52:16:494] Camera angle: 247.9166
[11/04/2022 16:52:16:496] left released
[11/04/2022 16:52:18:769] right pressed
[11/04/2022 16:52:18:839] Camera angle: 253.0629
[11/04/2022 16:52:18:913] Camera angle: 258.2125
[11/04/2022 16:52:18:984] Camera angle: 263.2205
[11/04/2022 16:52:19:56] Camera angle: 268.3003
[11/04/2022 16:52:19:130] Camera angle: 273.4374
[11/04/2022 16:52:19:204] Camera angle: 278.6364
[11/04/2022 16:52:19:277] Camera angle: 283.7157
[11/04/2022 16:52:19:350] Camera angle: 288.7927
[11/04/2022 16:52:19:421] Camera angle: 293.8217
[11/04/2022 16:52:19:492] Camera angle: 298.8398
[11/04/2022 16:52:19:567] Camera angle: 303.9748
[11/04/2022 16:52:19:638] Camera angle: 309.0016
[11/04/2022 16:52:19:710] Camera angle: 314.02
[11/04/2022 16:52:19:783] Camera angle: 319.153
[11/04/2022 16:52:19:851] Video time: 329
[11/04/2022 16:52:19:856] Camera angle: 324.2971
[11/04/2022 16:52:19:930] Camera angle: 329.4358
[11/04/2022 16:52:20:3] Camera angle: 334.5779
[11/04/2022 16:52:20:33] right released
[11/04/2022 16:52:20:274] right pressed
[11/04/2022 16:52:20:314] Camera angle: 339.6512
[11/04/2022 16:52:20:386] Camera angle: 344.6745
[11/04/2022 16:52:20:457] Camera angle: 349.6968
[11/04/2022 16:52:20:532] Camera angle: 354.8917
[11/04/2022 16:52:20:560] right released
[11/04/2022 16:52:20:871] Quiz question: <What colour is the Mallow flower>, Target: <Susan>, Distractor: <John>, Target_Answer: <Pink>, Distractor_Answer: <Purple>, Target_correct: <False>
[11/04/2022 16:52:20:871] RightAnswerTask: Showing onscreen question 10
[11/04/2022 16:52:22:546] RightAnswerTask: Correct answer 10 logged (Distractor correct, D pressed)
[11/04/2022 16:52:24:259] Video finished
[11/04/2022 16:52:24:872] Video time: 334
[11/04/2022 16:52:39:44] Escape pressed during experiment
[11/04/2022 16:52:39:45] Log creation for experiment proper...
