[11/04/2022 16:17:08:242] Participant ID: 25
[11/04/2022 16:17:08:242] Session: Actual
[11/04/2022 16:17:08:242] Scene: Scene 2
[11/04/2022 16:17:08:242] Audio: Spatial
[11/04/2022 16:17:08:242] Loading video from file: C:/windows_build/Videos/Scene2.mp4
[11/04/2022 16:17:08:242] Got SAGAT times: 185s and 265s
[11/04/2022 16:17:08:242] RightAnswerTask: Ready
[11/04/2022 16:17:15:621] right pressed
[11/04/2022 16:17:15:692] Camera angle: 5.140549
[11/04/2022 16:17:15:764] Camera angle: 10.22248
[11/04/2022 16:17:15:813] right released
[11/04/2022 16:17:16:181] left pressed
[11/04/2022 16:17:16:295] Camera angle: 5.201338
[11/04/2022 16:17:16:368] Camera angle: 0.1229156
[11/04/2022 16:17:16:440] Camera angle: 355.0366
[11/04/2022 16:17:16:512] Camera angle: 350.0201
[11/04/2022 16:17:16:579] left released
[11/04/2022 16:17:17:554] right pressed
[11/04/2022 16:17:17:687] Camera angle: 355.0391
[11/04/2022 16:17:17:760] Camera angle: 0.1212497
[11/04/2022 16:17:17:833] Camera angle: 5.2571
[11/04/2022 16:17:17:905] Camera angle: 10.27952
[11/04/2022 16:17:17:977] Camera angle: 15.30404
[11/04/2022 16:17:18:50] Camera angle: 20.49573
[11/04/2022 16:17:18:125] Camera angle: 25.6978
[11/04/2022 16:17:18:197] Camera angle: 30.71614
[11/04/2022 16:17:18:270] Camera angle: 35.85251
[11/04/2022 16:17:18:342] Camera angle: 40.87695
[11/04/2022 16:17:18:415] Camera angle: 46.01553
[11/04/2022 16:17:18:487] Camera angle: 51.03473
[11/04/2022 16:17:18:561] Camera angle: 56.17604
[11/04/2022 16:17:18:634] Camera angle: 61.30956
[11/04/2022 16:17:18:706] Camera angle: 66.34061
[11/04/2022 16:17:18:778] Camera angle: 71.35876
[11/04/2022 16:17:18:852] Camera angle: 76.49563
[11/04/2022 16:17:18:922] Camera angle: 81.52078
[11/04/2022 16:17:18:995] Camera angle: 86.59991
[11/04/2022 16:17:19:68] Camera angle: 91.68163
[11/04/2022 16:17:19:140] Camera angle: 96.69905
[11/04/2022 16:17:19:188] right released
[11/04/2022 16:17:19:507] right pressed
[11/04/2022 16:17:19:531] Camera angle: 101.7232
[11/04/2022 16:17:19:603] Camera angle: 106.7456
[11/04/2022 16:17:19:677] Camera angle: 111.8862
[11/04/2022 16:17:19:748] Camera angle: 116.9039
[11/04/2022 16:17:19:820] Camera angle: 121.9265
[11/04/2022 16:17:19:894] Camera angle: 127.0691
[11/04/2022 16:17:19:965] Camera angle: 132.0869
[11/04/2022 16:17:20:39] Camera angle: 137.2235
[11/04/2022 16:17:20:110] Camera angle: 142.2491
[11/04/2022 16:17:20:182] Camera angle: 147.2679
[11/04/2022 16:17:20:256] Camera angle: 152.4044
[11/04/2022 16:17:20:329] Camera angle: 157.5473
[11/04/2022 16:17:20:402] Camera angle: 162.6796
[11/04/2022 16:17:20:467] right released
[11/04/2022 16:17:20:883] right pressed
[11/04/2022 16:17:20:891] Camera angle: 167.761
[11/04/2022 16:17:20:964] Camera angle: 172.8427
[11/04/2022 16:17:21:36] Camera angle: 177.9189
[11/04/2022 16:17:21:108] Camera angle: 182.9443
[11/04/2022 16:17:21:180] Camera angle: 187.964
[11/04/2022 16:17:21:251] Camera angle: 192.9855
[11/04/2022 16:17:21:325] Camera angle: 198.1217
[11/04/2022 16:17:21:348] right released
[11/04/2022 16:17:21:683] left pressed
[11/04/2022 16:17:21:774] Camera angle: 193.0486
[11/04/2022 16:17:21:847] Camera angle: 187.907
[11/04/2022 16:17:21:919] Camera angle: 182.8814
[11/04/2022 16:17:21:990] Camera angle: 177.8676
[11/04/2022 16:17:22:64] Camera angle: 172.7271
[11/04/2022 16:17:22:137] Camera angle: 167.588
[11/04/2022 16:17:22:211] Camera angle: 162.3898
[11/04/2022 16:17:22:284] Camera angle: 157.3146
[11/04/2022 16:17:22:356] Camera angle: 152.2907
[11/04/2022 16:17:22:429] Camera angle: 147.2066
[11/04/2022 16:17:22:501] Camera angle: 142.1312
[11/04/2022 16:17:22:575] Camera angle: 136.9934
[11/04/2022 16:17:22:648] Camera angle: 131.8542
[11/04/2022 16:17:22:721] Camera angle: 126.719
[11/04/2022 16:17:22:795] Camera angle: 121.575
[11/04/2022 16:17:22:869] Camera angle: 116.3771
[11/04/2022 16:17:22:933] left released
[11/04/2022 16:17:23:173] left pressed
[11/04/2022 16:17:23:182] Camera angle: 111.3518
[11/04/2022 16:17:23:255] Camera angle: 106.2128
[11/04/2022 16:17:23:329] Camera angle: 101.0704
[11/04/2022 16:17:23:403] Camera angle: 95.87885
[11/04/2022 16:17:23:475] Camera angle: 90.79769
[11/04/2022 16:17:23:549] Camera angle: 85.65545
[11/04/2022 16:17:23:621] Camera angle: 80.63497
[11/04/2022 16:17:23:694] Camera angle: 75.49902
[11/04/2022 16:17:23:766] Camera angle: 70.47478
[11/04/2022 16:17:23:839] Camera angle: 65.34151
[11/04/2022 16:17:23:910] Camera angle: 60.31083
[11/04/2022 16:17:23:983] Camera angle: 55.23359
[11/04/2022 16:17:24:56] Camera angle: 50.15321
[11/04/2022 16:17:24:128] Camera angle: 45.13533
[11/04/2022 16:17:24:200] Camera angle: 40.11005
[11/04/2022 16:17:24:274] Camera angle: 34.91502
[11/04/2022 16:17:24:347] Camera angle: 29.77387
[11/04/2022 16:17:24:421] Camera angle: 24.57682
[11/04/2022 16:17:24:494] Camera angle: 19.49997
[11/04/2022 16:17:24:566] Camera angle: 14.41773
[11/04/2022 16:17:24:640] Camera angle: 9.281216
[11/04/2022 16:17:24:712] Camera angle: 4.262092
[11/04/2022 16:17:24:783] Camera angle: 359.2375
[11/04/2022 16:17:24:856] Camera angle: 354.1582
[11/04/2022 16:17:24:930] Camera angle: 348.9581
[11/04/2022 16:17:24:980] left released
[11/04/2022 16:17:25:235] left pressed
[11/04/2022 16:17:25:259] Camera angle: 343.8222
[11/04/2022 16:17:25:332] Camera angle: 338.6819
[11/04/2022 16:17:25:404] Camera angle: 333.6618
[11/04/2022 16:17:25:477] Camera angle: 328.5247
[11/04/2022 16:17:25:549] Camera angle: 323.4991
[11/04/2022 16:17:25:622] Camera angle: 318.3628
[11/04/2022 16:17:25:694] Camera angle: 313.3442
[11/04/2022 16:17:25:766] Camera angle: 308.3176
[11/04/2022 16:17:25:838] Camera angle: 303.2368
[11/04/2022 16:17:25:893] left released
[11/04/2022 16:17:26:115] left pressed
[11/04/2022 16:17:26:136] Camera angle: 298.0947
[11/04/2022 16:17:26:208] Camera angle: 293.0168
[11/04/2022 16:17:26:280] Camera angle: 287.9987
[11/04/2022 16:17:26:351] Camera angle: 282.9717
[11/04/2022 16:17:26:423] Camera angle: 277.9537
[11/04/2022 16:17:26:495] Camera angle: 272.9321
[11/04/2022 16:17:26:569] Camera angle: 267.7909
[11/04/2022 16:17:26:642] Camera angle: 262.6578
[11/04/2022 16:17:26:713] Camera angle: 257.6252
[11/04/2022 16:17:26:785] Camera angle: 252.6081
[11/04/2022 16:17:26:852] left released
[11/04/2022 16:17:27:123] left pressed
[11/04/2022 16:17:27:128] Camera angle: 247.5311
[11/04/2022 16:17:27:200] Camera angle: 242.4492
[11/04/2022 16:17:27:273] Camera angle: 237.4269
[11/04/2022 16:17:27:346] Camera angle: 232.2892
[11/04/2022 16:17:27:419] Camera angle: 227.148
[11/04/2022 16:17:27:491] Camera angle: 222.1271
[11/04/2022 16:17:27:564] Camera angle: 217.0503
[11/04/2022 16:17:27:636] Camera angle: 211.9658
[11/04/2022 16:17:27:710] Camera angle: 206.8292
[11/04/2022 16:17:27:781] Camera angle: 201.8057
[11/04/2022 16:17:27:854] Camera angle: 196.7283
[11/04/2022 16:17:27:926] Camera angle: 191.707
[11/04/2022 16:17:27:988] left released
[11/04/2022 16:17:28:342] left pressed
[11/04/2022 16:17:28:350] Camera angle: 186.6798
[11/04/2022 16:17:28:424] Camera angle: 181.5479
[11/04/2022 16:17:28:495] Camera angle: 176.5218
[11/04/2022 16:17:28:569] Camera angle: 171.3814
[11/04/2022 16:17:28:641] Camera angle: 166.3084
[11/04/2022 16:17:28:716] Camera angle: 161.1098
[11/04/2022 16:17:28:788] Camera angle: 156.0819
[11/04/2022 16:17:28:861] Camera angle: 150.9492
[11/04/2022 16:17:28:934] Camera angle: 145.8062
[11/04/2022 16:17:29:9] Camera angle: 140.6124
[11/04/2022 16:17:29:81] Camera angle: 135.5341
[11/04/2022 16:17:29:110] left released
[11/04/2022 16:17:29:394] left pressed
[11/04/2022 16:17:29:441] Camera angle: 130.333
[11/04/2022 16:17:29:515] Camera angle: 125.191
[11/04/2022 16:17:29:588] Camera angle: 120.0536
[11/04/2022 16:17:29:659] Camera angle: 115.0343
[11/04/2022 16:17:29:732] Camera angle: 110.0143
[11/04/2022 16:17:29:804] Camera angle: 104.9867
[11/04/2022 16:17:29:875] Camera angle: 99.96987
[11/04/2022 16:17:29:949] Camera angle: 94.83131
[11/04/2022 16:17:30:20] Camera angle: 89.80589
[11/04/2022 16:17:30:92] Camera angle: 84.78439
[11/04/2022 16:17:30:163] Camera angle: 79.76528
[11/04/2022 16:17:30:236] Camera angle: 74.6813
[11/04/2022 16:17:30:306] left released
[11/04/2022 16:17:30:612] left pressed
[11/04/2022 16:17:30:616] Camera angle: 69.48609
[11/04/2022 16:17:30:688] Camera angle: 64.46008
[11/04/2022 16:17:30:760] Camera angle: 59.38058
[11/04/2022 16:17:30:834] Camera angle: 54.18873
[11/04/2022 16:17:30:907] Camera angle: 49.10329
[11/04/2022 16:17:30:981] Camera angle: 43.90887
[11/04/2022 16:17:31:55] Camera angle: 38.76845
[11/04/2022 16:17:31:126] Camera angle: 33.74831
[11/04/2022 16:17:31:200] Camera angle: 28.61197
[11/04/2022 16:17:31:273] Camera angle: 23.47164
[11/04/2022 16:17:31:346] Camera angle: 18.33806
[11/04/2022 16:17:31:418] Camera angle: 13.31173
[11/04/2022 16:17:31:427] left released
[11/04/2022 16:17:31:668] left pressed
[11/04/2022 16:17:31:731] Camera angle: 8.293783
[11/04/2022 16:17:31:806] Camera angle: 3.096296
[11/04/2022 16:17:31:860] left released
[11/04/2022 16:17:32:5] left pressed
[11/04/2022 16:17:32:22] Camera angle: 358.0127
[11/04/2022 16:17:32:94] Camera angle: 352.9928
[11/04/2022 16:17:32:167] Camera angle: 347.8601
[11/04/2022 16:17:32:181] left released
[11/04/2022 16:17:32:852] right pressed
[11/04/2022 16:17:32:932] Camera angle: 352.9948
[11/04/2022 16:17:33:3] Camera angle: 358.0151
[11/04/2022 16:17:33:75] Camera angle: 3.041463
[11/04/2022 16:17:33:148] Camera angle: 8.187821
[11/04/2022 16:17:33:220] Camera angle: 13.20348
[11/04/2022 16:17:33:292] Camera angle: 18.27844
[11/04/2022 16:17:33:365] Camera angle: 23.3545
[11/04/2022 16:17:33:437] Camera angle: 28.38562
[11/04/2022 16:17:33:509] Camera angle: 33.4612
[11/04/2022 16:17:33:583] Camera angle: 38.59854
[11/04/2022 16:17:33:657] Camera angle: 43.79881
[11/04/2022 16:17:33:729] Camera angle: 48.81924
[11/04/2022 16:17:33:801] Camera angle: 53.83588
[11/04/2022 16:17:33:874] Camera angle: 58.97722
[11/04/2022 16:17:33:924] right released
[11/04/2022 16:17:34:310] right pressed
[11/04/2022 16:17:34:331] Camera angle: 63.99775
[11/04/2022 16:17:34:403] Camera angle: 69.0136
[11/04/2022 16:17:34:476] Camera angle: 74.15633
[11/04/2022 16:17:34:550] Camera angle: 79.29675
[11/04/2022 16:17:34:622] Camera angle: 84.32163
[11/04/2022 16:17:34:694] Camera angle: 89.3989
[11/04/2022 16:17:34:767] Camera angle: 94.47684
[11/04/2022 16:17:34:840] Camera angle: 99.61853
[11/04/2022 16:17:34:913] Camera angle: 104.7534
[11/04/2022 16:17:34:988] Camera angle: 109.9478
[11/04/2022 16:17:34:997] right released
[11/04/2022 16:17:36:211] right pressed
[11/04/2022 16:17:36:273] Camera angle: 114.9898
[11/04/2022 16:17:36:345] Camera angle: 120.0106
[11/04/2022 16:17:36:355] right released
[11/04/2022 16:17:36:835] right pressed
[11/04/2022 16:17:36:898] Camera angle: 125.1401
[11/04/2022 16:17:36:949] right released
[11/04/2022 16:17:37:141] right pressed
[11/04/2022 16:17:37:163] Camera angle: 130.2245
[11/04/2022 16:17:37:238] Camera angle: 135.4212
[11/04/2022 16:17:37:311] Camera angle: 140.5623
[11/04/2022 16:17:37:382] Camera angle: 145.5778
[11/04/2022 16:17:37:456] Camera angle: 150.7173
[11/04/2022 16:17:37:528] Camera angle: 155.7456
[11/04/2022 16:17:37:600] Camera angle: 160.7629
[11/04/2022 16:17:37:671] Camera angle: 165.7847
[11/04/2022 16:17:37:743] Camera angle: 170.8087
[11/04/2022 16:17:37:781] right released
[11/04/2022 16:17:38:178] right pressed
[11/04/2022 16:17:38:214] Camera angle: 175.8272
[11/04/2022 16:17:38:287] Camera angle: 180.9657
[11/04/2022 16:17:38:359] Camera angle: 186.0074
[11/04/2022 16:17:38:431] Camera angle: 191.1251
[11/04/2022 16:17:38:506] Camera angle: 196.2618
[11/04/2022 16:17:38:577] Camera angle: 201.2859
[11/04/2022 16:17:38:652] Camera angle: 206.4811
[11/04/2022 16:17:38:724] Camera angle: 211.5613
[11/04/2022 16:17:38:797] Camera angle: 216.6994
[11/04/2022 16:17:38:871] Camera angle: 221.836
[11/04/2022 16:17:38:945] Camera angle: 227.0383
[11/04/2022 16:17:38:964] right released
[11/04/2022 16:17:39:301] right pressed
[11/04/2022 16:17:39:358] Camera angle: 232.231
[11/04/2022 16:17:39:431] Camera angle: 237.3723
[11/04/2022 16:17:39:476] right released
[11/04/2022 16:17:39:892] right pressed
[11/04/2022 16:17:39:920] Camera angle: 242.5119
[11/04/2022 16:17:39:992] Camera angle: 247.5914
[11/04/2022 16:17:40:66] Camera angle: 252.7305
[11/04/2022 16:17:40:140] Camera angle: 257.9246
[11/04/2022 16:17:40:212] Camera angle: 262.9488
[11/04/2022 16:17:40:283] Camera angle: 267.973
[11/04/2022 16:17:40:356] Camera angle: 272.9882
[11/04/2022 16:17:40:427] Camera angle: 278.0072
[11/04/2022 16:17:40:500] Camera angle: 283.0916
[11/04/2022 16:17:40:573] Camera angle: 288.169
[11/04/2022 16:17:40:611] right released
[11/04/2022 16:17:40:916] right pressed
[11/04/2022 16:17:40:950] Camera angle: 293.2494
[11/04/2022 16:17:41:23] Camera angle: 298.3264
[11/04/2022 16:17:41:76] right released
[11/04/2022 16:17:41:251] right pressed
[11/04/2022 16:17:41:270] Camera angle: 303.3484
[11/04/2022 16:17:41:342] Camera angle: 308.3662
[11/04/2022 16:17:41:415] Camera angle: 313.5107
[11/04/2022 16:17:41:487] Camera angle: 318.5883
[11/04/2022 16:17:41:561] Camera angle: 323.7823
[11/04/2022 16:17:41:635] Camera angle: 328.9253
[11/04/2022 16:17:41:707] Camera angle: 333.9434
[11/04/2022 16:17:41:780] Camera angle: 339.0859
[11/04/2022 16:17:41:854] Camera angle: 344.2185
[11/04/2022 16:17:41:925] right released
[11/04/2022 16:17:42:226] right pressed
[11/04/2022 16:17:42:229] Camera angle: 349.3581
[11/04/2022 16:17:42:301] Camera angle: 354.382
[11/04/2022 16:17:42:373] Camera angle: 359.4019
[11/04/2022 16:17:42:438] right released
[11/04/2022 16:17:43:173] left pressed
[11/04/2022 16:17:43:305] Camera angle: 354.2692
[11/04/2022 16:17:43:317] left released
[11/04/2022 16:17:54:740] right pressed
[11/04/2022 16:17:54:817] Camera angle: 359.2928
[11/04/2022 16:17:54:884] right released
[11/04/2022 16:18:01:110] left pressed
[11/04/2022 16:18:01:221] left released
[11/04/2022 16:18:01:845] right pressed
[11/04/2022 16:18:01:965] Camera angle: 4.368745
[11/04/2022 16:18:01:971] right released
[11/04/2022 16:18:05:75] right pressed
[11/04/2022 16:18:05:143] Camera angle: 9.565337
[11/04/2022 16:18:05:217] Camera angle: 14.70497
[11/04/2022 16:18:05:284] right released
[11/04/2022 16:18:05:811] left pressed
[11/04/2022 16:18:05:942] Camera angle: 9.683013
[11/04/2022 16:18:06:14] Camera angle: 4.666458
[11/04/2022 16:18:06:86] Camera angle: 359.6324
[11/04/2022 16:18:06:118] left released
[11/04/2022 16:18:06:580] right pressed
[11/04/2022 16:18:06:673] Camera angle: 4.668929
[11/04/2022 16:18:06:747] Camera angle: 9.862323
[11/04/2022 16:18:06:819] Camera angle: 14.88463
[11/04/2022 16:18:06:892] Camera angle: 20.02449
[11/04/2022 16:18:06:964] Camera angle: 25.04674
[11/04/2022 16:18:07:36] Camera angle: 30.06369
[11/04/2022 16:18:07:109] Camera angle: 35.20665
[11/04/2022 16:18:07:180] Camera angle: 40.22753
[11/04/2022 16:18:07:236] right released
[11/04/2022 16:18:07:460] right pressed
[11/04/2022 16:18:07:476] Camera angle: 45.23915
[11/04/2022 16:18:07:550] Camera angle: 50.38041
[11/04/2022 16:18:07:625] Camera angle: 55.57815
[11/04/2022 16:18:07:696] Camera angle: 60.59716
[11/04/2022 16:18:07:769] Camera angle: 65.67817
[11/04/2022 16:18:07:810] right released
[11/04/2022 16:18:08:308] right pressed
[11/04/2022 16:18:08:338] Camera angle: 70.76291
[11/04/2022 16:18:08:410] Camera angle: 75.78717
[11/04/2022 16:18:08:482] Camera angle: 80.80802
[11/04/2022 16:18:08:554] Camera angle: 85.82819
[11/04/2022 16:18:08:625] Camera angle: 90.85485
[11/04/2022 16:18:08:697] Camera angle: 95.87423
[11/04/2022 16:18:08:770] Camera angle: 100.9499
[11/04/2022 16:18:08:843] Camera angle: 106.035
[11/04/2022 16:18:08:916] Camera angle: 111.1729
[11/04/2022 16:18:08:988] Camera angle: 116.2513
[11/04/2022 16:18:09:12] right released
[11/04/2022 16:18:09:251] right pressed
[11/04/2022 16:18:09:301] Camera angle: 121.3327
[11/04/2022 16:18:09:373] Camera angle: 126.3504
[11/04/2022 16:18:09:445] Camera angle: 131.4387
[11/04/2022 16:18:09:519] Camera angle: 136.574
[11/04/2022 16:18:09:591] Camera angle: 141.6519
[11/04/2022 16:18:09:665] Camera angle: 146.7939
[11/04/2022 16:18:09:738] Camera angle: 151.9302
[11/04/2022 16:18:09:811] Camera angle: 157.0144
[11/04/2022 16:18:09:885] Camera angle: 162.2087
[11/04/2022 16:18:09:959] Camera angle: 167.3486
[11/04/2022 16:18:10:20] right released
[11/04/2022 16:18:10:421] right pressed
[11/04/2022 16:18:10:432] Camera angle: 172.4804
[11/04/2022 16:18:10:506] Camera angle: 177.6202
[11/04/2022 16:18:10:579] Camera angle: 182.7623
[11/04/2022 16:18:10:653] Camera angle: 187.895
[11/04/2022 16:18:10:726] Camera angle: 193.0406
[11/04/2022 16:18:10:799] Camera angle: 198.1763
[11/04/2022 16:18:10:873] Camera angle: 203.3138
[11/04/2022 16:18:10:946] Camera angle: 208.4525
[11/04/2022 16:18:11:20] Camera angle: 213.5921
[11/04/2022 16:18:11:93] Camera angle: 218.7323
[11/04/2022 16:18:11:166] Camera angle: 223.8673
[11/04/2022 16:18:11:238] Camera angle: 228.8973
[11/04/2022 16:18:11:310] Camera angle: 233.9116
[11/04/2022 16:18:11:383] Camera angle: 239.0491
[11/04/2022 16:18:11:457] Camera angle: 244.1852
[11/04/2022 16:18:11:530] Camera angle: 249.3277
[11/04/2022 16:18:11:604] Camera angle: 254.5231
[11/04/2022 16:18:11:677] Camera angle: 259.605
[11/04/2022 16:18:11:750] Camera angle: 264.7422
[11/04/2022 16:18:11:823] Camera angle: 269.7631
[11/04/2022 16:18:11:895] Camera angle: 274.8468
[11/04/2022 16:18:11:967] Camera angle: 279.9215
[11/04/2022 16:18:12:38] Camera angle: 284.9417
[11/04/2022 16:18:12:113] Camera angle: 290.0893
[11/04/2022 16:18:12:187] Camera angle: 295.3378
[11/04/2022 16:18:12:261] Camera angle: 300.5004
[11/04/2022 16:18:12:323] right released
[11/04/2022 16:18:12:660] right pressed
[11/04/2022 16:18:12:671] Camera angle: 305.6075
[11/04/2022 16:18:12:745] Camera angle: 310.7524
[11/04/2022 16:18:12:816] Camera angle: 315.7704
[11/04/2022 16:18:12:888] Camera angle: 320.7923
[11/04/2022 16:18:12:961] Camera angle: 325.9311
[11/04/2022 16:18:13:35] Camera angle: 331.0706
[11/04/2022 16:18:13:108] Camera angle: 336.2066
[11/04/2022 16:18:13:180] Camera angle: 341.2341
[11/04/2022 16:18:13:252] right released
[11/04/2022 16:18:13:539] right pressed
[11/04/2022 16:18:13:539] Camera angle: 346.3672
[11/04/2022 16:18:13:610] Camera angle: 351.3859
[11/04/2022 16:18:13:682] Camera angle: 356.4106
[11/04/2022 16:18:13:746] right released
[11/04/2022 16:18:14:390] right pressed
[11/04/2022 16:18:14:397] Camera angle: 1.491016
[11/04/2022 16:18:14:471] Camera angle: 6.68538
[11/04/2022 16:18:14:545] Camera angle: 11.82169
[11/04/2022 16:18:14:565] right released
[11/04/2022 16:18:15:668] left pressed
[11/04/2022 16:18:15:758] Camera angle: 6.516922
[11/04/2022 16:18:15:813] left released
[11/04/2022 16:18:16:789] right pressed
[11/04/2022 16:18:16:910] Camera angle: 11.58846
[11/04/2022 16:18:16:984] Camera angle: 16.73475
[11/04/2022 16:18:17:56] Camera angle: 21.75347
[11/04/2022 16:18:17:127] Camera angle: 26.77496
[11/04/2022 16:18:17:200] Camera angle: 31.9148
[11/04/2022 16:18:17:272] Camera angle: 36.9356
[11/04/2022 16:18:17:346] Camera angle: 42.07066
[11/04/2022 16:18:17:419] Camera angle: 47.21323
[11/04/2022 16:18:17:493] right released
[11/04/2022 16:18:17:875] right pressed
[11/04/2022 16:18:17:875] Camera angle: 52.34894
[11/04/2022 16:18:17:947] Camera angle: 57.3672
[11/04/2022 16:18:18:20] Camera angle: 62.50674
[11/04/2022 16:18:18:93] Camera angle: 67.64265
[11/04/2022 16:18:18:132] right released
[11/04/2022 16:18:18:534] left pressed
[11/04/2022 16:18:18:640] Camera angle: 62.50721
[11/04/2022 16:18:18:676] left released
[11/04/2022 16:18:19:61] right pressed
[11/04/2022 16:18:19:162] Camera angle: 67.58887
[11/04/2022 16:18:19:236] Camera angle: 72.79034
[11/04/2022 16:18:19:308] Camera angle: 77.80539
[11/04/2022 16:18:19:380] Camera angle: 82.82887
[11/04/2022 16:18:19:453] Camera angle: 87.97132
[11/04/2022 16:18:19:526] Camera angle: 93.05018
[11/04/2022 16:18:19:598] Camera angle: 98.12767
[11/04/2022 16:18:19:672] Camera angle: 103.2659
[11/04/2022 16:18:19:699] right released
[11/04/2022 16:18:20:67] right pressed
[11/04/2022 16:18:20:114] Camera angle: 108.2859
[11/04/2022 16:18:20:186] Camera angle: 113.3103
[11/04/2022 16:18:20:260] Camera angle: 118.5652
[11/04/2022 16:18:20:276] right released
[11/04/2022 16:18:20:838] right pressed
[11/04/2022 16:18:20:896] Camera angle: 123.7535
[11/04/2022 16:18:20:968] Camera angle: 128.7867
[11/04/2022 16:18:21:40] Camera angle: 133.855
[11/04/2022 16:18:21:114] Camera angle: 138.9914
[11/04/2022 16:18:21:187] Camera angle: 144.0778
[11/04/2022 16:18:21:260] Camera angle: 149.2134
[11/04/2022 16:18:21:333] Camera angle: 154.3456
[11/04/2022 16:18:21:407] Camera angle: 159.4909
[11/04/2022 16:18:21:481] Camera angle: 164.6857
[11/04/2022 16:18:21:555] Camera angle: 169.8845
[11/04/2022 16:18:21:604] right released
[11/04/2022 16:18:22:498] right pressed
[11/04/2022 16:18:22:521] Camera angle: 174.8944
[11/04/2022 16:18:22:596] Camera angle: 180.1477
[11/04/2022 16:18:22:670] Camera angle: 185.2831
[11/04/2022 16:18:22:741] Camera angle: 190.3658
[11/04/2022 16:18:22:815] Camera angle: 195.4422
[11/04/2022 16:18:22:887] Camera angle: 200.5855
[11/04/2022 16:18:22:961] Camera angle: 205.7231
[11/04/2022 16:18:23:35] Camera angle: 210.8597
[11/04/2022 16:18:23:108] Camera angle: 216.0004
[11/04/2022 16:18:23:180] Camera angle: 221.0202
[11/04/2022 16:18:23:251] Camera angle: 226.0409
[11/04/2022 16:18:23:325] Camera angle: 231.1815
[11/04/2022 16:18:23:334] right released
[11/04/2022 16:18:23:651] right pressed
[11/04/2022 16:18:23:717] Camera angle: 236.2061
[11/04/2022 16:18:23:789] Camera angle: 241.2298
[11/04/2022 16:18:23:843] right released
[11/04/2022 16:18:25:108] right pressed
[11/04/2022 16:18:25:127] Camera angle: 246.3134
[11/04/2022 16:18:25:200] Camera angle: 251.3929
[11/04/2022 16:18:25:272] Camera angle: 256.4148
[11/04/2022 16:18:25:345] Camera angle: 261.4987
[11/04/2022 16:18:25:418] Camera angle: 266.6354
[11/04/2022 16:18:25:491] Camera angle: 271.7175
[11/04/2022 16:18:25:564] Camera angle: 276.8541
[11/04/2022 16:18:25:638] Camera angle: 281.9892
[11/04/2022 16:18:25:710] Camera angle: 287.1322
[11/04/2022 16:18:25:784] Camera angle: 292.2678
[11/04/2022 16:18:25:796] right released
[11/04/2022 16:18:27:189] right pressed
[11/04/2022 16:18:27:249] Camera angle: 297.2965
[11/04/2022 16:18:27:320] Camera angle: 302.322
[11/04/2022 16:18:27:394] Camera angle: 307.4586
[11/04/2022 16:18:27:467] Camera angle: 312.5348
[11/04/2022 16:18:27:541] Camera angle: 317.7262
[11/04/2022 16:18:27:613] Camera angle: 322.7568
[11/04/2022 16:18:27:684] Camera angle: 327.7753
[11/04/2022 16:18:27:756] Camera angle: 332.7949
[11/04/2022 16:18:27:830] Camera angle: 337.9351
[11/04/2022 16:18:27:903] Camera angle: 343.0718
[11/04/2022 16:18:27:975] Camera angle: 348.1033
[11/04/2022 16:18:27:989] right released
[11/04/2022 16:18:28:325] right pressed
[11/04/2022 16:18:28:385] Camera angle: 353.2368
[11/04/2022 16:18:28:456] Camera angle: 358.2518
[11/04/2022 16:18:28:530] Camera angle: 3.393241
[11/04/2022 16:18:28:547] right released
[11/04/2022 16:18:39:622] left pressed
[11/04/2022 16:18:39:703] Camera angle: 358.3812
[11/04/2022 16:18:39:776] Camera angle: 353.2954
[11/04/2022 16:18:39:828] left released
[11/04/2022 16:18:40:677] left pressed
[11/04/2022 16:18:40:694] Camera angle: 348.2828
[11/04/2022 16:18:40:766] Camera angle: 343.2052
[11/04/2022 16:18:40:838] Camera angle: 338.1788
[11/04/2022 16:18:40:910] Camera angle: 333.1024
[11/04/2022 16:18:40:983] Camera angle: 327.971
[11/04/2022 16:18:41:56] Camera angle: 322.8831
[11/04/2022 16:18:41:128] Camera angle: 317.8597
[11/04/2022 16:18:41:200] Camera angle: 312.8433
[11/04/2022 16:18:41:273] Camera angle: 307.7032
[11/04/2022 16:18:41:346] Camera angle: 302.5688
[11/04/2022 16:18:41:420] Camera angle: 297.4304
[11/04/2022 16:18:41:493] Camera angle: 292.2885
[11/04/2022 16:18:41:567] Camera angle: 287.1514
[11/04/2022 16:18:41:638] Camera angle: 282.1277
[11/04/2022 16:18:41:710] Camera angle: 277.1115
[11/04/2022 16:18:41:784] Camera angle: 271.9133
[11/04/2022 16:18:41:858] Camera angle: 266.7665
[11/04/2022 16:18:41:930] Camera angle: 261.692
[11/04/2022 16:18:42:2] Camera angle: 256.6721
[11/04/2022 16:18:42:74] Camera angle: 251.6487
[11/04/2022 16:18:42:147] Camera angle: 246.5128
[11/04/2022 16:18:42:221] Camera angle: 241.3744
[11/04/2022 16:18:42:293] Camera angle: 236.3487
[11/04/2022 16:18:42:364] Camera angle: 231.3267
[11/04/2022 16:18:42:438] Camera angle: 226.1912
[11/04/2022 16:18:42:511] Camera angle: 221.05
[11/04/2022 16:18:42:585] Camera angle: 215.8532
[11/04/2022 16:18:42:659] Camera angle: 210.6536
[11/04/2022 16:18:42:733] Camera angle: 205.5181
[11/04/2022 16:18:42:755] left released
[11/04/2022 16:18:44:947] right pressed
[11/04/2022 16:18:45:33] Camera angle: 210.5502
[11/04/2022 16:18:45:107] Camera angle: 215.6898
[11/04/2022 16:18:45:180] Camera angle: 220.8311
[11/04/2022 16:18:45:255] Camera angle: 226.0279
[11/04/2022 16:18:45:329] Camera angle: 231.2266
[11/04/2022 16:18:45:400] Camera angle: 236.2441
[11/04/2022 16:18:45:472] Camera angle: 241.2623
[11/04/2022 16:18:45:544] Camera angle: 246.2921
[11/04/2022 16:18:45:617] Camera angle: 251.4258
[11/04/2022 16:18:45:622] right released
[11/04/2022 16:18:46:83] left pressed
[11/04/2022 16:18:46:156] Camera angle: 246.1123
[11/04/2022 16:18:46:230] Camera angle: 240.973
[11/04/2022 16:18:46:302] Camera angle: 235.8934
[11/04/2022 16:18:46:336] Quiz question: <What country was previously called Formosa>, Target: <Amy>, Distractor: <Paul>, Target_Answer: <Taiwan>, Distractor_Answer: <Indonesia>, Target_correct: <True>
[11/04/2022 16:18:46:337] RightAnswerTask: Showing onscreen question 1
[11/04/2022 16:18:46:375] Camera angle: 230.8171
[11/04/2022 16:18:46:448] Camera angle: 225.675
[11/04/2022 16:18:46:522] Camera angle: 220.5382
[11/04/2022 16:18:46:595] Camera angle: 215.3949
[11/04/2022 16:18:46:666] Camera angle: 210.3779
[11/04/2022 16:18:46:739] Camera angle: 205.3558
[11/04/2022 16:18:46:810] Camera angle: 200.3328
[11/04/2022 16:18:46:835] left released
[11/04/2022 16:18:49:605] RightAnswerTask: Correct answer 1 logged (Target correct, A pressed)
[11/04/2022 16:18:51:542] right pressed
[11/04/2022 16:18:51:632] Camera angle: 205.3508
[11/04/2022 16:18:51:704] Camera angle: 210.4338
[11/04/2022 16:18:51:777] Camera angle: 215.5113
[11/04/2022 16:18:51:850] Camera angle: 220.6529
[11/04/2022 16:18:51:923] Camera angle: 225.7875
[11/04/2022 16:18:51:997] Camera angle: 230.9239
[11/04/2022 16:18:52:69] Camera angle: 235.9506
[11/04/2022 16:18:52:142] Camera angle: 241.0869
[11/04/2022 16:18:52:216] Camera angle: 246.2202
[11/04/2022 16:18:52:289] Camera angle: 251.3626
[11/04/2022 16:18:52:361] Camera angle: 256.3817
[11/04/2022 16:18:52:434] Camera angle: 261.5242
[11/04/2022 16:18:52:508] Camera angle: 266.6614
[11/04/2022 16:18:52:581] Camera angle: 271.798
[11/04/2022 16:18:52:653] Camera angle: 276.8238
[11/04/2022 16:18:52:725] Camera angle: 281.8435
[11/04/2022 16:18:52:789] right released
[11/04/2022 16:18:53:188] right pressed
[11/04/2022 16:18:53:196] Camera angle: 286.926
[11/04/2022 16:18:53:270] Camera angle: 292.1261
[11/04/2022 16:18:53:343] Camera angle: 297.2076
[11/04/2022 16:18:53:415] Camera angle: 302.2823
[11/04/2022 16:18:53:488] Camera angle: 307.3633
[11/04/2022 16:18:53:559] Camera angle: 312.3791
[11/04/2022 16:18:53:632] Camera angle: 317.4626
[11/04/2022 16:18:53:706] Camera angle: 322.6054
[11/04/2022 16:18:53:777] Camera angle: 327.6294
[11/04/2022 16:18:53:849] Camera angle: 332.6457
[11/04/2022 16:18:53:859] right released
[11/04/2022 16:18:54:243] right pressed
[11/04/2022 16:18:54:305] Camera angle: 337.6736
[11/04/2022 16:18:54:377] Camera angle: 342.751
[11/04/2022 16:18:54:450] Camera angle: 347.8286
[11/04/2022 16:18:54:521] Camera angle: 352.8535
[11/04/2022 16:18:54:580] right released
[11/04/2022 16:18:59:27] left pressed
[11/04/2022 16:18:59:152] Camera angle: 347.7752
[11/04/2022 16:18:59:188] left released
[11/04/2022 16:18:59:702] left pressed
[11/04/2022 16:18:59:737] Camera angle: 342.76
[11/04/2022 16:18:59:810] Camera angle: 337.6776
[11/04/2022 16:18:59:882] Camera angle: 332.6581
[11/04/2022 16:18:59:955] Camera angle: 327.5198
[11/04/2022 16:19:00:29] Camera angle: 322.3781
[11/04/2022 16:19:00:103] Camera angle: 317.183
[11/04/2022 16:19:00:179] Camera angle: 311.8687
[11/04/2022 16:19:00:252] Camera angle: 306.7303
[11/04/2022 16:19:00:261] left released
[11/04/2022 16:19:01:60] right pressed
[11/04/2022 16:19:01:136] Camera angle: 311.9233
[11/04/2022 16:19:01:210] Camera angle: 317.0651
[11/04/2022 16:19:01:281] Camera angle: 322.087
[11/04/2022 16:19:01:355] Camera angle: 327.221
[11/04/2022 16:19:01:427] Camera angle: 332.2449
[11/04/2022 16:19:01:500] Camera angle: 337.3814
[11/04/2022 16:19:01:573] Camera angle: 342.5154
[11/04/2022 16:19:01:647] Camera angle: 347.6603
[11/04/2022 16:19:01:720] Camera angle: 352.7971
[11/04/2022 16:19:01:792] Camera angle: 357.8165
[11/04/2022 16:19:01:865] Camera angle: 2.900935
[11/04/2022 16:19:01:937] Camera angle: 7.978351
[11/04/2022 16:19:02:9] Camera angle: 13.00196
[11/04/2022 16:19:02:81] Camera angle: 18.08071
[11/04/2022 16:19:02:156] Camera angle: 23.27796
[11/04/2022 16:19:02:231] Camera angle: 28.53526
[11/04/2022 16:19:02:304] Camera angle: 33.67021
[11/04/2022 16:19:02:376] Camera angle: 38.69625
[11/04/2022 16:19:02:448] Camera angle: 43.77511
[11/04/2022 16:19:02:520] Camera angle: 48.85166
[11/04/2022 16:19:02:594] Camera angle: 53.99421
[11/04/2022 16:19:02:668] Camera angle: 59.13094
[11/04/2022 16:19:02:740] Camera angle: 64.21013
[11/04/2022 16:19:02:815] Camera angle: 69.4101
[11/04/2022 16:19:02:888] Camera angle: 74.5455
[11/04/2022 16:19:02:960] Camera angle: 79.5659
[11/04/2022 16:19:03:33] Camera angle: 84.70895
[11/04/2022 16:19:03:106] Camera angle: 89.78558
[11/04/2022 16:19:03:178] Camera angle: 94.86848
[11/04/2022 16:19:03:252] Camera angle: 100.0055
[11/04/2022 16:19:03:325] Camera angle: 105.1422
[11/04/2022 16:19:03:349] right released
[11/04/2022 16:19:05:12] left pressed
[11/04/2022 16:19:05:103] Camera angle: 100.0057
[11/04/2022 16:19:05:175] Camera angle: 94.9848
[11/04/2022 16:19:05:220] left released
[11/04/2022 16:19:05:427] left pressed
[11/04/2022 16:19:05:455] Camera angle: 89.8424
[11/04/2022 16:19:05:529] Camera angle: 84.64979
[11/04/2022 16:19:05:570] left released
[11/04/2022 16:19:05:795] left pressed
[11/04/2022 16:19:05:828] Camera angle: 79.51152
[11/04/2022 16:19:05:901] Camera angle: 74.37135
[11/04/2022 16:19:05:956] left released
[11/04/2022 16:19:06:116] left pressed
[11/04/2022 16:19:06:135] Camera angle: 69.22945
[11/04/2022 16:19:06:210] Camera angle: 63.97919
[11/04/2022 16:19:06:283] Camera angle: 58.83443
[11/04/2022 16:19:06:343] Quiz question: <How many chukkers are there in a polo match?>, Target: <Emma>, Distractor: <Michael>, Target_Answer: <4>, Distractor_Answer: <6>, Target_correct: <False>
[11/04/2022 16:19:06:343] RightAnswerTask: Showing onscreen question 2
[11/04/2022 16:19:06:356] Camera angle: 53.69881
[11/04/2022 16:19:06:428] Camera angle: 48.67806
[11/04/2022 16:19:06:500] Camera angle: 43.65376
[11/04/2022 16:19:06:576] Camera angle: 38.34454
[11/04/2022 16:19:06:649] Camera angle: 33.25982
[11/04/2022 16:19:06:722] Camera angle: 28.12344
[11/04/2022 16:19:06:795] Camera angle: 22.98712
[11/04/2022 16:19:06:869] Camera angle: 17.84477
[11/04/2022 16:19:06:883] left released
[11/04/2022 16:19:08:419] RightAnswerTask: Correct answer 2 logged (Distractor correct, A pressed)
[11/04/2022 16:19:09:461] left pressed
[11/04/2022 16:19:09:522] Camera angle: 12.65153
[11/04/2022 16:19:09:595] Camera angle: 7.51394
[11/04/2022 16:19:09:653] left released
[11/04/2022 16:19:10:83] left pressed
[11/04/2022 16:19:10:98] Camera angle: 2.382689
[11/04/2022 16:19:10:170] Camera angle: 357.3532
[11/04/2022 16:19:10:195] left released
[11/04/2022 16:19:10:804] right pressed
[11/04/2022 16:19:10:894] Camera angle: 2.38119
[11/04/2022 16:19:10:966] Camera angle: 7.458935
[11/04/2022 16:19:10:980] right released
[11/04/2022 16:19:11:542] left pressed
[11/04/2022 16:19:11:619] Camera angle: 2.379393
[11/04/2022 16:19:11:690] Camera angle: 357.363
[11/04/2022 16:19:11:762] Camera angle: 352.3418
[11/04/2022 16:19:11:834] Camera angle: 347.2631
[11/04/2022 16:19:11:907] Camera angle: 342.1876
[11/04/2022 16:19:11:982] Camera angle: 336.9251
[11/04/2022 16:19:12:57] Camera angle: 331.6713
[11/04/2022 16:19:12:129] Camera angle: 326.651
[11/04/2022 16:19:12:202] Camera angle: 321.5141
[11/04/2022 16:19:12:210] left released
[11/04/2022 16:19:12:915] left pressed
[11/04/2022 16:19:12:978] Camera angle: 316.3737
[11/04/2022 16:19:13:50] Camera angle: 311.3469
[11/04/2022 16:19:13:122] Camera angle: 306.2721
[11/04/2022 16:19:13:196] Camera angle: 301.1319
[11/04/2022 16:19:13:268] Camera angle: 296.0558
[11/04/2022 16:19:13:341] Camera angle: 290.9138
[11/04/2022 16:19:13:378] left released
[11/04/2022 16:19:13:844] left pressed
[11/04/2022 16:19:13:879] Camera angle: 285.8393
[11/04/2022 16:19:13:950] Camera angle: 280.8148
[11/04/2022 16:19:14:24] Camera angle: 275.6749
[11/04/2022 16:19:14:96] Camera angle: 270.656
[11/04/2022 16:19:14:168] Camera angle: 265.6367
[11/04/2022 16:19:14:239] Camera angle: 260.6108
[11/04/2022 16:19:14:311] Camera angle: 255.59
[11/04/2022 16:19:14:383] Camera angle: 250.5135
[11/04/2022 16:19:14:434] left released
[11/04/2022 16:19:14:692] left pressed
[11/04/2022 16:19:14:716] Camera angle: 245.204
[11/04/2022 16:19:14:790] Camera angle: 240.0602
[11/04/2022 16:19:14:863] Camera angle: 234.9271
[11/04/2022 16:19:14:936] Camera angle: 229.8458
[11/04/2022 16:19:15:10] Camera angle: 224.6456
[11/04/2022 16:19:15:84] Camera angle: 219.4505
[11/04/2022 16:19:15:159] Camera angle: 214.251
[11/04/2022 16:19:15:230] Camera angle: 209.2319
[11/04/2022 16:19:15:303] Camera angle: 204.098
[11/04/2022 16:19:15:375] Camera angle: 199.0705
[11/04/2022 16:19:15:447] Camera angle: 194.0522
[11/04/2022 16:19:15:520] Camera angle: 188.9138
[11/04/2022 16:19:15:592] Camera angle: 183.8873
[11/04/2022 16:19:15:665] Camera angle: 178.8133
[11/04/2022 16:19:15:737] Camera angle: 173.7905
[11/04/2022 16:19:15:809] Camera angle: 168.7059
[11/04/2022 16:19:15:811] left released
[11/04/2022 16:19:16:403] left pressed
[11/04/2022 16:19:16:472] Camera angle: 163.6907
[11/04/2022 16:19:16:543] Camera angle: 158.66
[11/04/2022 16:19:16:615] Camera angle: 153.6447
[11/04/2022 16:19:16:688] Camera angle: 148.5056
[11/04/2022 16:19:16:762] Camera angle: 143.3641
[11/04/2022 16:19:16:835] Camera angle: 138.2315
[11/04/2022 16:19:16:908] Camera angle: 133.0853
[11/04/2022 16:19:16:982] Camera angle: 127.9502
[11/04/2022 16:19:17:55] Camera angle: 122.8125
[11/04/2022 16:19:17:129] Camera angle: 117.6718
[11/04/2022 16:19:17:201] Camera angle: 112.6508
[11/04/2022 16:19:17:274] Camera angle: 107.5178
[11/04/2022 16:19:17:299] left released
[11/04/2022 16:19:17:636] right pressed
[11/04/2022 16:19:17:725] Camera angle: 112.5357
[11/04/2022 16:19:17:800] Camera angle: 117.6734
[11/04/2022 16:19:17:871] Camera angle: 122.6941
[11/04/2022 16:19:17:945] Camera angle: 127.8354
[11/04/2022 16:19:18:17] Camera angle: 132.9132
[11/04/2022 16:19:18:90] Camera angle: 137.9938
[11/04/2022 16:19:18:162] Camera angle: 143.0723
[11/04/2022 16:19:18:235] Camera angle: 148.1535
[11/04/2022 16:19:18:308] Camera angle: 153.2327
[11/04/2022 16:19:18:381] Camera angle: 158.3705
[11/04/2022 16:19:18:454] Camera angle: 163.4491
[11/04/2022 16:19:18:525] Camera angle: 168.4702
[11/04/2022 16:19:18:598] Camera angle: 173.5546
[11/04/2022 16:19:18:670] Camera angle: 178.6317
[11/04/2022 16:19:18:742] Camera angle: 183.6516
[11/04/2022 16:19:18:815] Camera angle: 188.7334
[11/04/2022 16:19:18:887] Camera angle: 193.8133
[11/04/2022 16:19:18:960] Camera angle: 198.9559
[11/04/2022 16:19:19:34] Camera angle: 204.0949
[11/04/2022 16:19:19:76] right released
[11/04/2022 16:19:20:199] right pressed
[11/04/2022 16:19:20:229] Camera angle: 209.282
[11/04/2022 16:19:20:300] Camera angle: 214.299
[11/04/2022 16:19:20:373] Camera angle: 219.3746
[11/04/2022 16:19:20:447] Camera angle: 224.5447
[11/04/2022 16:19:20:500] right released
[11/04/2022 16:19:21:923] right pressed
[11/04/2022 16:19:21:942] Camera angle: 229.5986
[11/04/2022 16:19:22:15] Camera angle: 234.7431
[11/04/2022 16:19:22:87] Camera angle: 239.7612
[11/04/2022 16:19:22:116] right released
[11/04/2022 16:19:22:402] right pressed
[11/04/2022 16:19:22:447] Camera angle: 244.7793
[11/04/2022 16:19:22:520] Camera angle: 249.9122
[11/04/2022 16:19:22:549] right released
[11/04/2022 16:19:22:853] left pressed
[11/04/2022 16:19:22:946] Camera angle: 244.8981
[11/04/2022 16:19:22:995] left released
[11/04/2022 16:19:28:343] Quiz question: <Dendrophobia is fear of what>, Target: <Carol>, Distractor: <Michael>, Target_Answer: <Trees>, Distractor_Answer: <Teeth>, Target_correct: <True>
[11/04/2022 16:19:28:344] RightAnswerTask: Showing onscreen question 3
[11/04/2022 16:19:29:445] RightAnswerTask: Correct answer 3 logged (Target correct, A pressed)
[11/04/2022 16:19:30:804] right pressed
[11/04/2022 16:19:30:920] Camera angle: 249.982
[11/04/2022 16:19:30:994] Camera angle: 255.1835
[11/04/2022 16:19:31:66] Camera angle: 260.204
[11/04/2022 16:19:31:140] Camera angle: 265.3445
[11/04/2022 16:19:31:213] Camera angle: 270.4801
[11/04/2022 16:19:31:286] Camera angle: 275.6178
[11/04/2022 16:19:31:360] Camera angle: 280.7585
[11/04/2022 16:19:31:435] Camera angle: 286.0107
[11/04/2022 16:19:31:507] Camera angle: 291.0971
[11/04/2022 16:19:31:582] Camera angle: 296.292
[11/04/2022 16:19:31:654] Camera angle: 301.3678
[11/04/2022 16:19:31:727] Camera angle: 306.4485
[11/04/2022 16:19:31:800] Camera angle: 311.5874
[11/04/2022 16:19:31:874] Camera angle: 316.7299
[11/04/2022 16:19:31:947] Camera angle: 321.8648
[11/04/2022 16:19:32:20] Camera angle: 326.9418
[11/04/2022 16:19:32:53] right released
[11/04/2022 16:19:32:387] right pressed
[11/04/2022 16:19:32:427] Camera angle: 332.0234
[11/04/2022 16:19:32:501] Camera angle: 337.1618
[11/04/2022 16:19:32:572] Camera angle: 342.1825
[11/04/2022 16:19:32:644] Camera angle: 347.2062
[11/04/2022 16:19:32:716] Camera angle: 352.2291
[11/04/2022 16:19:32:756] right released
[11/04/2022 16:19:33:589] left pressed
[11/04/2022 16:19:33:694] Camera angle: 347.203
[11/04/2022 16:19:33:733] left released
[11/04/2022 16:19:34:99] right pressed
[11/04/2022 16:19:34:202] Camera angle: 352.2224
[11/04/2022 16:19:34:274] Camera angle: 357.2569
[11/04/2022 16:19:34:346] Camera angle: 2.275358
[11/04/2022 16:19:34:419] Camera angle: 7.407479
[11/04/2022 16:19:34:491] Camera angle: 12.42727
[11/04/2022 16:19:34:565] Camera angle: 17.57217
[11/04/2022 16:19:34:636] Camera angle: 22.59177
[11/04/2022 16:19:34:709] Camera angle: 27.72964
[11/04/2022 16:19:34:781] Camera angle: 32.75284
[11/04/2022 16:19:34:854] Camera angle: 37.83137
[11/04/2022 16:19:34:927] Camera angle: 42.91457
[11/04/2022 16:19:35:0] Camera angle: 48.05143
[11/04/2022 16:19:35:45] right released
[11/04/2022 16:19:35:876] right pressed
[11/04/2022 16:19:35:906] Camera angle: 53.18568
[11/04/2022 16:19:35:979] Camera angle: 58.32822
[11/04/2022 16:19:36:52] Camera angle: 63.46371
[11/04/2022 16:19:36:125] Camera angle: 68.54022
[11/04/2022 16:19:36:198] Camera angle: 73.62348
[11/04/2022 16:19:36:272] Camera angle: 78.81935
[11/04/2022 16:19:36:346] Camera angle: 84.01478
[11/04/2022 16:19:36:419] Camera angle: 89.09549
[11/04/2022 16:19:36:491] Camera angle: 94.17365
[11/04/2022 16:19:36:563] Camera angle: 99.1991
[11/04/2022 16:19:36:636] Camera angle: 104.2766
[11/04/2022 16:19:36:707] right released
[11/04/2022 16:19:37:124] right pressed
[11/04/2022 16:19:37:124] Camera angle: 109.3017
[11/04/2022 16:19:37:195] Camera angle: 114.3296
[11/04/2022 16:19:37:269] Camera angle: 119.464
[11/04/2022 16:19:37:342] Camera angle: 124.6008
[11/04/2022 16:19:37:416] Camera angle: 129.7394
[11/04/2022 16:19:37:487] Camera angle: 134.7625
[11/04/2022 16:19:37:559] Camera angle: 139.7795
[11/04/2022 16:19:37:631] Camera angle: 144.8077
[11/04/2022 16:19:37:703] Camera angle: 149.8297
[11/04/2022 16:19:37:776] Camera angle: 154.9644
[11/04/2022 16:19:37:848] Camera angle: 159.9909
[11/04/2022 16:19:37:921] Camera angle: 165.125
[11/04/2022 16:19:37:995] Camera angle: 170.2646
[11/04/2022 16:19:38:3] right released
[11/04/2022 16:19:38:435] right pressed
[11/04/2022 16:19:38:499] Camera angle: 175.3907
[11/04/2022 16:19:38:570] Camera angle: 180.407
[11/04/2022 16:19:38:613] right released
[11/04/2022 16:19:39:509] right pressed
[11/04/2022 16:19:39:541] Camera angle: 185.604
[11/04/2022 16:19:39:613] Camera angle: 190.6216
[11/04/2022 16:19:39:653] right released
[11/04/2022 16:19:39:972] right pressed
[11/04/2022 16:19:40:5] Camera angle: 195.7723
[11/04/2022 16:19:40:78] Camera angle: 200.907
[11/04/2022 16:19:40:150] Camera angle: 205.9338
[11/04/2022 16:19:40:224] Camera angle: 211.0714
[11/04/2022 16:19:40:296] Camera angle: 216.1467
[11/04/2022 16:19:40:369] Camera angle: 221.2307
[11/04/2022 16:19:40:442] Camera angle: 226.367
[11/04/2022 16:19:40:514] Camera angle: 231.3943
[11/04/2022 16:19:40:587] Camera angle: 236.4726
[11/04/2022 16:19:40:659] Camera angle: 241.5484
[11/04/2022 16:19:40:731] Camera angle: 246.5727
[11/04/2022 16:19:40:803] Camera angle: 251.6497
[11/04/2022 16:19:40:877] Camera angle: 256.7913
[11/04/2022 16:19:40:950] Camera angle: 261.9318
[11/04/2022 16:19:41:23] Camera angle: 267.0062
[11/04/2022 16:19:41:94] Camera angle: 272.0301
[11/04/2022 16:19:41:141] right released
[11/04/2022 16:19:41:957] left pressed
[11/04/2022 16:19:42:69] Camera angle: 266.947
[11/04/2022 16:19:42:140] Camera angle: 261.933
[11/04/2022 16:19:42:214] Camera angle: 256.7919
[11/04/2022 16:19:42:286] Camera angle: 251.7651
[11/04/2022 16:19:42:359] Camera angle: 246.634
[11/04/2022 16:19:42:387] left released
[11/04/2022 16:19:42:900] right pressed
[11/04/2022 16:19:42:998] Camera angle: 251.8223
[11/04/2022 16:19:43:70] Camera angle: 256.8514
[11/04/2022 16:19:43:141] Camera angle: 261.868
[11/04/2022 16:19:43:213] Camera angle: 266.8889
[11/04/2022 16:19:43:285] Camera angle: 271.9066
[11/04/2022 16:19:43:358] Camera angle: 277.0493
[11/04/2022 16:19:43:430] Camera angle: 282.0746
[11/04/2022 16:19:43:503] Camera angle: 287.2062
[11/04/2022 16:19:43:576] Camera angle: 292.2289
[11/04/2022 16:19:43:648] Camera angle: 297.3679
[11/04/2022 16:19:43:721] Camera angle: 302.3935
[11/04/2022 16:19:43:792] Camera angle: 307.4138
[11/04/2022 16:19:43:864] Camera angle: 312.4855
[11/04/2022 16:19:43:939] Camera angle: 317.6921
[11/04/2022 16:19:44:13] Camera angle: 322.889
[11/04/2022 16:19:44:88] Camera angle: 328.0875
[11/04/2022 16:19:44:159] Camera angle: 333.1022
[11/04/2022 16:19:44:232] Camera angle: 338.2394
[11/04/2022 16:19:44:306] Camera angle: 343.3824
[11/04/2022 16:19:44:379] Camera angle: 348.5188
[11/04/2022 16:19:44:451] Camera angle: 353.5385
[11/04/2022 16:19:44:524] Camera angle: 358.6235
[11/04/2022 16:19:44:596] Camera angle: 3.697331
[11/04/2022 16:19:44:667] Camera angle: 8.722478
[11/04/2022 16:19:44:740] Camera angle: 13.74935
[11/04/2022 16:19:44:811] Camera angle: 18.76941
[11/04/2022 16:19:44:866] right released
[11/04/2022 16:19:44:932] right pressed
[11/04/2022 16:19:44:948] Camera angle: 23.78629
[11/04/2022 16:19:45:20] Camera angle: 28.81372
[11/04/2022 16:19:45:92] Camera angle: 33.82858
[11/04/2022 16:19:45:164] Camera angle: 38.84933
[11/04/2022 16:19:45:235] Camera angle: 43.8731
[11/04/2022 16:19:45:268] right released
[11/04/2022 16:19:49:336] Quiz question: <What was the first movie to be rated PG-13>, Target: <Michael>, Distractor: <Carol>, Target_Answer: <Gone with the Wind>, Distractor_Answer: <Red Dawn>, Target_correct: <False>
[11/04/2022 16:19:49:337] RightAnswerTask: Showing onscreen question 4
[11/04/2022 16:19:51:29] RightAnswerTask: Correct answer 4 logged (Distractor correct, D pressed)
[11/04/2022 16:19:52:147] right pressed
[11/04/2022 16:19:52:187] Camera angle: 49.01447
[11/04/2022 16:19:52:260] Camera angle: 54.15625
[11/04/2022 16:19:52:332] Camera angle: 59.17522
[11/04/2022 16:19:52:405] Camera angle: 64.25552
[11/04/2022 16:19:52:479] Camera angle: 69.45033
[11/04/2022 16:19:52:554] Camera angle: 74.70688
[11/04/2022 16:19:52:625] Camera angle: 79.72701
[11/04/2022 16:19:52:698] Camera angle: 84.75243
[11/04/2022 16:19:52:769] Camera angle: 89.77283
[11/04/2022 16:19:52:843] Camera angle: 94.90482
[11/04/2022 16:19:52:916] Camera angle: 100.0514
[11/04/2022 16:19:52:988] Camera angle: 105.0662
[11/04/2022 16:19:53:60] Camera angle: 110.0909
[11/04/2022 16:19:53:132] Camera angle: 115.116
[11/04/2022 16:19:53:205] Camera angle: 120.2512
[11/04/2022 16:19:53:223] right released
[11/04/2022 16:19:53:669] left pressed
[11/04/2022 16:19:53:750] Camera angle: 115.2299
[11/04/2022 16:19:53:822] Camera angle: 110.2113
[11/04/2022 16:19:53:896] Camera angle: 105.068
[11/04/2022 16:19:53:969] Camera angle: 99.93308
[11/04/2022 16:19:54:41] Camera angle: 94.91519
[11/04/2022 16:19:54:114] Camera angle: 89.76941
[11/04/2022 16:19:54:185] Camera angle: 84.75342
[11/04/2022 16:19:54:259] Camera angle: 79.61442
[11/04/2022 16:19:54:333] Camera angle: 74.41093
[11/04/2022 16:19:54:407] Camera angle: 69.28186
[11/04/2022 16:19:54:481] Camera angle: 64.08025
[11/04/2022 16:19:54:553] Camera angle: 59.05837
[11/04/2022 16:19:54:626] Camera angle: 53.92229
[11/04/2022 16:19:54:698] Camera angle: 48.89565
[11/04/2022 16:19:54:770] Camera angle: 43.87703
[11/04/2022 16:19:54:843] Camera angle: 38.73931
[11/04/2022 16:19:54:915] Camera angle: 33.71904
[11/04/2022 16:19:54:987] Camera angle: 28.69851
[11/04/2022 16:19:55:58] Camera angle: 23.6726
[11/04/2022 16:19:55:132] Camera angle: 18.53246
[11/04/2022 16:19:55:203] Camera angle: 13.51283
[11/04/2022 16:19:55:275] Camera angle: 8.491873
[11/04/2022 16:19:55:346] Camera angle: 3.468301
[11/04/2022 16:19:55:419] Camera angle: 358.4489
[11/04/2022 16:19:55:491] Camera angle: 353.3711
[11/04/2022 16:19:55:566] Camera angle: 348.1694
[11/04/2022 16:19:55:637] Camera angle: 343.1505
[11/04/2022 16:19:55:709] Camera angle: 338.1276
[11/04/2022 16:19:55:782] Camera angle: 333.0453
[11/04/2022 16:19:55:854] Camera angle: 327.9686
[11/04/2022 16:19:55:928] Camera angle: 322.831
[11/04/2022 16:19:55:999] Camera angle: 317.8057
[11/04/2022 16:19:56:71] Camera angle: 312.787
[11/04/2022 16:19:56:143] Camera angle: 307.7674
[11/04/2022 16:19:56:214] Camera angle: 302.7432
[11/04/2022 16:19:56:288] Camera angle: 297.6034
[11/04/2022 16:19:56:360] Camera angle: 292.5828
[11/04/2022 16:19:56:433] Camera angle: 287.4434
[11/04/2022 16:19:56:506] Camera angle: 282.3629
[11/04/2022 16:19:56:579] Camera angle: 277.1719
[11/04/2022 16:19:56:653] Camera angle: 272.0305
[11/04/2022 16:19:56:660] left released
[11/04/2022 16:19:57:587] right pressed
[11/04/2022 16:19:57:659] Camera angle: 277.1059
[11/04/2022 16:19:57:730] Camera angle: 282.1261
[11/04/2022 16:19:57:804] Camera angle: 287.269
[11/04/2022 16:19:57:829] right released
[11/04/2022 16:19:58:580] left pressed
[11/04/2022 16:19:58:671] Camera angle: 282.1835
[11/04/2022 16:19:58:744] Camera angle: 277.1039
[11/04/2022 16:19:58:817] Camera angle: 271.9658
[11/04/2022 16:19:58:890] Camera angle: 266.8276
[11/04/2022 16:19:58:964] Camera angle: 261.6904
[11/04/2022 16:19:59:38] Camera angle: 256.5485
[11/04/2022 16:19:59:110] Camera angle: 251.4135
[11/04/2022 16:19:59:184] Camera angle: 246.27
[11/04/2022 16:19:59:221] left released
[11/04/2022 16:19:59:957] left pressed
[11/04/2022 16:19:59:995] Camera angle: 241.0752
[11/04/2022 16:20:00:68] Camera angle: 235.9911
[11/04/2022 16:20:00:142] Camera angle: 230.8555
[11/04/2022 16:20:00:163] left released
[11/04/2022 16:20:01:190] left pressed
[11/04/2022 16:20:01:240] Camera angle: 225.8326
[11/04/2022 16:20:01:314] Camera angle: 220.6364
[11/04/2022 16:20:01:387] Camera angle: 215.4948
[11/04/2022 16:20:01:460] Camera angle: 210.4167
[11/04/2022 16:20:01:531] Camera angle: 205.3969
[11/04/2022 16:20:01:605] Camera angle: 200.2554
[11/04/2022 16:20:01:677] Camera angle: 195.2377
[11/04/2022 16:20:01:748] Camera angle: 190.2146
[11/04/2022 16:20:01:820] Camera angle: 185.1899
[11/04/2022 16:20:01:875] left released
[11/04/2022 16:20:01:875] right pressed
[11/04/2022 16:20:02:0] Camera angle: 190.5555
[11/04/2022 16:20:02:74] Camera angle: 195.6987
[11/04/2022 16:20:02:145] Camera angle: 200.7183
[11/04/2022 16:20:02:217] Camera angle: 205.7381
[11/04/2022 16:20:02:291] Camera angle: 210.8792
[11/04/2022 16:20:02:364] Camera angle: 216.0146
[11/04/2022 16:20:02:436] Camera angle: 221.0395
[11/04/2022 16:20:02:508] Camera angle: 226.1209
[11/04/2022 16:20:02:583] Camera angle: 231.3132
[11/04/2022 16:20:02:656] Camera angle: 236.4552
[11/04/2022 16:20:02:728] Camera angle: 241.4755
[11/04/2022 16:20:02:800] Camera angle: 246.5552
[11/04/2022 16:20:02:873] Camera angle: 251.6409
[11/04/2022 16:20:02:945] Camera angle: 256.6576
[11/04/2022 16:20:03:18] Camera angle: 261.7943
[11/04/2022 16:20:03:90] Camera angle: 266.8203
[11/04/2022 16:20:03:161] Camera angle: 271.8351
[11/04/2022 16:20:03:235] Camera angle: 276.9754
[11/04/2022 16:20:03:268] right released
[11/04/2022 16:20:07:589] right pressed
[11/04/2022 16:20:07:629] Camera angle: 282.1157
[11/04/2022 16:20:07:703] Camera angle: 287.2494
[11/04/2022 16:20:07:774] Camera angle: 292.2711
[11/04/2022 16:20:07:780] right released
[11/04/2022 16:20:09:346] Quiz question: <What is the surface area of the Earth?>, Target: <Paul>, Distractor: <Emma>, Target_Answer: <510 million km>, Distractor_Answer: <197 million km>, Target_correct: <True>
[11/04/2022 16:20:09:347] RightAnswerTask: Showing onscreen question 5
[11/04/2022 16:20:11:588] RightAnswerTask: Correct answer 5 logged (Target correct, D pressed)
[11/04/2022 16:20:13:75] right pressed
[11/04/2022 16:20:13:140] Camera angle: 297.2982
[11/04/2022 16:20:13:213] Camera angle: 302.4335
[11/04/2022 16:20:13:285] Camera angle: 307.4588
[11/04/2022 16:20:13:353] Starting SAGAT 1
[11/04/2022 16:20:13:355] SAGAT question loaded: "Who last answered incorrectly?" Answers: Megan ; Amy ; Paul ; Michael ; Carol ; [Emma] ; )
[11/04/2022 16:20:13:795] right released
[11/04/2022 16:20:19:299] Toggle pressed: Emma
[11/04/2022 16:20:21:114] SAGAT answer given: "Emma" (correct; "Emma")
[11/04/2022 16:20:21:116] SAGAT question loaded: "Who last answered correctly?" Answers: Megan ; [Paul] ; Michael ; Carol ; Emma ; Amy ; )
[11/04/2022 16:20:23:124] Toggle pressed: Paul
[11/04/2022 16:20:24:251] SAGAT answer given: "Paul" (correct; "Paul")
[11/04/2022 16:20:24:253] SAGAT question loaded: "Who is the quiz master?" Answers: Michael ; Amy ; Carol ; Paul ; Emma ; [Megan] ; )
[11/04/2022 16:20:25:972] Toggle pressed: Megan
[11/04/2022 16:20:26:893] SAGAT answer given: "Megan" (correct; "Megan")
[11/04/2022 16:20:26:894] SAGAT question loaded: "Who is sitting two seats to the right of the quiz master (your right)?" Answers: Paul ; Megan ; Michael ; Amy ; [Emma] ; Carol ; )
[11/04/2022 16:20:39:724] Toggle pressed: Emma
[11/04/2022 16:20:42:515] SAGAT answer given: "Emma" (correct; "Emma")
[11/04/2022 16:20:42:517] SAGAT question loaded: "Identify one person who was in your field of view just before the simulation paused." Answers: Michael ; Amy ; Emma ; Paul ; Carol ; Megan ; )
[11/04/2022 16:20:53:3] Toggle pressed: Paul
[11/04/2022 16:20:54:99] SAGAT answer given: "Paul" (correct; "Paul|Megan|Carol")
[11/04/2022 16:20:54:99] SAGAT Complete
[11/04/2022 16:20:56:403] right pressed
[11/04/2022 16:20:56:404] Camera angle: 312.4773
[11/04/2022 16:20:56:476] Camera angle: 317.618
[11/04/2022 16:20:56:548] Camera angle: 322.6378
[11/04/2022 16:20:56:611] right released
[11/04/2022 16:20:56:965] right pressed
[11/04/2022 16:20:56:973] Camera angle: 327.6558
[11/04/2022 16:20:57:45] Camera angle: 332.684
[11/04/2022 16:20:57:116] Camera angle: 337.7045
[11/04/2022 16:20:57:190] Camera angle: 342.8406
[11/04/2022 16:20:57:264] Camera angle: 347.984
[11/04/2022 16:20:57:266] right released
[11/04/2022 16:20:57:572] right pressed
[11/04/2022 16:20:57:641] Camera angle: 353.0028
[11/04/2022 16:20:57:712] Camera angle: 358.0299
[11/04/2022 16:20:57:748] right released
[11/04/2022 16:20:59:828] right pressed
[11/04/2022 16:20:59:865] Camera angle: 3.170704
[11/04/2022 16:20:59:936] Camera angle: 8.191707
[11/04/2022 16:21:00:8] Camera angle: 13.20934
[11/04/2022 16:21:00:69] right released
[11/04/2022 16:21:00:485] left pressed
[11/04/2022 16:21:00:614] Camera angle: 8.016416
[11/04/2022 16:21:00:685] Camera angle: 2.996771
[11/04/2022 16:21:00:741] left released
[11/04/2022 16:21:01:123] right pressed
[11/04/2022 16:21:01:244] Camera angle: 8.019869
[11/04/2022 16:21:01:316] right released
[11/04/2022 16:21:02:18] right pressed
[11/04/2022 16:21:02:22] Camera angle: 13.21864
[11/04/2022 16:21:02:94] Camera angle: 18.23733
[11/04/2022 16:21:02:165] Camera angle: 23.26771
[11/04/2022 16:21:02:238] Camera angle: 28.34702
[11/04/2022 16:21:02:310] Camera angle: 33.4223
[11/04/2022 16:21:02:382] Camera angle: 38.44715
[11/04/2022 16:21:02:454] Camera angle: 43.46803
[11/04/2022 16:21:02:527] Camera angle: 48.60453
[11/04/2022 16:21:02:601] Camera angle: 53.74652
[11/04/2022 16:21:02:673] Camera angle: 58.76457
[11/04/2022 16:21:02:745] Camera angle: 63.84507
[11/04/2022 16:21:02:818] Camera angle: 68.92775
[11/04/2022 16:21:02:889] Camera angle: 73.94455
[11/04/2022 16:21:02:962] Camera angle: 79.02403
[11/04/2022 16:21:03:35] Camera angle: 84.10954
[11/04/2022 16:21:03:108] Camera angle: 89.24678
[11/04/2022 16:21:03:179] Camera angle: 94.26729
[11/04/2022 16:21:03:251] Camera angle: 99.29076
[11/04/2022 16:21:03:323] Camera angle: 104.3134
[11/04/2022 16:21:03:395] Camera angle: 109.3314
[11/04/2022 16:21:03:468] Camera angle: 114.4735
[11/04/2022 16:21:03:543] Camera angle: 119.669
[11/04/2022 16:21:03:618] Camera angle: 124.9841
[11/04/2022 16:21:03:692] Camera angle: 130.1191
[11/04/2022 16:21:03:765] Camera angle: 135.2625
[11/04/2022 16:21:03:839] Camera angle: 140.3987
[11/04/2022 16:21:03:912] Camera angle: 145.5338
[11/04/2022 16:21:03:986] Camera angle: 150.6772
[11/04/2022 16:21:04:57] Camera angle: 155.6962
[11/04/2022 16:21:04:129] Camera angle: 160.7162
[11/04/2022 16:21:04:202] Camera angle: 165.8571
[11/04/2022 16:21:04:274] Camera angle: 170.874
[11/04/2022 16:21:04:340] right released
[11/04/2022 16:21:04:997] right pressed
[11/04/2022 16:21:05:3] Camera angle: 175.9602
[11/04/2022 16:21:05:76] Camera angle: 181.1034
[11/04/2022 16:21:05:140] right released
[11/04/2022 16:21:09:76] Quiz question: <When was the first digital computer invented>, Target: <Amy>, Distractor: <Michael>, Target_Answer: <1960>, Distractor_Answer: <1946>, Target_correct: <False>
[11/04/2022 16:21:09:76] RightAnswerTask: Showing onscreen question 6
[11/04/2022 16:21:10:403] RightAnswerTask: Correct answer 6 logged (Distractor correct, D pressed)
[11/04/2022 16:21:11:524] right pressed
[11/04/2022 16:21:11:534] Camera angle: 186.2443
[11/04/2022 16:21:11:608] Camera angle: 191.4411
[11/04/2022 16:21:11:680] Camera angle: 196.4654
[11/04/2022 16:21:11:748] right released
[11/04/2022 16:21:11:987] right pressed
[11/04/2022 16:21:11:994] Camera angle: 201.6029
[11/04/2022 16:21:12:67] Camera angle: 206.7338
[11/04/2022 16:21:12:141] Camera angle: 211.8786
[11/04/2022 16:21:12:214] Camera angle: 217.0182
[11/04/2022 16:21:12:286] Camera angle: 222.0927
[11/04/2022 16:21:12:360] Camera angle: 227.1758
[11/04/2022 16:21:12:432] Camera angle: 232.2546
[11/04/2022 16:21:12:504] Camera angle: 237.2734
[11/04/2022 16:21:12:577] Camera angle: 242.415
[11/04/2022 16:21:12:648] Camera angle: 247.4322
[11/04/2022 16:21:12:722] Camera angle: 252.5142
[11/04/2022 16:21:12:794] Camera angle: 257.5984
[11/04/2022 16:21:12:868] Camera angle: 262.7338
[11/04/2022 16:21:12:939] Camera angle: 267.7491
[11/04/2022 16:21:13:13] Camera angle: 272.895
[11/04/2022 16:21:13:85] Camera angle: 277.9155
[11/04/2022 16:21:13:156] Camera angle: 282.9355
[11/04/2022 16:21:13:228] Camera angle: 287.9633
[11/04/2022 16:21:13:300] Camera angle: 292.9818
[11/04/2022 16:21:13:371] Camera angle: 297.9981
[11/04/2022 16:21:13:445] Camera angle: 303.1442
[11/04/2022 16:21:13:518] Camera angle: 308.2786
[11/04/2022 16:21:13:590] Camera angle: 313.2983
[11/04/2022 16:21:13:662] Camera angle: 318.3238
[11/04/2022 16:21:13:734] Camera angle: 323.3428
[11/04/2022 16:21:13:806] Camera angle: 328.4235
[11/04/2022 16:21:13:875] right released
[11/04/2022 16:21:14:242] right pressed
[11/04/2022 16:21:14:246] Camera angle: 333.4479
[11/04/2022 16:21:14:317] Camera angle: 338.4694
[11/04/2022 16:21:14:390] Camera angle: 343.5309
[11/04/2022 16:21:14:463] Camera angle: 348.6884
[11/04/2022 16:21:14:537] Camera angle: 353.8246
[11/04/2022 16:21:14:609] Camera angle: 358.9035
[11/04/2022 16:21:14:684] Camera angle: 4.103013
[11/04/2022 16:21:14:756] Camera angle: 9.17977
[11/04/2022 16:21:14:828] Camera angle: 14.20461
[11/04/2022 16:21:14:900] Camera angle: 19.22312
[11/04/2022 16:21:14:973] Camera angle: 24.35991
[11/04/2022 16:21:15:46] Camera angle: 29.44491
[11/04/2022 16:21:15:117] Camera angle: 34.46603
[11/04/2022 16:21:15:192] Camera angle: 39.65838
[11/04/2022 16:21:15:264] Camera angle: 44.74282
[11/04/2022 16:21:15:337] Camera angle: 49.82085
[11/04/2022 16:21:15:408] Camera angle: 54.84232
[11/04/2022 16:21:15:480] Camera angle: 59.86822
[11/04/2022 16:21:15:552] Camera angle: 64.94325
[11/04/2022 16:21:15:625] Camera angle: 69.96749
[11/04/2022 16:21:15:698] Camera angle: 75.10698
[11/04/2022 16:21:15:771] Camera angle: 80.1849
[11/04/2022 16:21:15:843] Camera angle: 85.32557
[11/04/2022 16:21:15:917] Camera angle: 90.46339
[11/04/2022 16:21:15:992] Camera angle: 95.62856
[11/04/2022 16:21:16:63] Camera angle: 100.7406
[11/04/2022 16:21:16:136] Camera angle: 105.7601
[11/04/2022 16:21:16:209] Camera angle: 110.8964
[11/04/2022 16:21:16:282] Camera angle: 116.0407
[11/04/2022 16:21:16:354] Camera angle: 121.0601
[11/04/2022 16:21:16:426] Camera angle: 126.0852
[11/04/2022 16:21:16:499] Camera angle: 131.1623
[11/04/2022 16:21:16:572] Camera angle: 136.2977
[11/04/2022 16:21:16:645] Camera angle: 141.3843
[11/04/2022 16:21:16:716] Camera angle: 146.4024
[11/04/2022 16:21:16:788] Camera angle: 151.4209
[11/04/2022 16:21:16:860] Camera angle: 156.4427
[11/04/2022 16:21:16:931] Camera angle: 161.4709
[11/04/2022 16:21:17:5] Camera angle: 166.6042
[11/04/2022 16:21:17:78] Camera angle: 171.7459
[11/04/2022 16:21:17:150] Camera angle: 176.7651
[11/04/2022 16:21:17:218] right released
[11/04/2022 16:21:17:603] right pressed
[11/04/2022 16:21:17:607] Camera angle: 181.9038
[11/04/2022 16:21:17:679] Camera angle: 186.9277
[11/04/2022 16:21:17:752] Camera angle: 192.0638
[11/04/2022 16:21:17:826] Camera angle: 197.2
[11/04/2022 16:21:17:900] Camera angle: 202.3434
[11/04/2022 16:21:17:973] Camera angle: 207.477
[11/04/2022 16:21:18:46] Camera angle: 212.621
[11/04/2022 16:21:18:120] Camera angle: 217.7565
[11/04/2022 16:21:18:191] Camera angle: 222.7773
[11/04/2022 16:21:18:265] Camera angle: 227.9185
[11/04/2022 16:21:18:308] right released
[11/04/2022 16:21:18:964] right pressed
[11/04/2022 16:21:18:994] Camera angle: 232.9944
[11/04/2022 16:21:19:67] Camera angle: 238.1369
[11/04/2022 16:21:19:140] Camera angle: 243.2716
[11/04/2022 16:21:19:214] Camera angle: 248.4143
[11/04/2022 16:21:19:287] Camera angle: 253.5525
[11/04/2022 16:21:19:359] Camera angle: 258.5735
[11/04/2022 16:21:19:431] Camera angle: 263.5979
[11/04/2022 16:21:19:505] Camera angle: 268.7354
[11/04/2022 16:21:19:577] Camera angle: 273.868
[11/04/2022 16:21:19:635] right released
[11/04/2022 16:21:19:971] right pressed
[11/04/2022 16:21:19:985] Camera angle: 278.8974
[11/04/2022 16:21:20:56] Camera angle: 283.918
[11/04/2022 16:21:20:130] Camera angle: 289.0531
[11/04/2022 16:21:20:195] right released
[11/04/2022 16:21:20:405] right pressed
[11/04/2022 16:21:20:412] Camera angle: 294.0705
[11/04/2022 16:21:20:485] Camera angle: 299.211
[11/04/2022 16:21:20:559] Camera angle: 304.3475
[11/04/2022 16:21:20:564] right released
[11/04/2022 16:21:21:156] left pressed
[11/04/2022 16:21:21:229] Camera angle: 299.2718
[11/04/2022 16:21:21:283] left released
[11/04/2022 16:21:21:586] right pressed
[11/04/2022 16:21:21:706] Camera angle: 304.2919
[11/04/2022 16:21:21:780] Camera angle: 309.4247
[11/04/2022 16:21:21:852] Camera angle: 314.513
[11/04/2022 16:21:21:927] Camera angle: 319.7054
[11/04/2022 16:21:21:988] right released
[11/04/2022 16:21:22:469] left pressed
[11/04/2022 16:21:22:597] Camera angle: 314.5669
[11/04/2022 16:21:22:669] Camera angle: 309.5416
[11/04/2022 16:21:22:741] Camera angle: 304.523
[11/04/2022 16:21:22:771] left released
[11/04/2022 16:21:23:186] left pressed
[11/04/2022 16:21:23:228] Camera angle: 299.4955
[11/04/2022 16:21:23:299] Camera angle: 294.4817
[11/04/2022 16:21:23:315] left released
[11/04/2022 16:21:24:659] right pressed
[11/04/2022 16:21:24:740] Camera angle: 299.4995
[11/04/2022 16:21:24:771] right released
[11/04/2022 16:21:30:76] Quiz question: <What species of land animal has the largest eyes>, Target: <Paul>, Distractor: <Emma>, Target_Answer: <Elephant>, Distractor_Answer: <Ostrich>, Target_correct: <False>
[11/04/2022 16:21:30:77] RightAnswerTask: Showing onscreen question 7
[11/04/2022 16:21:31:92] RightAnswerTask: Correct answer 7 logged (Distractor correct, A pressed)
[11/04/2022 16:21:32:357] right pressed
[11/04/2022 16:21:32:398] Camera angle: 304.5261
[11/04/2022 16:21:32:472] Camera angle: 309.6603
[11/04/2022 16:21:32:499] right released
[11/04/2022 16:21:33:74] left pressed
[11/04/2022 16:21:33:167] Camera angle: 304.577
[11/04/2022 16:21:33:188] left released
[11/04/2022 16:21:35:667] left pressed
[11/04/2022 16:21:35:719] Camera angle: 299.5586
[11/04/2022 16:21:35:791] Camera angle: 294.4805
[11/04/2022 16:21:35:798] left released
[11/04/2022 16:21:36:84] right pressed
[11/04/2022 16:21:36:155] Camera angle: 299.499
[11/04/2022 16:21:36:229] Camera angle: 304.6932
[11/04/2022 16:21:36:303] Camera angle: 309.8331
[11/04/2022 16:21:36:374] Camera angle: 314.8545
[11/04/2022 16:21:36:446] Camera angle: 319.8718
[11/04/2022 16:21:36:518] Camera angle: 324.8954
[11/04/2022 16:21:36:589] Camera angle: 329.9192
[11/04/2022 16:21:36:661] Camera angle: 334.9363
[11/04/2022 16:21:36:733] Camera angle: 339.9667
[11/04/2022 16:21:36:805] Camera angle: 344.9818
[11/04/2022 16:21:36:835] right released
[11/04/2022 16:21:37:139] right pressed
[11/04/2022 16:21:37:184] Camera angle: 350.1884
[11/04/2022 16:21:37:255] Camera angle: 355.2073
[11/04/2022 16:21:37:269] right released
[11/04/2022 16:21:38:914] right pressed
[11/04/2022 16:21:38:974] Camera angle: 0.230985
[11/04/2022 16:21:39:47] Camera angle: 5.363938
[11/04/2022 16:21:39:61] right released
[11/04/2022 16:21:39:458] left pressed
[11/04/2022 16:21:39:538] left released
[11/04/2022 16:21:40:917] right pressed
[11/04/2022 16:21:41:56] Camera angle: 10.39466
[11/04/2022 16:21:41:128] Camera angle: 15.47128
[11/04/2022 16:21:41:201] Camera angle: 20.5511
[11/04/2022 16:21:41:274] Camera angle: 25.69443
[11/04/2022 16:21:41:348] Camera angle: 30.8284
[11/04/2022 16:21:41:419] Camera angle: 35.85768
[11/04/2022 16:21:41:493] Camera angle: 40.98908
[11/04/2022 16:21:41:564] Camera angle: 46.009
[11/04/2022 16:21:41:636] Camera angle: 51.03568
[11/04/2022 16:21:41:708] Camera angle: 56.05833
[11/04/2022 16:21:41:782] Camera angle: 61.19476
[11/04/2022 16:21:41:855] Camera angle: 66.33402
[11/04/2022 16:21:41:928] Camera angle: 71.4152
[11/04/2022 16:21:42:3] Camera angle: 76.73009
[11/04/2022 16:21:42:74] Camera angle: 81.74989
[11/04/2022 16:21:42:147] Camera angle: 86.76978
[11/04/2022 16:21:42:219] Camera angle: 91.79243
[11/04/2022 16:21:42:290] Camera angle: 96.81701
[11/04/2022 16:21:42:362] Camera angle: 101.8375
[11/04/2022 16:21:42:388] right released
[11/04/2022 16:21:42:981] right pressed
[11/04/2022 16:21:43:28] Camera angle: 106.8524
[11/04/2022 16:21:43:102] Camera angle: 112.047
[11/04/2022 16:21:43:173] right released
[11/04/2022 16:21:48:74] Quiz question: <Who was the first performer at Woodstock>, Target: <Emma>, Distractor: <Paul>, Target_Answer: <Fleetwood Mac>, Distractor_Answer: <Richie Havens>, Target_correct: <False>
[11/04/2022 16:21:48:75] RightAnswerTask: Showing onscreen question 8
[11/04/2022 16:21:49:363] RightAnswerTask: Correct answer 8 logged (Distractor correct, A pressed)
[11/04/2022 16:21:50:486] right pressed
[11/04/2022 16:21:50:488] Camera angle: 117.2433
[11/04/2022 16:21:50:560] Camera angle: 122.2625
[11/04/2022 16:21:50:632] Camera angle: 127.2877
[11/04/2022 16:21:50:705] Camera angle: 132.4226
[11/04/2022 16:21:50:777] Camera angle: 137.4405
[11/04/2022 16:21:50:850] Camera angle: 142.5859
[11/04/2022 16:21:50:924] Camera angle: 147.7254
[11/04/2022 16:21:50:997] Camera angle: 152.8064
[11/04/2022 16:21:51:69] Camera angle: 157.8855
[11/04/2022 16:21:51:143] Camera angle: 163.0217
[11/04/2022 16:21:51:216] Camera angle: 168.1631
[11/04/2022 16:21:51:288] Camera angle: 173.1837
[11/04/2022 16:21:51:331] right released
[11/04/2022 16:21:51:813] right pressed
[11/04/2022 16:21:51:844] Camera angle: 178.378
[11/04/2022 16:21:51:917] Camera angle: 183.4609
[11/04/2022 16:21:51:988] Camera angle: 188.4808
[11/04/2022 16:21:52:60] Camera angle: 193.502
[11/04/2022 16:21:52:132] Camera angle: 198.5294
[11/04/2022 16:21:52:204] Camera angle: 203.6069
[11/04/2022 16:21:52:278] Camera angle: 208.7435
[11/04/2022 16:21:52:350] Camera angle: 213.8301
[11/04/2022 16:21:52:422] Camera angle: 218.849
[11/04/2022 16:21:52:494] Camera angle: 223.867
[11/04/2022 16:21:52:567] Camera angle: 229.0085
[11/04/2022 16:21:52:638] Camera angle: 234.0286
[11/04/2022 16:21:52:710] Camera angle: 239.0459
[11/04/2022 16:21:52:784] Camera angle: 244.1879
[11/04/2022 16:21:52:857] Camera angle: 249.3241
[11/04/2022 16:21:52:929] Camera angle: 254.3434
[11/04/2022 16:21:53:3] Camera angle: 259.4871
[11/04/2022 16:21:53:75] Camera angle: 264.567
[11/04/2022 16:21:53:150] Camera angle: 269.7674
[11/04/2022 16:21:53:223] Camera angle: 274.9029
[11/04/2022 16:21:53:295] Camera angle: 279.981
[11/04/2022 16:21:53:368] Camera angle: 285.1201
[11/04/2022 16:21:53:442] Camera angle: 290.2595
[11/04/2022 16:21:53:515] Camera angle: 295.3429
[11/04/2022 16:21:53:588] Camera angle: 300.4786
[11/04/2022 16:21:53:661] Camera angle: 305.6127
[11/04/2022 16:21:53:734] Camera angle: 310.6428
[11/04/2022 16:21:53:805] Camera angle: 315.6611
[11/04/2022 16:21:53:878] Camera angle: 320.7931
[11/04/2022 16:21:53:950] Camera angle: 325.8221
[11/04/2022 16:21:54:22] Camera angle: 330.8398
[11/04/2022 16:21:54:53] right released
[11/04/2022 16:21:54:788] right pressed
[11/04/2022 16:21:54:831] Camera angle: 335.976
[11/04/2022 16:21:54:902] Camera angle: 340.9969
[11/04/2022 16:21:54:974] Camera angle: 346.0195
[11/04/2022 16:21:54:996] right released
[11/04/2022 16:21:55:266] right pressed
[11/04/2022 16:21:55:316] Camera angle: 351.0467
[11/04/2022 16:21:55:388] Camera angle: 356.0713
[11/04/2022 16:21:55:460] right released
[11/04/2022 16:21:56:787] left pressed
[11/04/2022 16:21:56:925] Camera angle: 351.0119
[11/04/2022 16:21:56:932] left released
[11/04/2022 16:21:57:651] right pressed
[11/04/2022 16:21:57:724] Camera angle: 356.2134
[11/04/2022 16:21:57:796] Camera angle: 1.23052
[11/04/2022 16:21:57:861] right released
[11/04/2022 16:22:00:133] left pressed
[11/04/2022 16:22:00:212] left released
[11/04/2022 16:22:00:901] left pressed
[11/04/2022 16:22:00:952] Camera angle: 356.2099
[11/04/2022 16:22:01:26] Camera angle: 351.067
[11/04/2022 16:22:01:29] left released
[11/04/2022 16:22:01:666] right pressed
[11/04/2022 16:22:01:736] Camera angle: 356.1501
[11/04/2022 16:22:01:810] Camera angle: 1.292016
[11/04/2022 16:22:01:881] Camera angle: 6.309818
[11/04/2022 16:22:01:955] Camera angle: 11.4153
[11/04/2022 16:22:02:28] Camera angle: 16.59155
[11/04/2022 16:22:02:102] Camera angle: 21.72743
[11/04/2022 16:22:02:173] Camera angle: 26.74907
[11/04/2022 16:22:02:247] Camera angle: 31.88798
[11/04/2022 16:22:02:320] Camera angle: 37.02535
[11/04/2022 16:22:02:392] Camera angle: 42.05087
[11/04/2022 16:22:02:420] right released
[11/04/2022 16:22:02:820] right pressed
[11/04/2022 16:22:02:864] Camera angle: 47.07053
[11/04/2022 16:22:02:937] Camera angle: 52.20297
[11/04/2022 16:22:03:9] Camera angle: 57.23265
[11/04/2022 16:22:03:13] right released
[11/04/2022 16:22:03:285] right pressed
[11/04/2022 16:22:03:355] Camera angle: 62.42958
[11/04/2022 16:22:03:379] right released
[11/04/2022 16:22:03:748] left pressed
[11/04/2022 16:22:03:838] Camera angle: 57.35877
[11/04/2022 16:22:03:859] left released
[11/04/2022 16:22:09:64] Quiz question: <Where are the most Trappist breweries>, Target: <Michael>, Distractor: <Carol>, Target_Answer: <Denmark>, Distractor_Answer: <Belgium>, Target_correct: <False>
[11/04/2022 16:22:09:65] RightAnswerTask: Showing onscreen question 9
[11/04/2022 16:22:10:498] RightAnswerTask: Correct answer 9 logged (Distractor correct, D pressed)
[11/04/2022 16:22:12:419] right pressed
[11/04/2022 16:22:12:505] Camera angle: 62.44213
[11/04/2022 16:22:12:578] Camera angle: 67.52082
[11/04/2022 16:22:12:628] right released
[11/04/2022 16:22:12:853] right pressed
[11/04/2022 16:22:12:876] Camera angle: 72.71703
[11/04/2022 16:22:12:948] Camera angle: 77.73504
[11/04/2022 16:22:13:19] Camera angle: 82.76206
[11/04/2022 16:22:13:91] Camera angle: 87.77955
[11/04/2022 16:22:13:165] Camera angle: 92.93682
[11/04/2022 16:22:13:236] Camera angle: 97.93943
[11/04/2022 16:22:13:309] Camera angle: 103.0196
[11/04/2022 16:22:13:381] Camera angle: 108.0926
[11/04/2022 16:22:13:453] Camera angle: 113.1234
[11/04/2022 16:22:13:525] Camera angle: 118.1446
[11/04/2022 16:22:13:598] Camera angle: 123.2813
[11/04/2022 16:22:13:672] Camera angle: 128.4212
[11/04/2022 16:22:13:745] Camera angle: 133.556
[11/04/2022 16:22:13:817] Camera angle: 138.578
[11/04/2022 16:22:13:889] Camera angle: 143.6766
[11/04/2022 16:22:13:963] Camera angle: 148.8006
[11/04/2022 16:22:14:37] Camera angle: 153.9994
[11/04/2022 16:22:14:99] Starting SAGAT 2
[11/04/2022 16:22:14:100] SAGAT question loaded: "What is the colour of the quiz master's shirt?" Answers: Blue ; Black ; Brown ; Yellow ; [Green] ; White ; )
[11/04/2022 16:22:14:580] right released
[11/04/2022 16:22:16:933] Toggle pressed: Green
[11/04/2022 16:22:18:186] SAGAT answer given: "Green" (correct; "Green")
[11/04/2022 16:22:18:187] SAGAT question loaded: "Who is sitting two seats to the left of the quiz master (your left)?" Answers: [Carol] ; Megan ; Paul ; Michael ; Amy ; Emma ; )
[11/04/2022 16:22:21:35] Toggle pressed: Paul
[11/04/2022 16:22:22:148] SAGAT answer given: "Paul" (incorrect; "Carol")
[11/04/2022 16:22:22:150] SAGAT question loaded: "Who last answered correctly?" Answers: Amy ; Megan ; Emma ; Paul ; [Carol] ; Michael ; )
[11/04/2022 16:22:24:907] Toggle pressed: Carol
[11/04/2022 16:22:25:669] SAGAT answer given: "Carol" (correct; "Carol")
[11/04/2022 16:22:25:671] SAGAT question loaded: "Who is sitting left of the quiz master (your left)?" Answers: Emma ; Carol ; Megan ; [Paul] ; Michael ; Amy ; )
[11/04/2022 16:22:34:4] Toggle pressed: Paul
[11/04/2022 16:22:36:236] SAGAT answer given: "Paul" (correct; "Paul")
[11/04/2022 16:22:36:237] SAGAT question loaded: "Identify one person who was in your field of view just before the simulation paused." Answers: Emma ; Michael ; Paul ; Megan ; Amy ; Carol ; )
[11/04/2022 16:22:39:571] Toggle pressed: Megan
[11/04/2022 16:22:40:355] SAGAT answer given: "Megan" (incorrect; "Amy|Carol|Emma")
[11/04/2022 16:22:40:355] SAGAT Complete
[11/04/2022 16:22:43:234] right pressed
[11/04/2022 16:22:43:240] Camera angle: 159.0096
[11/04/2022 16:22:43:314] Camera angle: 164.156
[11/04/2022 16:22:43:388] Camera angle: 169.2926
[11/04/2022 16:22:43:461] Camera angle: 174.4281
[11/04/2022 16:22:43:534] Camera angle: 179.4567
[11/04/2022 16:22:43:605] Camera angle: 184.4742
[11/04/2022 16:22:43:676] Camera angle: 189.4923
[11/04/2022 16:22:43:750] Camera angle: 194.6369
[11/04/2022 16:22:43:822] Camera angle: 199.6734
[11/04/2022 16:22:43:895] Camera angle: 204.7927
[11/04/2022 16:22:43:967] Camera angle: 209.8176
[11/04/2022 16:22:44:40] Camera angle: 214.9531
[11/04/2022 16:22:44:114] Camera angle: 220.0898
[11/04/2022 16:22:44:185] Camera angle: 225.1129
[11/04/2022 16:22:44:258] Camera angle: 230.1953
[11/04/2022 16:22:44:330] Camera angle: 235.271
[11/04/2022 16:22:44:403] Camera angle: 240.355
[11/04/2022 16:22:44:475] Camera angle: 245.4358
[11/04/2022 16:22:44:549] Camera angle: 250.5778
[11/04/2022 16:22:44:623] Camera angle: 255.7119
[11/04/2022 16:22:44:694] Camera angle: 260.7321
[11/04/2022 16:22:44:766] Camera angle: 265.8144
[11/04/2022 16:22:44:839] Camera angle: 270.9353
[11/04/2022 16:22:44:913] Camera angle: 276.0865
[11/04/2022 16:22:44:986] Camera angle: 281.1705
[11/04/2022 16:22:45:60] Camera angle: 286.3061
[11/04/2022 16:22:45:131] Camera angle: 291.3293
[11/04/2022 16:22:45:204] Camera angle: 296.4105
[11/04/2022 16:22:45:277] Camera angle: 301.5454
[11/04/2022 16:22:45:350] Camera angle: 306.6312
[11/04/2022 16:22:45:423] Camera angle: 311.7672
[11/04/2022 16:22:45:497] Camera angle: 316.9018
[11/04/2022 16:22:45:570] Camera angle: 322.0457
[11/04/2022 16:22:45:644] Camera angle: 327.1827
[11/04/2022 16:22:45:715] Camera angle: 332.199
[11/04/2022 16:22:45:787] Camera angle: 337.2266
[11/04/2022 16:22:45:859] Camera angle: 342.2486
[11/04/2022 16:22:45:874] right released
[11/04/2022 16:22:46:194] right pressed
[11/04/2022 16:22:46:249] Camera angle: 347.2662
[11/04/2022 16:22:46:322] Camera angle: 352.3478
[11/04/2022 16:22:46:394] Camera angle: 357.4299
[11/04/2022 16:22:46:404] right released
[11/04/2022 16:22:48:21] right pressed
[11/04/2022 16:22:48:83] Camera angle: 2.515557
[11/04/2022 16:22:48:158] Camera angle: 7.718343
[11/04/2022 16:22:48:213] right released
[11/04/2022 16:22:48:725] right pressed
[11/04/2022 16:22:48:743] Camera angle: 12.85147
[11/04/2022 16:22:48:816] Camera angle: 17.98699
[11/04/2022 16:22:48:888] Camera angle: 23.01264
[11/04/2022 16:22:48:960] Camera angle: 28.03286
[11/04/2022 16:22:49:33] Camera angle: 33.16914
[11/04/2022 16:22:49:107] Camera angle: 38.31131
[11/04/2022 16:22:49:180] Camera angle: 43.44844
[11/04/2022 16:22:49:254] Camera angle: 48.58969
[11/04/2022 16:22:49:284] right released
[11/04/2022 16:22:49:668] right pressed
[11/04/2022 16:22:49:711] Camera angle: 53.72267
[11/04/2022 16:22:49:784] Camera angle: 58.86225
[11/04/2022 16:22:49:856] Camera angle: 63.88661
[11/04/2022 16:22:49:929] Camera angle: 68.96612
[11/04/2022 16:22:50:1] Camera angle: 74.04256
[11/04/2022 16:22:50:73] Camera angle: 79.07108
[11/04/2022 16:22:50:145] Camera angle: 84.08858
[11/04/2022 16:22:50:216] Camera angle: 89.10924
[11/04/2022 16:22:50:288] Camera angle: 94.13241
[11/04/2022 16:22:50:360] Camera angle: 99.1538
[11/04/2022 16:22:50:432] Camera angle: 104.1748
[11/04/2022 16:22:50:503] Camera angle: 109.1908
[11/04/2022 16:22:50:563] right released
[11/04/2022 16:22:50:981] right pressed
[11/04/2022 16:22:50:992] Camera angle: 114.2126
[11/04/2022 16:22:51:64] Camera angle: 119.2384
[11/04/2022 16:22:51:77] right released
[11/04/2022 16:22:55:340] Quiz question: <How many countries are there in the Southern Hemisphere>, Target: <Emma>, Distractor: <Paul>, Target_Answer: <35>, Distractor_Answer: <32>, Target_correct: <False>
[11/04/2022 16:22:55:341] RightAnswerTask: Showing onscreen question 10
[11/04/2022 16:22:56:450] RightAnswerTask: Correct answer 10 logged (Distractor correct, A pressed)
[11/04/2022 16:22:59:524] right pressed
[11/04/2022 16:22:59:584] Camera angle: 124.3214
[11/04/2022 16:22:59:655] Camera angle: 129.3391
[11/04/2022 16:22:59:729] Camera angle: 134.4779
[11/04/2022 16:22:59:801] Camera angle: 139.56
[11/04/2022 16:22:59:874] Camera angle: 144.6364
[11/04/2022 16:22:59:924] right released
[11/04/2022 16:23:00:163] right pressed
[11/04/2022 16:23:00:188] Camera angle: 149.7829
[11/04/2022 16:23:00:261] Camera angle: 154.9199
[11/04/2022 16:23:00:333] Camera angle: 159.9461
[11/04/2022 16:23:00:407] Camera angle: 165.0816
[11/04/2022 16:23:00:479] Camera angle: 170.161
[11/04/2022 16:23:00:551] Camera angle: 175.2427
[11/04/2022 16:23:00:625] Camera angle: 180.3742
[11/04/2022 16:23:00:696] Camera angle: 185.3997
[11/04/2022 16:23:00:768] Camera angle: 190.4221
[11/04/2022 16:23:00:841] Camera angle: 195.443
[11/04/2022 16:23:00:853] right released
[11/04/2022 16:23:02:339] left pressed
[11/04/2022 16:23:02:415] Camera angle: 190.4377
[11/04/2022 16:23:02:487] Camera angle: 185.4136
[11/04/2022 16:23:02:549] left released
[11/04/2022 16:23:02:724] left pressed
[11/04/2022 16:23:02:736] Camera angle: 180.388
[11/04/2022 16:23:02:807] Camera angle: 175.3667
[11/04/2022 16:23:02:880] Camera angle: 170.2334
[11/04/2022 16:23:02:952] Camera angle: 165.2066
[11/04/2022 16:23:03:25] Camera angle: 160.0781
[11/04/2022 16:23:03:98] Camera angle: 155.0523
[11/04/2022 16:23:03:171] Camera angle: 149.9107
[11/04/2022 16:23:03:244] Camera angle: 144.7724
[11/04/2022 16:23:03:316] Camera angle: 139.7589
[11/04/2022 16:23:03:389] Camera angle: 134.6713
[11/04/2022 16:23:03:462] Camera angle: 129.5383
[11/04/2022 16:23:03:536] Camera angle: 124.3328
[11/04/2022 16:23:03:610] Camera angle: 119.2013
[11/04/2022 16:23:03:682] Camera angle: 114.1156
[11/04/2022 16:23:03:756] Camera angle: 108.9768
[11/04/2022 16:23:03:828] Camera angle: 103.902
[11/04/2022 16:23:03:900] Camera angle: 98.87997
[11/04/2022 16:23:03:973] Camera angle: 93.79492
[11/04/2022 16:23:04:46] Camera angle: 88.65765
[11/04/2022 16:23:04:119] Camera angle: 83.57609
[11/04/2022 16:23:04:192] Camera angle: 78.44009
[11/04/2022 16:23:04:264] Camera angle: 73.41999
[11/04/2022 16:23:04:336] Camera angle: 68.39829
[11/04/2022 16:23:04:409] Camera angle: 63.25934
[11/04/2022 16:23:04:482] Camera angle: 58.1238
[11/04/2022 16:23:04:554] Camera angle: 53.09465
[11/04/2022 16:23:04:626] Camera angle: 48.07617
[11/04/2022 16:23:04:699] Camera angle: 42.94057
[11/04/2022 16:23:04:709] Video finished
[11/04/2022 16:23:04:773] Camera angle: 37.79974
[11/04/2022 16:23:04:846] Camera angle: 32.66152
[11/04/2022 16:23:04:917] Camera angle: 27.64454
[11/04/2022 16:23:04:990] Camera angle: 22.6167
[11/04/2022 16:23:05:61] Camera angle: 17.59826
[11/04/2022 16:23:05:124] left released
[11/04/2022 16:23:05:396] left pressed
[11/04/2022 16:23:05:406] Camera angle: 12.45681
[11/04/2022 16:23:05:480] Camera angle: 7.319678
[11/04/2022 16:23:05:553] Camera angle: 2.177934
[11/04/2022 16:23:05:588] left released
[11/04/2022 16:23:16:662] Escape pressed during experiment
[11/04/2022 16:23:16:663] Log creation for experiment proper...
