time,moving,angle;
0,1,0;
1,1,-6;
2,1,-11;
3,1,-17;
4,1,-22;
5,1,-28;
6,1,-33;
7,1,-39;
8,1,-44;
9,0,-44;
10,1,-44;
11,1,-49;
12,1,-54;
13,1,-60;
14,0,-60;
15,1,-60;
16,1,-54;
17,1,-49;
18,1,-44;
19,1,-28;
20,1,-17;
21,1,-7;
22,1,-1;
23,1,31;
24,1,36;
25,1,79;
26,1,111;
27,1,160;
28,1,-158;
29,1,-131;
30,1,-97;
31,1,-86;
32,1,-61;
33,1,-29;
34,1,-13;
35,1,-18;
36,1,-23;
37,1,-34;
38,1,-71;
39,1,-142;
40,1,176;
41,1,106;
42,1,69;
43,1,10;
44,1,-11;
45,1,-38;
46,1,-6;
47,1,-11;
48,1,-49;
49,1,-54;
50,1,-103;
51,1,-145;
52,1,173;
53,1,103;
54,1,39;
55,1,7;
56,1,12;
57,0,12;
58,1,7;
59,1,12;
60,1,17;
61,0,17;
62,1,17;
63,1,22;
64,0,22;
65,1,22;
66,1,33;
67,1,38;
68,1,43;
69,1,49;
70,1,75;
71,1,113;
72,1,129;
73,1,167;
74,1,172;
75,0,-145;
76,1,-145;
77,1,-139;
78,1,-96;
79,1,-80;
80,1,-80;
81,1,-36;
82,1,-15;
83,0,-10;
84,0,-10;
85,0,-10;
86,1,-10;
87,1,-15;
88,1,-21;
89,1,-26;
90,1,-31;
91,1,-36;
92,1,-41;
93,1,-46;
94,0,-46;
95,1,-46;
96,1,-41;
97,1,-35;
98,1,-30;
99,1,-25;
100,1,-19;
101,1,-14;
102,1,-9;
103,0,-9;
104,1,-9;
105,1,-15;
106,1,-20;
107,1,-25;
108,1,-31;
109,1,-36;
110,1,-41;
111,1,-46;
112,1,-51;
113,1,-57;
114,1,-62;
115,1,-68;
116,1,-73;
117,1,-78;
118,1,-84;
119,1,-89;
120,1,-94;
121,1,-94;
122,0,-30;
123,1,-3;
124,1,2;
125,1,35;
126,1,29;
127,1,24;
128,1,19;
129,1,13;
130,1,8;
131,1,3;
132,0,-14;
133,1,-14;
134,1,-19;
135,1,-25;
136,1,-30;
137,1,-35;
138,1,-41;
139,1,-46;
140,1,-51;
141,1,-56;
142,1,-84;
143,1,-63;
144,1,-20;
145,0,-9;
146,0,-9;
147,0,-9;
148,1,-9;
149,1,-4;
150,1,1;
151,1,7;
152,1,12;
153,1,18;
154,1,23;
155,1,28;
156,1,33;
157,1,39;
158,0,39;
159,1,39;
160,1,33;
161,1,27;
162,1,22;
163,1,16;
164,1,11;
165,1,6;
166,0,6;
167,0,6;
168,0,6;
169,0,6;
170,1,6;
171,1,1;
172,1,-5;
173,1,-10;
174,1,-15;
175,1,-21;
176,1,-26;
177,1,-31;
178,1,-37;
179,1,-42;
180,1,-47;
181,0,-47;
182,1,-47;
183,1,-53;
184,1,-58;
185,1,-64;
186,1,-70;
187,1,-75;
188,1,-80;
189,1,-86;
190,1,-91;
191,1,-96;
192,1,-102;
193,0,-102;
194,1,-102;
195,1,-96;
196,1,-65;
197,1,-76;
198,1,-59;
199,1,-31;
200,1,-4;
201,1,63;
202,0,101;
203,1,101;
204,1,95;
205,1,58;
206,0,4;
207,0,4;
208,0,4;
209,0,4;
210,0,4;
211,0,4;
212,0,4;
213,0,4;
214,0,4;
215,0,4;
216,0,4;
217,0,4;
218,0,4;
219,0,4;
220,0,4;
221,0,4;
222,0,4;
223,0,4;
224,0,4;
225,0,4;
226,0,4;
227,0,4;
228,0,4;
229,0,4;
230,0,4;
231,0,4;
232,0,4;
233,0,4;
234,0,4;
235,0,4;
236,1,4;
237,1,9;
238,1,14;
239,1,19;
240,1,25;
241,1,30;
242,1,35;
243,1,40;
244,1,46;
245,0,46;
246,0,46;
247,1,46;
248,1,51;
249,1,56;
250,1,62;
251,1,67;
252,1,73;
253,1,78;
254,1,84;
255,1,89;
256,1,94;
257,1,100;
258,1,105;
259,0,105;
260,1,105;
261,1,100;
262,1,95;
263,1,90;
264,1,84;
265,1,79;
266,1,73;
267,1,68;
268,1,62;
269,1,57;
270,1,57;
271,1,52;
272,1,52;
273,1,47;
274,1,41;
275,1,36;
276,1,28;
277,1,23;
278,1,18;
279,1,13;
280,1,8;
281,0,8;
282,1,8;
283,1,3;
284,1,-3;
285,1,-8;
286,1,-14;
287,1,-19;
288,1,-25;
289,1,-30;
290,1,-30;
291,1,-35;
292,1,-40;
293,1,-45;
294,0,-45;
295,1,-45;
296,1,-39;
297,1,-34;
298,1,-29;
299,1,-23;
300,1,-18;
301,1,-13;
302,1,-7;
303,0,-7;
304,0,-7;
305,0,-7;
306,0,-7;
307,0,-7;
308,0,-7;
309,0,-7;
310,0,-7;
311,0,-7;
312,0,-7;
313,0,-7;
314,0,-7;
315,1,-7;
316,1,-12;
317,1,-17;
318,1,-23;
319,1,-28;
320,1,-33;
321,1,-38;
322,1,-44;
323,1,-49;
324,0,-49;
325,1,-49;
326,1,-43;
327,1,-38;
328,1,-33;
329,1,-27;
330,1,-22;
331,1,-16;
332,1,-10;
333,1,-5;
334,0,-5;
335,0,-5;
336,1,-5;
337,1,0;
338,1,6;
339,1,11;
340,1,16;
341,1,21;
342,1,26;
343,1,31;
344,1,37;
345,1,42;
346,1,47;
347,1,53;
348,1,59;
349,1,65;
350,1,70;
351,1,76;
352,1,81;
353,1,86;
354,1,91;
355,1,96;
356,1,101;
357,1,106;
358,0,106;
359,1,106;
360,1,101;
361,1,95;
362,1,90;
363,1,85;
364,1,79;
365,0,79;
366,0,79;
367,1,79;
368,1,74;
369,1,69;
370,1,64;
371,1,59;
372,1,53;
373,1,48;
374,1,43;
375,1,37;
376,1,32;
377,1,27;
378,0,27;
379,0,27;
380,0,27;
381,0,27;
382,0,27;
383,1,27;
384,1,21;
385,1,15;
386,1,10;
387,1,5;
388,1,0;
389,1,-6;
390,1,-11;
391,0,-11;
392,1,-11;
393,1,-17;
394,1,-22;
395,0,-22;
396,1,-22;
397,1,-27;
398,0,-27;
399,1,-27;
400,1,-22;
401,1,-10;
402,0,-10;
403,0,-10;
404,0,-10;
405,0,-10;
406,0,-10;
407,0,-10;
408,0,-10;
409,0,-10;
410,0,-10;
411,0,-10;
412,0,-10;
413,0,-10;
414,0,-10;
415,0,-10;
416,0,-10;
417,0,-10;
418,0,-10;
419,0,-10;
420,0,-10;
421,0,-10;
422,0,-10;
423,1,-10;
424,1,-16;
425,1,-21;
426,1,-26;
427,1,-32;
428,1,-37;
429,1,-42;
430,1,-48;
431,1,-53;
432,1,-58;
433,1,-63;
434,1,-68;
435,1,-74;
436,1,-79;
437,1,-85;
438,1,-90;
439,1,-96;
440,1,-101;
441,1,-107;
442,0,-107;
443,1,-107;
444,1,-101;
445,1,-101;
446,1,-96;
447,1,-90;
448,1,-85;
449,1,-80;
450,1,-75;
451,1,-69;
452,1,-64;
453,1,-58;
454,1,-53;
455,1,-48;
456,1,-42;
457,1,-37;
458,1,-32;
459,1,-32;
460,1,-32;
461,1,-26;
462,1,-21;
463,1,-15;
464,0,-15;
465,0,-15;
466,0,-15;
467,0,-15;
468,0,-15;
469,0,-15;
470,0,-15;
