time,moving,angle;
0,1,0;
1,1,-6;
2,1,-11;
3,1,-16;
4,1,-21;
5,1,-36;
6,1,0;
7,1,5;
8,1,10;
9,1,55;
10,1,121;
11,1,167;
12,1,-138;
13,1,-133;
14,1,-128;
15,1,-123;
16,1,-102;
17,1,-97;
18,1,-92;
19,1,-87;
20,1,-87;
21,1,-82;
22,1,-77;
23,1,-72;
24,0,-12;
25,1,-12;
26,1,-1;
27,1,4;
28,1,9;
29,0,9;
30,1,9;
31,1,14;
32,1,19;
33,1,24;
34,1,29;
35,0,29;
36,1,29;
37,1,34;
38,1,39;
39,1,45;
40,1,50;
41,1,55;
42,1,60;
43,1,65;
44,1,70;
45,1,75;
46,1,80;
47,1,85;
48,1,90;
49,0,90;
50,1,90;
51,1,95;
52,1,100;
53,1,105;
54,1,110;
55,1,115;
56,1,121;
57,1,126;
58,1,131;
59,1,136;
60,1,141;
61,1,146;
62,0,146;
63,1,146;
64,1,151;
65,1,156;
66,1,161;
67,1,166;
68,1,171;
69,1,176;
70,1,-179;
71,1,-174;
72,1,-169;
73,1,-164;
74,1,-159;
75,1,-133;
76,1,-128;
77,1,-123;
78,1,-62;
79,1,-52;
80,1,-16;
81,1,4;
82,0,4;
83,1,4;
84,0,4;
85,0,4;
86,0,4;
87,1,4;
88,1,-1;
89,1,-6;
90,1,-11;
91,1,-16;
92,1,-21;
93,1,-26;
94,1,-31;
95,1,-37;
96,1,-42;
97,0,-42;
98,1,-42;
99,1,-47;
100,1,-52;
101,1,-57;
102,1,-67;
103,0,-87;
104,0,-87;
105,0,-87;
106,1,-87;
107,1,-82;
108,1,-77;
109,1,-72;
110,1,-67;
111,1,-62;
112,1,-57;
113,1,-52;
114,1,-47;
115,1,-42;
116,1,-37;
117,1,-31;
118,1,-26;
119,1,-21;
120,1,-16;
121,1,-11;
122,1,-6;
123,1,19;
124,0,85;
125,0,90;
126,0,90;
127,0,90;
128,1,90;
129,1,95;
130,1,100;
131,1,105;
132,1,110;
133,1,115;
134,1,120;
135,1,125;
136,1,131;
137,1,136;
138,1,141;
139,1,146;
140,1,151;
141,0,151;
142,0,151;
143,0,151;
144,0,151;
145,0,151;
146,0,151;
147,1,151;
148,1,156;
149,1,161;
150,1,166;
151,1,171;
152,1,176;
153,1,-179;
154,1,-174;
155,1,-169;
156,1,-163;
157,1,-158;
158,1,-153;
159,1,-148;
160,0,-148;
161,1,-148;
162,1,-153;
163,1,-158;
164,1,-163;
165,1,-168;
166,1,-173;
167,1,161;
168,0,161;
169,0,161;
170,0,161;
171,0,161;
172,0,161;
173,0,161;
174,0,161;
175,0,161;
176,1,161;
177,1,166;
178,1,171;
179,1,176;
180,1,-179;
181,1,-174;
182,1,-168;
183,1,-163;
184,1,-158;
185,1,-153;
186,0,-153;
187,1,-153;
188,1,-148;
189,0,-148;
190,0,-148;
191,0,-148;
192,0,-148;
193,0,-148;
194,0,-148;
195,0,-148;
196,0,-148;
197,0,-148;
198,0,-148;
199,0,-148;
200,0,-148;
201,0,-148;
202,0,-148;
203,0,-148;
204,0,-148;
205,0,-148;
206,0,-148;
207,0,-148;
208,0,-148;
209,0,-148;
210,0,-148;
211,0,-148;
212,0,-148;
213,0,-148;
214,0,-148;
215,0,-148;
216,0,-148;
217,0,-148;
218,0,-148;
219,0,-148;
220,1,-148;
221,1,-153;
222,1,-158;
223,1,-163;
224,1,-168;
225,1,-174;
226,1,-179;
227,1,176;
228,1,171;
229,1,166;
230,1,161;
231,1,156;
232,1,151;
233,1,146;
234,1,141;
235,1,136;
236,1,131;
237,1,126;
238,1,121;
239,1,116;
240,1,111;
241,1,106;
242,1,101;
243,1,96;
244,0,96;
245,0,96;
246,0,96;
247,0,96;
248,0,96;
249,0,96;
250,0,96;
251,1,96;
252,1,101;
253,1,106;
254,1,111;
255,1,116;
256,1,121;
257,1,126;
258,1,131;
259,1,136;
260,1,141;
261,1,146;
262,1,151;
263,1,156;
264,1,161;
265,1,167;
266,1,172;
267,1,177;
268,1,-178;
269,1,-173;
270,1,-168;
271,1,-163;
272,1,-158;
273,1,-153;
274,1,-128;
275,1,-98;
276,1,-42;
277,1,-11;
278,0,30;
279,1,35;
280,0,35;
281,0,35;
282,0,35;
283,0,35;
284,0,35;
285,0,35;
286,0,35;
287,0,35;
288,0,35;
289,0,35;
290,0,35;
291,0,35;
292,0,35;
293,0,35;
294,0,35;
295,0,35;
296,0,35;
297,0,35;
298,0,35;
299,0,35;
300,0,35;
301,0,35;
302,0,35;
303,0,35;
304,1,35;
305,1,40;
306,1,45;
307,1,50;
308,1,55;
309,1,60;
310,1,65;
311,1,70;
312,1,76;
313,1,76;
314,1,81;
315,1,86;
316,1,91;
317,1,96;
318,1,101;
319,1,106;
320,0,106;
321,1,106;
322,1,111;
323,1,116;
324,0,116;
325,1,116;
326,1,121;
327,0,121;
328,0,121;
329,0,121;
330,0,121;
331,0,121;
332,0,121;
333,0,121;
334,0,121;
335,0,121;
336,0,121;
337,0,121;
