time,moving,angle;
0,1,0;
1,1,-6;
2,1,-11;
3,1,-16;
4,1,-21;
5,1,-26;
6,1,-31;
7,1,-36;
8,1,-41;
9,1,-57;
10,1,-62;
11,1,-97;
12,1,-123;
13,1,-169;
14,1,156;
15,1,85;
16,1,13;
17,0,44;
18,1,-2;
19,1,-7;
20,1,-63;
21,1,-113;
22,1,-169;
23,1,134;
24,1,89;
25,1,73;
26,1,33;
27,1,12;
28,1,-28;
29,1,-44;
30,0,-59;
31,1,-79;
32,1,-114;
33,1,-139;
34,1,-165;
35,1,-170;
36,1,149;
37,1,124;
38,1,62;
39,1,12;
40,1,2;
41,1,7;
42,1,7;
43,1,-14;
44,1,-49;
45,1,-14;
46,1,-3;
47,1,-8;
48,1,-34;
49,1,-101;
50,1,-172;
51,1,117;
52,1,50;
53,1,-21;
54,1,-77;
55,1,-123;
56,1,-148;
57,1,166;
58,1,100;
59,1,29;
60,1,8;
61,1,-2;
62,1,3;
63,1,9;
64,1,14;
65,1,44;
66,1,54;
67,1,59;
68,1,64;
69,1,80;
70,1,105;
71,1,115;
72,1,161;
73,1,177;
74,1,-138;
75,1,-112;
76,1,-107;
77,1,-102;
78,1,-87;
79,1,-71;
80,1,-51;
81,1,-31;
82,1,-5;
83,1,5;
84,1,5;
85,1,0;
86,1,-10;
87,1,-46;
88,1,-10;
89,1,0;
90,1,-5;
91,1,-10;
92,1,-15;
93,1,-20;
94,1,-25;
95,1,-30;
96,1,-35;
97,1,-40;
98,1,-46;
99,1,-51;
100,1,-86;
101,1,-157;
102,0,-157;
103,0,-157;
104,1,-101;
105,0,-45;
106,1,-45;
107,1,-40;
108,1,-35;
109,0,-4;
110,1,1;
111,1,-4;
112,1,-9;
113,1,-14;
114,1,-24;
115,1,-75;
116,1,-136;
117,1,-146;
118,1,142;
119,1,71;
120,1,10;
121,1,0;
122,1,5;
123,1,10;
124,1,45;
125,1,50;
126,1,45;
127,1,40;
128,1,35;
129,1,30;
130,0,5;
131,0,5;
132,0,5;
133,0,5;
134,0,5;
135,0,5;
136,0,5;
137,0,5;
138,0,5;
139,0,5;
140,0,5;
141,0,5;
142,0,5;
143,0,5;
144,0,5;
145,0,5;
146,0,5;
147,0,5;
148,0,5;
149,1,5;
150,1,0;
151,0,0;
152,1,0;
153,1,5;
154,0,5;
155,1,5;
156,1,10;
157,1,15;
158,1,20;
159,1,25;
160,1,31;
161,1,36;
162,0,36;
163,0,36;
164,0,36;
165,0,36;
166,1,36;
167,1,31;
168,1,25;
169,1,20;
170,1,15;
171,1,10;
172,1,5;
173,1,0;
174,0,0;
175,1,0;
176,1,-5;
177,1,-10;
178,1,-16;
179,1,-21;
180,1,-26;
181,1,-31;
182,1,-36;
183,1,-41;
184,1,-46;
185,1,-51;
186,1,-51;
187,1,-51;
188,1,-56;
189,1,-61;
190,1,-67;
191,1,-72;
192,1,-77;
193,1,-82;
194,1,-87;
195,1,-92;
196,1,-97;
197,1,-102;
198,1,-107;
199,0,-107;
200,0,-107;
201,1,-107;
202,1,-112;
203,1,-117;
204,1,-122;
205,0,-122;
206,1,-122;
207,1,-127;
208,1,-133;
209,1,-138;
210,1,-143;
211,1,-148;
212,1,-153;
213,1,-158;
214,0,-158;
215,1,-158;
216,1,-163;
217,0,-163;
218,1,-163;
219,1,-168;
220,1,-173;
221,1,-178;
222,1,177;
223,1,171;
224,1,166;
225,1,161;
226,1,156;
227,1,151;
228,1,146;
229,1,74;
230,1,18;
231,1,3;
232,1,-12;
233,1,-63;
234,1,-99;
235,1,-28;
236,1,-2;
237,1,3;
238,1,8;
239,1,33;
240,1,99;
241,1,115;
242,1,48;
243,0,18;
244,1,18;
245,1,13;
246,1,8;
247,1,2;
248,1,-43;
249,1,-48;
250,1,-53;
251,1,-58;
252,1,-114;
253,1,-180;
254,1,108;
255,0,98;
256,0,98;
257,0,98;
258,0,98;
259,0,98;
260,0,98;
261,0,98;
262,0,98;
263,0,98;
264,0,98;
265,0,98;
266,0,98;
267,0,98;
268,0,98;
269,0,98;
270,1,98;
271,1,93;
272,1,88;
273,1,83;
274,1,78;
275,1,72;
276,1,67;
277,1,62;
278,1,57;
279,1,52;
280,1,47;
281,1,42;
282,1,37;
283,1,32;
284,1,27;
285,1,22;
286,0,22;
287,1,22;
288,1,17;
289,1,12;
290,1,6;
291,1,1;
292,1,-4;
293,1,-9;
294,1,-14;
295,1,-19;
296,1,-24;
297,1,-29;
298,1,-34;
299,1,-39;
300,1,-44;
301,1,-49;
302,1,-80;
303,0,-110;
304,0,-110;
305,0,-110;
306,0,-110;
307,1,-110;
308,1,-115;
309,1,-120;
310,1,-126;
311,1,-131;
312,1,-136;
313,1,-141;
314,1,-146;
315,1,-151;
316,1,-156;
317,1,-161;
318,0,-161;
319,1,-161;
320,1,-167;
321,1,178;
322,1,127;
323,1,56;
324,1,-15;
325,1,-30;
326,1,-25;
327,1,-4;
328,1,62;
329,1,97;
330,1,149;
331,1,164;
332,1,-140;
333,1,-94;
334,1,-79;
335,0,-69;
336,0,-69;
337,0,-69;
338,1,-69;
339,1,-64;
340,1,-58;
341,1,-53;
342,1,-48;
343,0,-7;
344,0,3;
345,1,3;
346,1,-2;
347,0,-2;
348,0,-2;
349,1,-2;
350,1,-7;
351,1,-13;
352,0,-13;
353,1,-68;
354,1,-140;
355,1,179;
356,1,108;
357,1,52;
358,0,16;
359,1,16;
360,1,11;
361,1,6;
362,1,-14;
363,1,-19;
364,1,-24;
365,0,-44;
366,1,-80;
367,1,-125;
368,1,-171;
369,1,-176;
370,1,179;
371,1,153;
372,1,82;
373,1,11;
374,0,11;
375,1,11;
376,1,16;
377,1,21;
378,1,72;
379,1,143;
380,1,-146;
381,0,-90;
382,1,-90;
383,1,-34;
384,1,-9;
385,0,-9;
386,0,-9;
387,1,-9;
388,1,-3;
389,1,2;
390,0,2;
391,1,2;
392,1,7;
393,1,12;
394,1,17;
395,1,88;
396,1,159;
397,1,-135;
398,1,-64;
399,1,-28;
400,1,-13;
401,1,-3;
402,1,3;
403,1,28;
404,1,28;
405,1,-17;
406,1,-2;
407,0,8;
408,0,8;
409,0,8;
410,0,8;
411,0,8;
