time,moving,angle;
0,1,0;
1,1,5;
2,0,5;
3,1,22;
4,1,49;
5,1,70;
6,0,96;
7,1,123;
8,1,160;
9,1,-179;
10,1,-146;
11,1,-125;
12,0,-98;
13,1,-76;
14,0,-49;
15,1,-22;
16,1,-17;
17,1,-12;
18,1,5;
19,1,36;
20,1,65;
21,1,97;
22,1,97;
23,1,103;
24,1,114;
25,1,136;
26,1,158;
27,1,178;
28,1,-155;
29,0,-119;
30,1,-92;
31,1,-65;
32,1,-38;
33,1,-27;
34,1,-16;
35,1,-5;
36,1,0;
37,1,6;
38,0,6;
39,1,6;
40,1,11;
41,0,11;
42,1,11;
43,1,16;
44,0,16;
45,1,16;
46,1,22;
47,1,27;
48,0,27;
49,1,27;
50,1,33;
51,0,33;
52,1,33;
53,1,38;
54,0,38;
55,1,38;
56,1,44;
57,1,49;
58,0,49;
59,1,49;
60,1,54;
61,0,54;
62,1,54;
63,1,59;
64,0,59;
65,1,59;
66,1,65;
67,0,65;
68,1,65;
69,1,70;
70,0,70;
71,1,70;
72,1,86;
73,1,118;
74,0,154;
75,0,171;
76,0,-152;
77,1,-146;
78,1,-119;
79,1,-92;
80,1,-87;
81,1,-66;
82,1,-39;
83,1,-23;
84,0,-12;
85,0,-12;
86,0,-12;
87,0,-12;
88,0,-12;
89,0,-12;
90,0,-12;
91,0,-12;
92,0,-12;
93,0,-12;
94,0,-12;
95,0,-12;
96,0,-12;
97,0,-12;
98,0,-12;
99,0,-12;
100,0,-12;
101,0,-12;
102,0,-12;
103,0,-12;
104,0,-12;
105,0,-12;
106,0,-12;
107,0,-12;
108,0,-12;
109,0,-12;
110,0,-12;
111,0,-12;
112,0,-12;
113,1,-12;
114,1,-6;
115,0,-6;
116,1,-6;
117,1,-1;
118,0,-1;
119,1,-1;
120,1,5;
121,0,5;
122,1,5;
123,1,11;
124,0,11;
125,1,11;
126,1,16;
127,0,16;
128,1,16;
129,1,21;
130,0,21;
131,1,21;
132,1,27;
133,0,27;
134,1,27;
135,1,33;
136,0,33;
137,1,33;
138,1,38;
139,0,38;
140,1,38;
141,1,44;
142,0,44;
143,1,44;
144,1,50;
145,0,50;
146,1,50;
147,0,50;
148,1,50;
149,1,55;
150,0,55;
151,1,55;
152,1,60;
153,1,65;
154,0,65;
155,1,65;
156,1,70;
157,0,70;
158,1,70;
159,1,76;
160,0,76;
161,1,76;
162,0,76;
163,1,76;
164,1,81;
165,0,81;
166,1,81;
167,1,87;
168,0,87;
169,1,87;
170,0,87;
171,1,87;
172,1,81;
173,0,81;
174,1,81;
175,0,81;
176,1,81;
177,1,76;
178,0,76;
179,1,76;
180,1,71;
181,0,71;
182,1,71;
183,1,66;
184,0,66;
185,1,66;
186,1,61;
187,0,61;
188,1,61;
189,1,55;
190,0,55;
191,1,55;
192,0,55;
193,1,55;
194,1,50;
195,0,50;
196,1,50;
197,1,45;
198,0,45;
199,1,45;
200,1,39;
201,0,39;
202,1,39;
203,1,34;
204,0,34;
205,1,34;
206,1,29;
207,0,29;
208,1,29;
209,1,24;
210,0,24;
211,1,24;
212,1,18;
213,0,18;
214,1,18;
215,1,2;
216,0,2;
217,0,2;
218,0,2;
219,0,2;
220,0,2;
221,0,2;
222,0,2;
223,0,2;
224,0,2;
225,0,2;
226,0,2;
227,0,2;
228,0,2;
229,0,2;
230,0,2;
231,0,2;
232,0,2;
233,0,2;
234,0,2;
235,0,2;
236,0,2;
237,0,2;
238,0,2;
239,0,2;
240,0,2;
241,0,2;
242,0,2;
243,1,2;
244,1,8;
245,0,8;
246,1,8;
247,1,13;
248,1,19;
249,1,25;
250,1,30;
251,1,36;
252,1,41;
253,1,46;
254,1,51;
255,1,56;
256,0,56;
257,1,56;
258,1,61;
259,1,66;
260,1,72;
261,1,77;
262,1,82;
263,1,87;
264,1,93;
265,1,98;
266,0,98;
267,1,98;
268,1,103;
269,1,109;
270,1,114;
271,1,119;
272,1,124;
273,1,129;
274,1,135;
275,1,140;
276,1,145;
277,1,151;
278,0,151;
279,1,151;
280,1,156;
281,1,161;
282,1,167;
283,1,172;
284,1,178;
285,1,-177;
286,0,-177;
287,1,-177;
288,1,-172;
289,0,-172;
290,1,-172;
291,1,-166;
292,0,-166;
293,1,-166;
294,1,-160;
295,1,-155;
296,0,-155;
297,0,-155;
298,0,-155;
299,0,-155;
300,0,-155;
301,0,-155;
302,0,-155;
303,0,-155;
304,0,-155;
305,0,-155;
306,0,-155;
