time,moving,angle;
0,1,0;
1,1,-11;
2,1,-17;
3,0,-22;
4,1,-46;
5,1,-81;
6,0,-105;
7,0,-82;
8,1,-60;
9,1,7;
10,1,17;
11,0,48;
12,1,72;
13,1,72;
14,1,103;
15,0,137;
16,0,165;
17,1,-156;
18,1,-132;
19,1,-126;
20,1,-102;
21,1,-79;
22,1,-46;
23,1,-20;
24,1,5;
25,1,11;
26,0,11;
27,1,11;
28,1,17;
29,0,17;
30,1,17;
31,1,40;
32,1,40;
33,1,53;
34,0,53;
35,1,53;
36,1,77;
37,1,77;
38,1,82;
39,1,92;
40,0,130;
41,1,130;
42,0,99;
43,1,99;
44,1,46;
45,1,-21;
46,1,-87;
47,1,-87;
48,0,-111;
49,1,-141;
50,1,-157;
51,1,-151;
52,1,-127;
53,1,-122;
54,1,-122;
55,1,-63;
56,1,-39;
57,1,-2;
58,1,40;
59,1,58;
60,1,89;
61,1,123;
62,1,123;
63,0,165;
64,0,174;
65,1,174;
66,1,-162;
67,0,123;
68,0,57;
69,1,18;
70,1,41;
71,1,60;
72,1,101;
73,1,140;
74,0,140;
75,1,-162;
76,1,-112;
77,1,-58;
78,1,-48;
79,1,-48;
80,1,-20;
81,1,-20;
82,1,19;
83,1,-3;
84,1,-27;
85,1,-50;
86,1,-42;
87,1,-34;
88,1,-9;
89,1,14;
90,1,37;
91,1,37;
92,1,21;
93,1,21;
94,1,21;
95,1,21;
96,1,14;
97,1,-1;
98,1,-9;
99,1,-16;
100,1,-24;
101,1,-32;
102,1,-40;
103,1,-50;
104,1,-55;
105,1,-61;
106,1,-68;
107,1,-75;
108,1,-81;
109,1,-88;
110,1,-95;
111,1,-108;
112,1,-116;
113,0,-116;
114,1,-116;
115,1,-109;
116,1,-103;
117,1,-103;
118,1,-82;
119,1,-46;
120,1,-36;
121,1,-31;
122,1,-25;
123,1,-19;
124,1,16;
125,1,16;
126,1,40;
127,1,49;
128,1,49;
129,1,100;
130,1,100;
131,1,93;
132,1,93;
133,1,85;
134,1,77;
135,1,67;
136,1,57;
137,0,57;
138,0,57;
139,0,57;
140,0,57;
141,0,57;
142,0,57;
143,0,57;
144,0,57;
145,0,57;
146,0,57;
147,0,57;
148,0,57;
149,0,57;
150,0,57;
151,0,57;
152,0,57;
153,0,57;
154,0,57;
155,0,57;
156,0,57;
157,0,57;
158,0,57;
159,1,57;
160,1,34;
161,1,34;
162,1,24;
163,1,19;
164,1,14;
165,1,-9;
166,1,-16;
167,0,-16;
168,0,-16;
169,0,-16;
170,0,-16;
171,1,-16;
172,1,-40;
173,1,-46;
174,1,-51;
175,1,-56;
176,1,-63;
177,1,-75;
178,1,-82;
179,1,-90;
180,1,-98;
181,1,-107;
182,1,-117;
183,1,-123;
184,0,-123;
185,1,-123;
186,1,-132;
187,1,-139;
188,1,-147;
189,1,-159;
190,0,-159;
191,1,-159;
192,1,-152;
193,0,-152;
194,0,-152;
195,0,-152;
196,0,-152;
197,0,-152;
198,0,-152;
199,0,-152;
200,0,-152;
201,0,-152;
202,0,-152;
203,0,-152;
204,0,-152;
205,0,-152;
206,0,-152;
207,0,-152;
208,0,-152;
209,0,-152;
210,0,-152;
211,0,-152;
212,0,-152;
213,0,-152;
214,0,-152;
215,0,-152;
216,0,-152;
217,0,-152;
218,0,-152;
219,0,-152;
220,1,-152;
221,1,-158;
222,1,-163;
223,1,-168;
224,1,-173;
225,1,-178;
226,1,177;
227,1,172;
228,1,167;
229,1,161;
230,1,156;
231,1,151;
232,1,146;
233,1,141;
234,1,136;
235,1,131;
236,1,126;
237,1,121;
238,1,116;
239,1,111;
240,1,105;
241,1,100;
242,1,95;
243,1,90;
244,1,85;
245,1,80;
246,1,75;
247,1,70;
248,1,65;
249,0,65;
250,1,65;
251,1,59;
252,1,54;
253,1,49;
254,1,44;
255,1,39;
256,1,33;
257,1,28;
258,1,23;
259,1,18;
260,1,13;
261,1,8;
262,1,3;
263,1,-2;
264,1,-7;
265,1,-13;
266,1,-18;
267,1,-23;
268,1,-28;
269,1,-33;
270,1,-38;
271,1,-43;
272,1,-48;
273,1,-53;
274,1,-58;
275,1,-63;
276,1,-69;
277,1,-74;
278,1,-79;
279,1,-84;
280,1,-89;
281,1,-95;
282,1,-100;
283,1,-105;
284,1,-110;
285,1,-115;
286,1,-120;
287,1,-125;
288,1,-130;
289,1,-135;
290,1,-140;
291,1,-145;
292,0,-145;
293,1,-145;
294,1,-140;
295,1,-135;
296,1,-130;
297,1,-125;
298,1,-120;
299,1,-115;
300,1,-110;
301,1,-105;
302,1,-100;
303,1,-95;
304,1,-90;
305,1,-85;
306,1,-79;
307,1,-74;
308,1,-69;
309,1,-64;
310,1,-59;
311,1,-54;
312,1,-49;
313,1,-43;
314,1,-38;
315,1,-33;
316,1,-28;
317,1,-23;
318,1,-18;
319,1,-13;
320,1,-7;
321,1,-2;
322,1,3;
323,1,8;
324,1,13;
325,1,18;
326,1,23;
327,1,28;
328,1,33;
329,0,33;
330,1,33;
331,1,28;
332,1,23;
333,1,18;
334,1,13;
335,1,8;
336,1,3;
337,1,-2;
338,1,-7;
339,1,-12;
340,1,-17;
341,1,-23;
342,1,-28;
343,1,-33;
344,1,-38;
345,1,-43;
346,1,-43;
347,1,-43;
348,1,-48;
349,1,-53;
350,1,-58;
351,1,-63;
352,1,-68;
353,1,-73;
354,1,-78;
355,1,-83;
356,1,-88;
357,1,-93;
358,1,-98;
359,1,-104;
360,1,-109;
361,0,-109;
362,0,-109;
363,1,-109;
364,0,-109;
365,1,-109;
366,1,-104;
367,0,-104;
368,1,-104;
369,1,-109;
370,1,-114;
371,1,-119;
372,1,-124;
373,1,-130;
374,1,-135;
375,1,-140;
376,0,-140;
377,1,-140;
378,1,-145;
379,1,-150;
380,1,-155;
381,1,-160;
382,1,-165;
383,1,-170;
384,1,-175;
385,1,-180;
386,1,175;
387,1,170;
388,1,165;
389,1,160;
390,1,155;
391,0,155;
392,0,155;
393,0,155;
394,0,155;
395,1,155;
396,1,160;
397,1,165;
398,1,170;
399,1,175;
400,1,-180;
401,1,-175;
402,1,-170;
403,1,-165;
404,1,-160;
405,1,-154;
406,1,-149;
407,1,-144;
408,1,-139;
409,1,-134;
410,1,-129;
411,1,-124;
412,1,-119;
413,1,-114;
414,1,-63;
415,1,-17;
416,0,-7;
417,0,-7;
418,0,-7;
