[10/05/2022 17:06:05:836] Participant ID: 51
[10/05/2022 17:06:05:836] Session: Actual
[10/05/2022 17:06:05:836] Scene: Scene 1
[10/05/2022 17:06:05:836] Audio: Spatial
[10/05/2022 17:06:05:836] Loading video from file: C:/Users/Administrator/Downloads/build_vulkan/build_vulkan/Videos/Scene1.mp4
[10/05/2022 17:06:05:837] Got SAGAT times: 217s and 317s
[10/05/2022 17:06:05:837] RightAnswerTask: Ready
[10/05/2022 17:06:14:419] right pressed
[10/05/2022 17:06:14:485] Camera angle: 5.090386
[10/05/2022 17:06:14:526] right released
[10/05/2022 17:06:14:722] right pressed
[10/05/2022 17:06:14:756] Camera angle: 10.1191
[10/05/2022 17:06:14:830] Camera angle: 15.27939
[10/05/2022 17:06:14:847] right released
[10/05/2022 17:06:15:25] right pressed
[10/05/2022 17:06:15:91] Camera angle: 20.42981
[10/05/2022 17:06:15:166] right released
[10/05/2022 17:06:15:415] right pressed
[10/05/2022 17:06:15:415] Camera angle: 26.3862
[10/05/2022 17:06:15:494] Camera angle: 31.94137
[10/05/2022 17:06:15:576] Camera angle: 37.70792
[10/05/2022 17:06:15:583] right released
[10/05/2022 17:06:21:93] right pressed
[10/05/2022 17:06:21:158] Camera angle: 42.85791
[10/05/2022 17:06:21:231] right released
[10/05/2022 17:06:21:430] right pressed
[10/05/2022 17:06:21:430] Camera angle: 48.03274
[10/05/2022 17:06:21:503] Camera angle: 53.1435
[10/05/2022 17:06:21:562] right released
[10/05/2022 17:06:21:885] right pressed
[10/05/2022 17:06:21:894] Camera angle: 58.50263
[10/05/2022 17:06:21:967] Camera angle: 63.63996
[10/05/2022 17:06:22:51] right released
[10/05/2022 17:06:22:330] right pressed
[10/05/2022 17:06:22:330] Camera angle: 68.87561
[10/05/2022 17:06:22:403] Camera angle: 73.97611
[10/05/2022 17:06:22:453] right released
[10/05/2022 17:06:22:618] right pressed
[10/05/2022 17:06:22:652] Camera angle: 79.81921
[10/05/2022 17:06:22:726] right released
[10/05/2022 17:06:22:885] right pressed
[10/05/2022 17:06:22:885] Camera angle: 85.8086
[10/05/2022 17:06:22:957] Camera angle: 90.85828
[10/05/2022 17:06:22:997] right released
[10/05/2022 17:06:23:366] right pressed
[10/05/2022 17:06:23:400] Camera angle: 96.03603
[10/05/2022 17:06:23:484] Camera angle: 101.9037
[10/05/2022 17:06:23:493] right released
[10/05/2022 17:06:23:852] right pressed
[10/05/2022 17:06:23:918] Camera angle: 107.714
[10/05/2022 17:06:23:993] right released
[10/05/2022 17:06:24:157] right pressed
[10/05/2022 17:06:24:157] Camera angle: 113.592
[10/05/2022 17:06:24:229] right released
[10/05/2022 17:06:24:385] right pressed
[10/05/2022 17:06:24:386] Camera angle: 119.3479
[10/05/2022 17:06:24:460] Camera angle: 124.563
[10/05/2022 17:06:24:485] right released
[10/05/2022 17:06:24:659] right pressed
[10/05/2022 17:06:24:707] Camera angle: 129.7527
[10/05/2022 17:06:24:772] right released
[10/05/2022 17:06:24:962] right pressed
[10/05/2022 17:06:24:969] Camera angle: 134.7887
[10/05/2022 17:06:25:51] right released
[10/05/2022 17:06:25:258] right pressed
[10/05/2022 17:06:25:258] Camera angle: 140.5583
[10/05/2022 17:06:25:323] right released
[10/05/2022 17:06:25:502] right pressed
[10/05/2022 17:06:25:519] Camera angle: 145.7222
[10/05/2022 17:06:25:595] Camera angle: 150.9819
[10/05/2022 17:06:25:619] right released
[10/05/2022 17:06:25:767] right pressed
[10/05/2022 17:06:25:823] Camera angle: 156.024
[10/05/2022 17:06:25:888] right released
[10/05/2022 17:06:26:553] right pressed
[10/05/2022 17:06:26:569] Camera angle: 161.113
[10/05/2022 17:06:26:651] right released
[10/05/2022 17:06:26:797] right pressed
[10/05/2022 17:06:26:797] Camera angle: 166.8587
[10/05/2022 17:06:26:878] Camera angle: 172.5314
[10/05/2022 17:06:26:919] right released
[10/05/2022 17:06:27:48] right pressed
[10/05/2022 17:06:27:89] Camera angle: 177.5867
[10/05/2022 17:06:27:155] right released
[10/05/2022 17:06:27:277] right pressed
[10/05/2022 17:06:27:302] Camera angle: 183.2694
[10/05/2022 17:06:27:368] right released
[10/05/2022 17:06:27:512] right pressed
[10/05/2022 17:06:27:520] Camera angle: 188.5002
[10/05/2022 17:06:27:575] right released
[10/05/2022 17:06:27:702] right pressed
[10/05/2022 17:06:27:726] Camera angle: 193.9007
[10/05/2022 17:06:27:805] right released
[10/05/2022 17:06:27:939] right pressed
[10/05/2022 17:06:27:939] Camera angle: 199.3899
[10/05/2022 17:06:28:11] Camera angle: 204.4002
[10/05/2022 17:06:28:51] right released
[10/05/2022 17:06:28:215] right pressed
[10/05/2022 17:06:28:238] Camera angle: 209.5911
[10/05/2022 17:06:28:314] Camera angle: 214.8817
[10/05/2022 17:06:28:322] right released
[10/05/2022 17:06:28:828] right pressed
[10/05/2022 17:06:28:898] Camera angle: 220.2777
[10/05/2022 17:06:28:915] right released
[10/05/2022 17:06:29:68] right pressed
[10/05/2022 17:06:29:128] Camera angle: 225.5526
[10/05/2022 17:06:29:160] right released
[10/05/2022 17:06:29:296] right pressed
[10/05/2022 17:06:29:343] Camera angle: 230.9637
[10/05/2022 17:06:29:388] right released
[10/05/2022 17:06:29:534] right pressed
[10/05/2022 17:06:29:565] Camera angle: 236.2378
[10/05/2022 17:06:29:588] right released
[10/05/2022 17:06:29:726] right pressed
[10/05/2022 17:06:29:777] Camera angle: 241.4488
[10/05/2022 17:06:29:809] right released
[10/05/2022 17:06:29:932] right pressed
[10/05/2022 17:06:29:972] Camera angle: 246.4888
[10/05/2022 17:06:29:997] right released
[10/05/2022 17:06:30:643] right pressed
[10/05/2022 17:06:30:693] Camera angle: 251.7684
[10/05/2022 17:06:30:726] right released
[10/05/2022 17:06:30:866] right pressed
[10/05/2022 17:06:30:926] Camera angle: 257.5959
[10/05/2022 17:06:30:959] right released
[10/05/2022 17:06:31:93] right pressed
[10/05/2022 17:06:31:133] Camera angle: 262.7663
[10/05/2022 17:06:31:166] right released
[10/05/2022 17:06:31:292] right pressed
[10/05/2022 17:06:31:325] Camera angle: 268.0701
[10/05/2022 17:06:31:375] right released
[10/05/2022 17:06:31:831] right pressed
[10/05/2022 17:06:31:846] Camera angle: 273.2363
[10/05/2022 17:06:31:931] right released
[10/05/2022 17:06:32:39] right pressed
[10/05/2022 17:06:32:39] Camera angle: 278.5244
[10/05/2022 17:06:32:113] right released
[10/05/2022 17:06:32:231] right pressed
[10/05/2022 17:06:32:231] Camera angle: 284.398
[10/05/2022 17:06:32:297] right released
[10/05/2022 17:06:32:407] right pressed
[10/05/2022 17:06:32:429] Camera angle: 290.1107
[10/05/2022 17:06:32:463] right released
[10/05/2022 17:06:32:571] right pressed
[10/05/2022 17:06:32:628] Camera angle: 295.8312
[10/05/2022 17:06:32:661] right released
[10/05/2022 17:06:32:882] right pressed
[10/05/2022 17:06:32:932] Camera angle: 300.9161
[10/05/2022 17:06:32:965] right released
[10/05/2022 17:06:33:92] right pressed
[10/05/2022 17:06:33:130] Camera angle: 306.0433
[10/05/2022 17:06:33:146] right released
[10/05/2022 17:06:33:263] right pressed
[10/05/2022 17:06:33:312] right released
[10/05/2022 17:06:33:405] right pressed
[10/05/2022 17:06:33:406] Camera angle: 311.4296
[10/05/2022 17:06:33:479] right released
[10/05/2022 17:06:34:48] right pressed
[10/05/2022 17:06:34:48] Camera angle: 316.6918
[10/05/2022 17:06:34:130] Camera angle: 322.5228
[10/05/2022 17:06:34:139] right released
[10/05/2022 17:06:34:704] right pressed
[10/05/2022 17:06:34:768] Camera angle: 327.6297
[10/05/2022 17:06:34:840] Camera angle: 332.7265
[10/05/2022 17:06:34:866] right released
[10/05/2022 17:06:35:541] right pressed
[10/05/2022 17:06:35:589] Camera angle: 337.7812
[10/05/2022 17:06:35:662] right released
[10/05/2022 17:06:44:175] right pressed
[10/05/2022 17:06:44:175] Camera angle: 343.6853
[10/05/2022 17:06:44:250] Camera angle: 348.9293
[10/05/2022 17:06:44:323] right released
[10/05/2022 17:07:11:551] right pressed
[10/05/2022 17:07:11:552] Camera angle: 354.1546
[10/05/2022 17:07:11:634] Camera angle: 359.9443
[10/05/2022 17:07:11:699] right released
[10/05/2022 17:07:11:880] right pressed
[10/05/2022 17:07:11:905] Camera angle: 5.630913
[10/05/2022 17:07:11:946] right released
[10/05/2022 17:07:12:102] right pressed
[10/05/2022 17:07:12:134] Camera angle: 11.32753
[10/05/2022 17:07:12:182] right released
[10/05/2022 17:07:12:379] right pressed
[10/05/2022 17:07:12:379] Camera angle: 18.13516
[10/05/2022 17:07:12:418] right released
[10/05/2022 17:07:12:566] right pressed
[10/05/2022 17:07:12:607] Camera angle: 23.67283
[10/05/2022 17:07:12:640] right released
[10/05/2022 17:07:12:773] right pressed
[10/05/2022 17:07:12:813] Camera angle: 28.81496
[10/05/2022 17:07:12:854] right released
[10/05/2022 17:07:13:17] right pressed
[10/05/2022 17:07:13:50] Camera angle: 33.96776
[10/05/2022 17:07:13:132] Camera angle: 39.73571
[10/05/2022 17:07:13:140] right released
[10/05/2022 17:07:16:274] right pressed
[10/05/2022 17:07:16:343] Camera angle: 45.11906
[10/05/2022 17:07:16:416] Camera angle: 50.14461
[10/05/2022 17:07:16:439] right released
[10/05/2022 17:07:16:554] right pressed
[10/05/2022 17:07:16:603] Camera angle: 55.24376
[10/05/2022 17:07:16:641] right released
[10/05/2022 17:07:16:751] right pressed
[10/05/2022 17:07:16:788] Camera angle: 60.70724
[10/05/2022 17:07:16:827] right released
[10/05/2022 17:07:16:949] right pressed
[10/05/2022 17:07:16:988] Camera angle: 66.14021
[10/05/2022 17:07:17:17] right released
[10/05/2022 17:07:17:146] right pressed
[10/05/2022 17:07:17:193] Camera angle: 71.50282
[10/05/2022 17:07:17:216] right released
[10/05/2022 17:07:17:346] right pressed
[10/05/2022 17:07:17:398] Camera angle: 76.7354
[10/05/2022 17:07:17:405] right released
[10/05/2022 17:07:17:544] right pressed
[10/05/2022 17:07:17:605] right released
[10/05/2022 17:07:17:734] right pressed
[10/05/2022 17:07:17:740] Camera angle: 82.0314
[10/05/2022 17:07:17:817] right released
[10/05/2022 17:07:17:931] right pressed
[10/05/2022 17:07:17:932] Camera angle: 87.41022
[10/05/2022 17:07:18:5] Camera angle: 92.54369
[10/05/2022 17:07:18:29] right released
[10/05/2022 17:07:18:297] right pressed
[10/05/2022 17:07:18:314] right released
[10/05/2022 17:07:18:454] right pressed
[10/05/2022 17:07:18:487] Camera angle: 97.78493
[10/05/2022 17:07:18:521] right released
[10/05/2022 17:07:18:654] right pressed
[10/05/2022 17:07:18:693] Camera angle: 102.9006
[10/05/2022 17:07:18:744] right released
[10/05/2022 17:07:18:976] right pressed
[10/05/2022 17:07:19:9] Camera angle: 108.8101
[10/05/2022 17:07:19:76] right released
[10/05/2022 17:07:19:189] right pressed
[10/05/2022 17:07:19:206] Camera angle: 113.897
[10/05/2022 17:07:19:280] Camera angle: 119.015
[10/05/2022 17:07:19:288] right released
[10/05/2022 17:07:19:394] right pressed
[10/05/2022 17:07:19:460] Camera angle: 124.133
[10/05/2022 17:07:19:487] right released
[10/05/2022 17:07:19:610] right pressed
[10/05/2022 17:07:19:651] Camera angle: 129.4378
[10/05/2022 17:07:19:710] right released
[10/05/2022 17:07:19:818] right pressed
[10/05/2022 17:07:19:842] Camera angle: 134.6389
[10/05/2022 17:07:19:917] Camera angle: 139.8756
[10/05/2022 17:07:19:942] right released
[10/05/2022 17:07:20:50] right pressed
[10/05/2022 17:07:20:108] Camera angle: 145.0701
[10/05/2022 17:07:20:157] right released
[10/05/2022 17:07:20:282] right pressed
[10/05/2022 17:07:20:297] Camera angle: 150.2209
[10/05/2022 17:07:20:380] right released
[10/05/2022 17:07:20:954] right pressed
[10/05/2022 17:07:20:955] Camera angle: 155.3674
[10/05/2022 17:07:21:28] Camera angle: 160.5112
[10/05/2022 17:07:21:78] right released
[10/05/2022 17:07:21:192] right pressed
[10/05/2022 17:07:21:225] Camera angle: 165.6284
[10/05/2022 17:07:21:309] right released
[10/05/2022 17:07:21:409] right pressed
[10/05/2022 17:07:21:409] Camera angle: 171.5078
[10/05/2022 17:07:21:484] Camera angle: 176.8121
[10/05/2022 17:07:21:490] right released
[10/05/2022 17:07:21:614] right pressed
[10/05/2022 17:07:21:679] Camera angle: 182.5391
[10/05/2022 17:07:21:712] right released
[10/05/2022 17:07:21:843] right pressed
[10/05/2022 17:07:21:885] Camera angle: 187.8012
[10/05/2022 17:07:21:926] right released
[10/05/2022 17:07:22:42] right pressed
[10/05/2022 17:07:22:66] Camera angle: 192.938
[10/05/2022 17:07:22:132] right released
[10/05/2022 17:07:22:279] right pressed
[10/05/2022 17:07:22:279] Camera angle: 198.151
[10/05/2022 17:07:22:352] Camera angle: 203.2975
[10/05/2022 17:07:22:378] right released
[10/05/2022 17:07:22:509] right pressed
[10/05/2022 17:07:22:558] Camera angle: 208.46
[10/05/2022 17:07:22:623] right released
[10/05/2022 17:07:23:958] right pressed
[10/05/2022 17:07:23:965] Camera angle: 213.5439
[10/05/2022 17:07:24:39] Camera angle: 218.6635
[10/05/2022 17:07:24:64] right released
[10/05/2022 17:07:24:185] right pressed
[10/05/2022 17:07:24:240] Camera angle: 223.694
[10/05/2022 17:07:24:270] right released
[10/05/2022 17:07:24:394] right pressed
[10/05/2022 17:07:24:435] Camera angle: 228.7325
[10/05/2022 17:07:24:458] right released
[10/05/2022 17:07:24:584] right pressed
[10/05/2022 17:07:24:634] Camera angle: 233.8385
[10/05/2022 17:07:24:650] right released
[10/05/2022 17:07:24:778] right pressed
[10/05/2022 17:07:24:840] Camera angle: 239.3225
[10/05/2022 17:07:24:870] right released
[10/05/2022 17:07:24:994] right pressed
[10/05/2022 17:07:25:38] Camera angle: 244.6889
[10/05/2022 17:07:25:92] right released
[10/05/2022 17:07:25:222] right pressed
[10/05/2022 17:07:25:245] Camera angle: 250.1153
[10/05/2022 17:07:25:316] right released
[10/05/2022 17:07:25:437] right pressed
[10/05/2022 17:07:25:446] Camera angle: 255.5105
[10/05/2022 17:07:25:522] Camera angle: 260.9111
[10/05/2022 17:07:25:537] right released
[10/05/2022 17:07:25:652] right pressed
[10/05/2022 17:07:25:716] Camera angle: 266.3525
[10/05/2022 17:07:25:760] right released
[10/05/2022 17:07:25:881] right pressed
[10/05/2022 17:07:25:911] Camera angle: 271.4874
[10/05/2022 17:07:25:988] Camera angle: 276.8218
[10/05/2022 17:07:26:3] right released
[10/05/2022 17:07:26:688] right pressed
[10/05/2022 17:07:26:754] Camera angle: 282.5693
[10/05/2022 17:07:26:795] right released
[10/05/2022 17:07:26:928] right pressed
[10/05/2022 17:07:26:959] Camera angle: 287.762
[10/05/2022 17:07:27:34] right released
[10/05/2022 17:07:27:159] right pressed
[10/05/2022 17:07:27:159] Camera angle: 292.9479
[10/05/2022 17:07:27:234] Camera angle: 298.1961
[10/05/2022 17:07:27:252] right released
[10/05/2022 17:07:27:368] right pressed
[10/05/2022 17:07:27:433] Camera angle: 303.4449
[10/05/2022 17:07:27:467] right released
[10/05/2022 17:07:27:600] right pressed
[10/05/2022 17:07:27:651] Camera angle: 309.34
[10/05/2022 17:07:27:683] right released
[10/05/2022 17:07:27:817] right pressed
[10/05/2022 17:07:27:857] right released
[10/05/2022 17:07:28:0] right pressed
[10/05/2022 17:07:28:1] Camera angle: 314.6963
[10/05/2022 17:07:28:64] right released
[10/05/2022 17:07:28:204] right pressed
[10/05/2022 17:07:28:222] Camera angle: 320.4284
[10/05/2022 17:07:28:295] Camera angle: 325.6343
[10/05/2022 17:07:28:320] right released
[10/05/2022 17:07:28:460] right pressed
[10/05/2022 17:07:28:518] Camera angle: 330.7919
[10/05/2022 17:07:28:592] right released
[10/05/2022 17:07:29:387] right pressed
[10/05/2022 17:07:29:388] Camera angle: 336.6013
[10/05/2022 17:07:29:460] Camera angle: 341.7806
[10/05/2022 17:07:29:520] right released
[10/05/2022 17:07:36:930] right pressed
[10/05/2022 17:07:36:945] Camera angle: 346.9113
[10/05/2022 17:07:37:30] Camera angle: 352.8487
[10/05/2022 17:07:37:77] right released
[10/05/2022 17:07:46:375] right pressed
[10/05/2022 17:07:46:399] Camera angle: 357.8947
[10/05/2022 17:07:46:475] Camera angle: 3.198879
[10/05/2022 17:07:46:547] Camera angle: 8.230773
[10/05/2022 17:07:46:620] Camera angle: 13.3484
[10/05/2022 17:07:46:703] Camera angle: 19.11421
[10/05/2022 17:07:46:775] Camera angle: 24.21313
[10/05/2022 17:07:46:848] Camera angle: 29.3584
[10/05/2022 17:07:46:925] Camera angle: 34.60236
[10/05/2022 17:07:47:9] Camera angle: 40.58486
[10/05/2022 17:07:47:82] Camera angle: 45.65343
[10/05/2022 17:07:47:158] Camera angle: 50.98279
[10/05/2022 17:07:47:236] Camera angle: 56.48643
[10/05/2022 17:07:47:309] Camera angle: 61.5799
[10/05/2022 17:07:47:383] Camera angle: 66.74656
[10/05/2022 17:07:47:459] Camera angle: 72.01632
[10/05/2022 17:07:47:541] Camera angle: 77.82664
[10/05/2022 17:07:47:615] Camera angle: 82.98634
[10/05/2022 17:07:47:689] Camera angle: 88.15314
[10/05/2022 17:07:47:775] Camera angle: 94.15849
[10/05/2022 17:07:47:848] Camera angle: 99.28034
[10/05/2022 17:07:47:920] Camera angle: 104.3612
[10/05/2022 17:07:48:3] Camera angle: 110.1353
[10/05/2022 17:07:48:75] Camera angle: 115.2213
[10/05/2022 17:07:48:150] Camera angle: 120.4041
[10/05/2022 17:07:48:225] Camera angle: 125.6499
[10/05/2022 17:07:48:307] Camera angle: 131.4876
[10/05/2022 17:07:48:382] Camera angle: 136.6782
[10/05/2022 17:07:48:458] Camera angle: 141.9942
[10/05/2022 17:07:48:474] right released
[10/05/2022 17:07:48:771] right pressed
[10/05/2022 17:07:48:837] Camera angle: 147.6657
[10/05/2022 17:07:48:908] Camera angle: 152.7652
[10/05/2022 17:07:48:982] Camera angle: 157.9359
[10/05/2022 17:07:49:57] Camera angle: 163.1584
[10/05/2022 17:07:49:141] Camera angle: 169.0168
[10/05/2022 17:07:49:216] Camera angle: 174.2841
[10/05/2022 17:07:49:291] Camera angle: 179.5765
[10/05/2022 17:07:49:300] right released
[10/05/2022 17:07:50:939] Quiz question: <Which European city hosted the 1936 Summer Olympics>, Target: <Annie>, Distractor: <Maria>, Target_Answer: <London>, Distractor_Answer: <Berlin>, Target_correct: <False>
[10/05/2022 17:07:50:939] RightAnswerTask: Showing onscreen question 1
[10/05/2022 17:07:54:327] RightAnswerTask: Correct answer 1 logged (Distractor correct, D pressed)
[10/05/2022 17:07:56:910] right pressed
[10/05/2022 17:07:56:966] Camera angle: 184.7446
[10/05/2022 17:07:57:49] Camera angle: 190.5325
[10/05/2022 17:07:57:123] Camera angle: 195.6863
[10/05/2022 17:07:57:195] Camera angle: 200.7988
[10/05/2022 17:07:57:278] Camera angle: 206.5863
[10/05/2022 17:07:57:353] Camera angle: 211.851
[10/05/2022 17:07:57:426] Camera angle: 216.9231
[10/05/2022 17:07:57:500] Camera angle: 222.1009
[10/05/2022 17:07:57:524] right released
[10/05/2022 17:07:57:820] right pressed
[10/05/2022 17:07:57:868] Camera angle: 227.2174
[10/05/2022 17:07:57:952] Camera angle: 233.1079
[10/05/2022 17:07:58:25] Camera angle: 238.2301
[10/05/2022 17:07:58:99] Camera angle: 243.4003
[10/05/2022 17:07:58:185] Camera angle: 249.4395
[10/05/2022 17:07:58:263] Camera angle: 254.8716
[10/05/2022 17:07:58:348] Camera angle: 260.8701
[10/05/2022 17:07:58:364] right released
[10/05/2022 17:07:58:661] right pressed
[10/05/2022 17:07:58:719] Camera angle: 266.06
[10/05/2022 17:07:58:793] Camera angle: 271.2275
[10/05/2022 17:07:58:869] right released
[10/05/2022 17:07:59:204] right pressed
[10/05/2022 17:07:59:204] Camera angle: 276.4249
[10/05/2022 17:07:59:278] Camera angle: 281.5665
[10/05/2022 17:07:59:353] Camera angle: 286.7859
[10/05/2022 17:07:59:426] Camera angle: 291.918
[10/05/2022 17:07:59:499] Camera angle: 297.0822
[10/05/2022 17:07:59:573] Camera angle: 302.2247
[10/05/2022 17:07:59:646] Camera angle: 307.3429
[10/05/2022 17:07:59:720] Camera angle: 312.4827
[10/05/2022 17:07:59:770] right released
[10/05/2022 17:08:00:40] right pressed
[10/05/2022 17:08:00:55] Camera angle: 317.6467
[10/05/2022 17:08:00:128] Camera angle: 322.7908
[10/05/2022 17:08:00:203] Camera angle: 327.9295
[10/05/2022 17:08:00:280] Camera angle: 333.4193
[10/05/2022 17:08:00:357] Camera angle: 338.7615
[10/05/2022 17:08:00:434] right released
[10/05/2022 17:08:01:705] right pressed
[10/05/2022 17:08:01:706] Camera angle: 344.0773
[10/05/2022 17:08:01:783] Camera angle: 349.4933
[10/05/2022 17:08:01:812] right released
[10/05/2022 17:08:12:84] right pressed
[10/05/2022 17:08:12:124] Camera angle: 355.0103
[10/05/2022 17:08:12:197] Camera angle: 0.09484322
[10/05/2022 17:08:12:269] Camera angle: 5.134396
[10/05/2022 17:08:12:343] Camera angle: 10.2867
[10/05/2022 17:08:12:422] Camera angle: 15.92285
[10/05/2022 17:08:12:504] Camera angle: 21.61737
[10/05/2022 17:08:12:578] Camera angle: 26.81606
[10/05/2022 17:08:12:642] right released
[10/05/2022 17:08:17:810] left pressed
[10/05/2022 17:08:17:923] Quiz question: <When is World Literacy Day celebrated>, Target: <John>, Distractor: <Susan>, Target_Answer: <October 7>, Distractor_Answer: <September 8>, Target_correct: <False>
[10/05/2022 17:08:17:923] RightAnswerTask: Showing onscreen question 2
[10/05/2022 17:08:17:931] Camera angle: 21.63843
[10/05/2022 17:08:18:4] Camera angle: 16.51817
[10/05/2022 17:08:18:78] Camera angle: 11.39261
[10/05/2022 17:08:18:150] Camera angle: 6.274191
[10/05/2022 17:08:18:222] Camera angle: 1.25893
[10/05/2022 17:08:18:294] Camera angle: 356.1893
[10/05/2022 17:08:18:369] Camera angle: 350.9732
[10/05/2022 17:08:18:444] Camera angle: 345.7443
[10/05/2022 17:08:18:516] Camera angle: 340.6748
[10/05/2022 17:08:18:565] left released
[10/05/2022 17:08:18:970] left pressed
[10/05/2022 17:08:18:994] Camera angle: 335.5771
[10/05/2022 17:08:19:72] Camera angle: 330.0661
[10/05/2022 17:08:19:104] left released
[10/05/2022 17:08:27:925] RightAnswerTask: Timeout, no answer given
[10/05/2022 17:08:31:390] right pressed
[10/05/2022 17:08:31:482] Camera angle: 335.9715
[10/05/2022 17:08:31:549] right released
[10/05/2022 17:08:32:31] right pressed
[10/05/2022 17:08:32:48] Camera angle: 341.1481
[10/05/2022 17:08:32:121] Camera angle: 346.2773
[10/05/2022 17:08:32:195] Camera angle: 351.4507
[10/05/2022 17:08:32:213] right released
[10/05/2022 17:08:37:834] right pressed
[10/05/2022 17:08:37:903] Camera angle: 356.9498
[10/05/2022 17:08:37:975] Camera angle: 1.998669
[10/05/2022 17:08:38:53] Camera angle: 7.45988
[10/05/2022 17:08:38:140] Camera angle: 13.5221
[10/05/2022 17:08:38:218] Camera angle: 18.89729
[10/05/2022 17:08:38:293] Camera angle: 24.24769
[10/05/2022 17:08:38:368] Camera angle: 29.46483
[10/05/2022 17:08:38:384] right released
[10/05/2022 17:08:43:923] Quiz question: <How far is the target in Olympic Archery>, Target: <John>, Distractor: <Annie>, Target_Answer: <70 metres>, Distractor_Answer: <80 metres>, Target_correct: <True>
[10/05/2022 17:08:43:923] RightAnswerTask: Showing onscreen question 3
[10/05/2022 17:08:45:815] RightAnswerTask: Correct answer 3 logged (Target correct, A pressed)
[10/05/2022 17:08:47:427] left pressed
[10/05/2022 17:08:47:467] left released
[10/05/2022 17:08:47:632] left pressed
[10/05/2022 17:08:47:666] Camera angle: 23.5928
[10/05/2022 17:08:47:732] left released
[10/05/2022 17:08:47:831] left pressed
[10/05/2022 17:08:47:838] Camera angle: 18.45602
[10/05/2022 17:08:47:897] left released
[10/05/2022 17:08:48:4] left pressed
[10/05/2022 17:08:48:30] Camera angle: 13.16487
[10/05/2022 17:08:48:78] left released
[10/05/2022 17:08:51:450] left pressed
[10/05/2022 17:08:51:477] Camera angle: 8.142453
[10/05/2022 17:08:51:534] left released
[10/05/2022 17:08:51:739] left pressed
[10/05/2022 17:08:51:755] Camera angle: 3.095684
[10/05/2022 17:08:51:813] left released
[10/05/2022 17:09:02:430] right pressed
[10/05/2022 17:09:02:545] Camera angle: 8.174421
[10/05/2022 17:09:02:621] Camera angle: 13.40004
[10/05/2022 17:09:02:694] Camera angle: 18.56059
[10/05/2022 17:09:02:779] Camera angle: 24.4573
[10/05/2022 17:09:02:788] right released
[10/05/2022 17:09:03:17] right pressed
[10/05/2022 17:09:03:82] Camera angle: 30.2399
[10/05/2022 17:09:03:156] Camera angle: 35.46659
[10/05/2022 17:09:03:205] right released
[10/05/2022 17:09:07:493] left pressed
[10/05/2022 17:09:07:598] Camera angle: 30.28468
[10/05/2022 17:09:07:671] Camera angle: 25.13265
[10/05/2022 17:09:07:755] Camera angle: 19.27336
[10/05/2022 17:09:07:829] Camera angle: 14.06336
[10/05/2022 17:09:07:904] Camera angle: 8.82525
[10/05/2022 17:09:07:963] left released
[10/05/2022 17:09:08:928] Quiz question: <What was invented by James Dewer in 1872>, Target: <John>, Distractor: <Susan>, Target_Answer: <Steam pump>, Distractor_Answer: <Thermos flask>, Target_correct: <False>
[10/05/2022 17:09:08:928] RightAnswerTask: Showing onscreen question 4
[10/05/2022 17:09:11:654] RightAnswerTask: Correct answer 4 logged (Distractor correct, A pressed)
[10/05/2022 17:09:17:598] left pressed
[10/05/2022 17:09:17:606] Camera angle: 3.51876
[10/05/2022 17:09:17:680] Camera angle: 358.4102
[10/05/2022 17:09:17:737] left released
[10/05/2022 17:09:18:16] right pressed
[10/05/2022 17:09:18:131] Camera angle: 3.493525
[10/05/2022 17:09:18:195] right released
[10/05/2022 17:09:26:480] right pressed
[10/05/2022 17:09:26:505] Camera angle: 9.163356
[10/05/2022 17:09:26:581] Camera angle: 14.4408
[10/05/2022 17:09:26:653] Camera angle: 19.44976
[10/05/2022 17:09:26:736] Camera angle: 25.30119
[10/05/2022 17:09:26:810] Camera angle: 30.50476
[10/05/2022 17:09:26:883] Camera angle: 35.61238
[10/05/2022 17:09:26:970] Camera angle: 41.61506
[10/05/2022 17:09:27:46] Camera angle: 46.99659
[10/05/2022 17:09:27:133] Camera angle: 53.14136
[10/05/2022 17:09:27:207] Camera angle: 58.24893
[10/05/2022 17:09:27:280] Camera angle: 63.3455
[10/05/2022 17:09:27:354] Camera angle: 68.50966
[10/05/2022 17:09:27:436] Camera angle: 74.29565
[10/05/2022 17:09:27:510] Camera angle: 79.5017
[10/05/2022 17:09:27:584] right released
[10/05/2022 17:09:27:824] right pressed
[10/05/2022 17:09:27:824] Camera angle: 84.72895
[10/05/2022 17:09:27:905] Camera angle: 90.48582
[10/05/2022 17:09:27:979] Camera angle: 95.64767
[10/05/2022 17:09:28:52] Camera angle: 100.7477
[10/05/2022 17:09:28:136] Camera angle: 106.59
[10/05/2022 17:09:28:210] Camera angle: 111.7924
[10/05/2022 17:09:28:284] Camera angle: 117.0293
[10/05/2022 17:09:28:370] right released
[10/05/2022 17:09:31:929] Quiz question: <Where is the largest bowlilng alley>, Target: <Elizabeth>, Distractor: <Maria>, Target_Answer: <Japan>, Distractor_Answer: <Minnesota>, Target_correct: <True>
[10/05/2022 17:09:31:929] RightAnswerTask: Showing onscreen question 5
[10/05/2022 17:09:35:844] RightAnswerTask: Correct answer 5 logged (Target correct, D pressed)
[10/05/2022 17:09:36:995] right pressed
[10/05/2022 17:09:36:995] Camera angle: 122.2936
[10/05/2022 17:09:37:80] Camera angle: 128.2172
[10/05/2022 17:09:37:154] Camera angle: 133.4243
[10/05/2022 17:09:37:227] Camera angle: 138.5202
[10/05/2022 17:09:37:301] Camera angle: 143.6987
[10/05/2022 17:09:37:384] Camera angle: 149.4933
[10/05/2022 17:09:37:458] Camera angle: 154.6772
[10/05/2022 17:09:37:531] Camera angle: 159.7667
[10/05/2022 17:09:37:615] Camera angle: 165.6437
[10/05/2022 17:09:37:689] Camera angle: 170.8478
[10/05/2022 17:09:37:730] right released
[10/05/2022 17:09:37:979] right pressed
[10/05/2022 17:09:38:12] Camera angle: 176.7391
[10/05/2022 17:09:38:85] Camera angle: 181.8912
[10/05/2022 17:09:38:158] Camera angle: 186.9904
[10/05/2022 17:09:38:232] Camera angle: 192.1596
[10/05/2022 17:09:38:316] Camera angle: 198.0742
[10/05/2022 17:09:38:392] Camera angle: 203.3696
[10/05/2022 17:09:38:468] Camera angle: 208.6159
[10/05/2022 17:09:38:553] Camera angle: 214.552
[10/05/2022 17:09:38:625] Camera angle: 219.6828
[10/05/2022 17:09:38:699] Camera angle: 224.8683
[10/05/2022 17:09:38:783] Camera angle: 230.6535
[10/05/2022 17:09:38:840] right released
[10/05/2022 17:09:39:223] right pressed
[10/05/2022 17:09:39:238] Camera angle: 235.739
[10/05/2022 17:09:39:311] Camera angle: 240.8529
[10/05/2022 17:09:39:384] Camera angle: 246.0276
[10/05/2022 17:09:39:457] Camera angle: 251.1215
[10/05/2022 17:09:39:531] Camera angle: 256.2905
[10/05/2022 17:09:39:607] Camera angle: 261.5291
[10/05/2022 17:09:39:680] Camera angle: 266.631
[10/05/2022 17:09:39:753] Camera angle: 271.8143
[10/05/2022 17:09:39:826] Camera angle: 276.9368
[10/05/2022 17:09:39:900] Camera angle: 282.0665
[10/05/2022 17:09:39:975] Camera angle: 287.3196
[10/05/2022 17:09:40:48] Camera angle: 292.4234
[10/05/2022 17:09:40:122] Camera angle: 297.666
[10/05/2022 17:09:40:194] Camera angle: 302.693
[10/05/2022 17:09:40:274] Camera angle: 308.2113
[10/05/2022 17:09:40:353] Camera angle: 313.7536
[10/05/2022 17:09:40:414] right released
[10/05/2022 17:09:40:832] right pressed
[10/05/2022 17:09:40:833] Camera angle: 318.7539
[10/05/2022 17:09:40:912] Camera angle: 324.2858
[10/05/2022 17:09:40:990] Camera angle: 329.7762
[10/05/2022 17:09:41:69] Camera angle: 335.3375
[10/05/2022 17:09:41:147] Camera angle: 340.8016
[10/05/2022 17:09:41:218] right released
[10/05/2022 17:09:43:926] Starting SAGAT 1
[10/05/2022 17:09:43:926] SAGAT question loaded: "What kind of social event is taking place here?" Answers: [Quiz] ; Presentation ; Exam ; Workshop ; Focus Group ; Debate ; )
[10/05/2022 17:09:44:25] left pressed
[10/05/2022 17:09:44:163] left released
[10/05/2022 17:09:49:575] Toggle pressed: Quiz
[10/05/2022 17:09:53:269] SAGAT answer given: "Quiz" (correct; "Quiz")
[10/05/2022 17:09:53:270] SAGAT question loaded: "Who is sitting two seats to the left of the quiz master (your left)?" Answers: Annie ; Carlos ; Maria ; [Susan] ; John ; Elizabeth ; )
[10/05/2022 17:10:05:572] Toggle pressed: Elizabeth
[10/05/2022 17:10:08:12] SAGAT answer given: "Elizabeth" (incorrect; "Susan")
[10/05/2022 17:10:08:12] SAGAT question loaded: "Who is sitting right of the quiz master (your right)?" Answers: Elizabeth ; Susan ; Maria ; Annie ; Carlos ; [John] ; )
[10/05/2022 17:10:11:155] Toggle pressed: John
[10/05/2022 17:10:19:569] Toggle pressed: Carlos
[10/05/2022 17:10:19:569] Toggle pressed: Carlos
[10/05/2022 17:10:20:615] Toggle pressed: Susan
[10/05/2022 17:10:20:616] Toggle pressed: Susan
[10/05/2022 17:10:25:856] Toggle pressed: Maria
[10/05/2022 17:10:25:857] Toggle pressed: Maria
[10/05/2022 17:10:27:299] SAGAT answer given: "Maria" (incorrect; "John")
[10/05/2022 17:10:27:301] SAGAT question loaded: "Who was asked to answer a question most recently?" Answers: Carlos ; [Elizabeth] ; Susan ; John ; Annie ; Maria ; )
[10/05/2022 17:10:33:669] Toggle pressed: Elizabeth
[10/05/2022 17:10:35:624] SAGAT answer given: "Elizabeth" (correct; "Elizabeth")
[10/05/2022 17:10:35:625] SAGAT question loaded: "Identify one person who was in your field of view just before the simulation paused." Answers: Elizabeth ; Annie ; Susan ; John ; Maria ; Carlos ; )
[10/05/2022 17:10:45:926] Toggle pressed: Carlos
[10/05/2022 17:10:47:806] Toggle pressed: I don't know
[10/05/2022 17:10:47:807] Toggle pressed: I don't know
[10/05/2022 17:10:49:66] SAGAT answer given: "I don't know" (incorrect; "Carlos|John|Maria")
[10/05/2022 17:10:49:66] SAGAT Complete
[10/05/2022 17:10:57:475] left pressed
[10/05/2022 17:10:57:606] Camera angle: 335.4952
[10/05/2022 17:10:57:681] Camera angle: 330.2915
[10/05/2022 17:10:57:756] Camera angle: 325.0648
[10/05/2022 17:10:57:839] Camera angle: 319.2068
[10/05/2022 17:10:57:913] Camera angle: 314.024
[10/05/2022 17:10:57:989] Camera angle: 308.7246
[10/05/2022 17:10:58:56] left released
[10/05/2022 17:10:58:287] left pressed
[10/05/2022 17:10:58:294] Camera angle: 303.6357
[10/05/2022 17:10:58:367] Camera angle: 298.5176
[10/05/2022 17:10:58:416] left released
[10/05/2022 17:10:58:538] left pressed
[10/05/2022 17:10:58:562] Camera angle: 293.3576
[10/05/2022 17:10:58:621] left released
[10/05/2022 17:10:58:719] left pressed
[10/05/2022 17:10:58:734] Camera angle: 288.3367
[10/05/2022 17:10:58:791] left released
[10/05/2022 17:10:58:897] left pressed
[10/05/2022 17:10:58:922] Camera angle: 282.5614
[10/05/2022 17:10:58:987] left released
[10/05/2022 17:10:59:152] left pressed
[10/05/2022 17:10:59:153] Camera angle: 277.4964
[10/05/2022 17:10:59:233] Camera angle: 271.8195
[10/05/2022 17:10:59:266] left released
[10/05/2022 17:11:03:89] Quiz question: <Who was the first Tsar of Russia>, Target: <Susan>, Distractor: <John>, Target_Answer: <Ivan the Terrible>, Distractor_Answer: <Catherine the Great>, Target_correct: <True>
[10/05/2022 17:11:03:89] RightAnswerTask: Showing onscreen question 6
[10/05/2022 17:11:06:848] RightAnswerTask: Correct answer 6 logged (Target correct, A pressed)
[10/05/2022 17:11:10:206] right pressed
[10/05/2022 17:11:10:289] Camera angle: 277.0776
[10/05/2022 17:11:10:367] Camera angle: 282.5398
[10/05/2022 17:11:10:441] Camera angle: 287.6666
[10/05/2022 17:11:10:513] Camera angle: 292.7556
[10/05/2022 17:11:10:586] Camera angle: 297.8114
[10/05/2022 17:11:10:660] Camera angle: 302.9983
[10/05/2022 17:11:10:734] Camera angle: 308.2407
[10/05/2022 17:11:10:819] Camera angle: 314.1563
[10/05/2022 17:11:10:894] Camera angle: 319.3416
[10/05/2022 17:11:10:967] Camera angle: 324.4772
[10/05/2022 17:11:11:50] Camera angle: 330.3268
[10/05/2022 17:11:11:116] right released
[10/05/2022 17:11:13:390] right pressed
[10/05/2022 17:11:13:398] Camera angle: 335.5601
[10/05/2022 17:11:13:475] Camera angle: 340.92
[10/05/2022 17:11:13:550] Camera angle: 346.1743
[10/05/2022 17:11:13:623] Camera angle: 351.3123
[10/05/2022 17:11:13:698] Camera angle: 356.5552
[10/05/2022 17:11:13:770] Camera angle: 1.627583
[10/05/2022 17:11:13:789] right released
[10/05/2022 17:11:22:177] right pressed
[10/05/2022 17:11:22:245] Camera angle: 6.83972
[10/05/2022 17:11:22:327] Camera angle: 12.68152
[10/05/2022 17:11:22:401] Camera angle: 17.87012
[10/05/2022 17:11:22:476] Camera angle: 23.07174
[10/05/2022 17:11:22:561] Camera angle: 28.98188
[10/05/2022 17:11:22:634] Camera angle: 34.1009
[10/05/2022 17:11:22:707] Camera angle: 39.2781
[10/05/2022 17:11:22:781] Camera angle: 44.41452
[10/05/2022 17:11:22:865] Camera angle: 50.33287
[10/05/2022 17:11:22:939] Camera angle: 55.50758
[10/05/2022 17:11:23:12] Camera angle: 60.60361
[10/05/2022 17:11:23:97] Camera angle: 66.5349
[10/05/2022 17:11:23:103] right released
[10/05/2022 17:11:23:404] right pressed
[10/05/2022 17:11:23:471] Camera angle: 71.89032
[10/05/2022 17:11:23:547] Camera angle: 77.18579
[10/05/2022 17:11:23:627] Camera angle: 82.75494
[10/05/2022 17:11:23:700] Camera angle: 87.86351
[10/05/2022 17:11:23:773] Camera angle: 92.95353
[10/05/2022 17:11:23:853] Camera angle: 98.60517
[10/05/2022 17:11:23:927] right released
[10/05/2022 17:11:29:72] Quiz question: <Where is the oldest tree in the world>, Target: <Elizabeth>, Distractor: <Maria>, Target_Answer: <Colorado>, Distractor_Answer: <California>, Target_correct: <False>
[10/05/2022 17:11:29:73] RightAnswerTask: Showing onscreen question 7
[10/05/2022 17:11:30:67] Video time: 258
[10/05/2022 17:11:32:14] RightAnswerTask: Correct answer 7 logged (Distractor correct, D pressed)
[10/05/2022 17:11:33:293] right pressed
[10/05/2022 17:11:33:301] Camera angle: 103.7082
[10/05/2022 17:11:33:373] Camera angle: 108.7598
[10/05/2022 17:11:33:450] Camera angle: 114.1273
[10/05/2022 17:11:33:522] Camera angle: 119.1937
[10/05/2022 17:11:33:607] Camera angle: 125.1483
[10/05/2022 17:11:33:683] Camera angle: 130.4961
[10/05/2022 17:11:33:761] Camera angle: 135.9132
[10/05/2022 17:11:33:840] Camera angle: 141.4176
[10/05/2022 17:11:33:913] Camera angle: 146.5263
[10/05/2022 17:11:33:987] Camera angle: 151.7404
[10/05/2022 17:11:34:66] Camera angle: 157.2718
[10/05/2022 17:11:34:138] Camera angle: 162.3283
[10/05/2022 17:11:34:214] Camera angle: 167.6257
[10/05/2022 17:11:34:290] Camera angle: 172.9255
[10/05/2022 17:11:34:366] Camera angle: 178.3093
[10/05/2022 17:11:34:443] Camera angle: 183.6899
[10/05/2022 17:11:34:519] Camera angle: 188.9895
[10/05/2022 17:11:34:596] Camera angle: 194.3489
[10/05/2022 17:11:34:672] Camera angle: 199.7069
[10/05/2022 17:11:34:726] right released
[10/05/2022 17:11:35:85] Video time: 263
[10/05/2022 17:11:35:371] right pressed
[10/05/2022 17:11:35:388] Camera angle: 204.7173
[10/05/2022 17:11:35:460] Camera angle: 209.7894
[10/05/2022 17:11:35:534] Camera angle: 214.9162
[10/05/2022 17:11:35:607] Camera angle: 220.0172
[10/05/2022 17:11:35:680] Camera angle: 225.1508
[10/05/2022 17:11:35:755] Camera angle: 230.4373
[10/05/2022 17:11:35:839] Camera angle: 236.3197
[10/05/2022 17:11:35:907] right released
[10/05/2022 17:11:37:309] right pressed
[10/05/2022 17:11:37:318] Camera angle: 241.5636
[10/05/2022 17:11:37:391] Camera angle: 246.704
[10/05/2022 17:11:37:475] Camera angle: 252.619
[10/05/2022 17:11:37:550] Camera angle: 257.8448
[10/05/2022 17:11:37:625] Camera angle: 263.0706
[10/05/2022 17:11:37:708] Camera angle: 268.8979
[10/05/2022 17:11:37:783] Camera angle: 274.1547
[10/05/2022 17:11:37:855] Camera angle: 279.2232
[10/05/2022 17:11:37:929] Camera angle: 284.3801
[10/05/2022 17:11:38:12] Camera angle: 290.1832
[10/05/2022 17:11:38:61] right released
[10/05/2022 17:11:38:755] right pressed
[10/05/2022 17:11:38:781] Camera angle: 295.451
[10/05/2022 17:11:38:854] Camera angle: 300.5023
[10/05/2022 17:11:38:928] Camera angle: 305.6662
[10/05/2022 17:11:39:10] Camera angle: 311.4702
[10/05/2022 17:11:39:85] Camera angle: 316.6977
[10/05/2022 17:11:39:158] Camera angle: 321.861
[10/05/2022 17:11:39:242] Camera angle: 327.7209
[10/05/2022 17:11:39:317] Camera angle: 332.9219
[10/05/2022 17:11:39:342] right released
[10/05/2022 17:11:40:45] right pressed
[10/05/2022 17:11:40:78] Video time: 268
[10/05/2022 17:11:40:95] Camera angle: 338.1306
[10/05/2022 17:11:40:159] right released
[10/05/2022 17:11:45:67] Video time: 273
[10/05/2022 17:11:47:122] left pressed
[10/05/2022 17:11:47:236] Camera angle: 332.9626
[10/05/2022 17:11:47:321] Camera angle: 326.9973
[10/05/2022 17:11:47:395] Camera angle: 321.806
[10/05/2022 17:11:47:469] Camera angle: 316.6864
[10/05/2022 17:11:47:553] Camera angle: 310.8188
[10/05/2022 17:11:47:627] Camera angle: 305.648
[10/05/2022 17:11:47:699] Camera angle: 300.5351
[10/05/2022 17:11:47:774] Camera angle: 295.3126
[10/05/2022 17:11:47:807] left released
[10/05/2022 17:11:48:64] left pressed
[10/05/2022 17:11:48:104] Camera angle: 290.1311
[10/05/2022 17:11:48:188] Camera angle: 284.2953
[10/05/2022 17:11:48:203] left released
[10/05/2022 17:11:48:321] left pressed
[10/05/2022 17:11:48:370] Camera angle: 279.0334
[10/05/2022 17:11:48:421] left released
[10/05/2022 17:11:48:495] left pressed
[10/05/2022 17:11:48:528] Camera angle: 273.8087
[10/05/2022 17:11:48:595] left released
[10/05/2022 17:11:48:687] left pressed
[10/05/2022 17:11:48:687] Camera angle: 268.4554
[10/05/2022 17:11:48:762] Camera angle: 263.2273
[10/05/2022 17:11:48:820] left released
[10/05/2022 17:11:49:557] left pressed
[10/05/2022 17:11:49:574] Camera angle: 257.9541
[10/05/2022 17:11:49:659] Camera angle: 252.0103
[10/05/2022 17:11:49:733] Camera angle: 246.8276
[10/05/2022 17:11:49:807] Camera angle: 241.6154
[10/05/2022 17:11:49:881] Camera angle: 236.443
[10/05/2022 17:11:49:957] Camera angle: 231.1788
[10/05/2022 17:11:50:32] Camera angle: 225.9672
[10/05/2022 17:11:50:86] Video time: 278
[10/05/2022 17:11:50:104] left released
[10/05/2022 17:11:50:748] left pressed
[10/05/2022 17:11:50:754] Camera angle: 220.9618
[10/05/2022 17:11:50:828] Camera angle: 215.7992
[10/05/2022 17:11:50:892] left released
[10/05/2022 17:11:53:67] Quiz question: <What is the tallest mountain in Canada>, Target: <Annie>, Distractor: <John>, Target_Answer: <Mount Columbia>, Distractor_Answer: <Mount Logan>, Target_correct: <False>
[10/05/2022 17:11:53:67] RightAnswerTask: Showing onscreen question 8
[10/05/2022 17:11:55:80] Video time: 283
[10/05/2022 17:11:55:796] RightAnswerTask: Correct answer 8 logged (Distractor correct, A pressed)
[10/05/2022 17:12:00:95] Video time: 288
[10/05/2022 17:12:01:139] right pressed
[10/05/2022 17:12:01:260] Camera angle: 220.9555
[10/05/2022 17:12:01:337] Camera angle: 226.3764
[10/05/2022 17:12:01:414] Camera angle: 231.7473
[10/05/2022 17:12:01:491] Camera angle: 237.0551
[10/05/2022 17:12:01:568] Camera angle: 242.4607
[10/05/2022 17:12:01:643] Camera angle: 247.7474
[10/05/2022 17:12:01:717] Camera angle: 252.9191
[10/05/2022 17:12:01:801] Camera angle: 258.7903
[10/05/2022 17:12:01:876] Camera angle: 264.0587
[10/05/2022 17:12:01:948] Camera angle: 269.149
[10/05/2022 17:12:02:32] Camera angle: 275.0086
[10/05/2022 17:12:02:107] Camera angle: 280.2237
[10/05/2022 17:12:02:181] Camera angle: 285.4271
[10/05/2022 17:12:02:265] Camera angle: 291.2616
[10/05/2022 17:12:02:338] Camera angle: 296.4172
[10/05/2022 17:12:02:412] Camera angle: 301.5839
[10/05/2022 17:12:02:485] Camera angle: 306.6703
[10/05/2022 17:12:02:567] Camera angle: 312.4256
[10/05/2022 17:12:02:643] Camera angle: 317.6911
[10/05/2022 17:12:02:715] Camera angle: 322.796
[10/05/2022 17:12:02:765] right released
[10/05/2022 17:12:03:445] right pressed
[10/05/2022 17:12:03:478] Camera angle: 327.8691
[10/05/2022 17:12:03:552] Camera angle: 333.0554
[10/05/2022 17:12:03:634] Camera angle: 338.7838
[10/05/2022 17:12:03:709] Camera angle: 343.9987
[10/05/2022 17:12:03:782] Camera angle: 349.1512
[10/05/2022 17:12:03:848] right released
[10/05/2022 17:12:04:651] right pressed
[10/05/2022 17:12:04:669] Camera angle: 355.0447
[10/05/2022 17:12:04:741] Camera angle: 0.1696351
[10/05/2022 17:12:04:815] Camera angle: 5.345632
[10/05/2022 17:12:04:875] right released
[10/05/2022 17:12:05:73] Video time: 293
[10/05/2022 17:12:10:77] Video time: 298
[10/05/2022 17:12:11:842] right pressed
[10/05/2022 17:12:11:857] Camera angle: 10.53877
[10/05/2022 17:12:11:931] Camera angle: 15.70517
[10/05/2022 17:12:12:13] Camera angle: 21.4838
[10/05/2022 17:12:12:88] Camera angle: 26.73406
[10/05/2022 17:12:12:161] Camera angle: 31.82463
[10/05/2022 17:12:12:244] Camera angle: 37.64345
[10/05/2022 17:12:12:319] Camera angle: 42.87251
[10/05/2022 17:12:12:394] Camera angle: 48.11217
[10/05/2022 17:12:12:477] Camera angle: 53.90344
[10/05/2022 17:12:12:551] Camera angle: 59.11068
[10/05/2022 17:12:12:624] Camera angle: 64.25149
[10/05/2022 17:12:12:698] Camera angle: 69.39452
[10/05/2022 17:12:12:780] Camera angle: 75.20309
[10/05/2022 17:12:12:855] Camera angle: 80.4256
[10/05/2022 17:12:12:927] Camera angle: 85.45154
[10/05/2022 17:12:13:11] Camera angle: 91.29705
[10/05/2022 17:12:13:44] right released
[10/05/2022 17:12:13:881] right pressed
[10/05/2022 17:12:13:921] Camera angle: 96.46304
[10/05/2022 17:12:13:995] Camera angle: 101.6246
[10/05/2022 17:12:14:29] right released
[10/05/2022 17:12:15:89] Video time: 303
[10/05/2022 17:12:18:69] Quiz question: <Who wrote Flowers for Algernon>, Target: <Elizabeth>, Distractor: <Maria>, Target_Answer: <Daniel Keyes>, Distractor_Answer: <Isaac Asimov>, Target_correct: <True>
[10/05/2022 17:12:18:70] RightAnswerTask: Showing onscreen question 9
[10/05/2022 17:12:20:86] Video time: 308
[10/05/2022 17:12:20:119] RightAnswerTask: Correct answer 9 logged (Target correct, D pressed)
[10/05/2022 17:12:22:301] right pressed
[10/05/2022 17:12:22:340] Camera angle: 106.78
[10/05/2022 17:12:22:414] Camera angle: 111.9136
[10/05/2022 17:12:22:486] Camera angle: 117.0095
[10/05/2022 17:12:22:561] Camera angle: 122.1844
[10/05/2022 17:12:22:633] Camera angle: 127.2967
[10/05/2022 17:12:22:706] Camera angle: 132.357
[10/05/2022 17:12:22:790] Camera angle: 138.2224
[10/05/2022 17:12:22:867] Camera angle: 143.5723
[10/05/2022 17:12:22:939] Camera angle: 148.665
[10/05/2022 17:12:23:22] Camera angle: 154.512
[10/05/2022 17:12:23:98] Camera angle: 159.7551
[10/05/2022 17:12:23:172] Camera angle: 164.9655
[10/05/2022 17:12:23:255] Camera angle: 170.811
[10/05/2022 17:12:23:331] Camera angle: 176.0586
[10/05/2022 17:12:23:405] Camera angle: 181.2717
[10/05/2022 17:12:23:488] Camera angle: 187.1112
[10/05/2022 17:12:23:563] Camera angle: 192.3313
[10/05/2022 17:12:23:636] Camera angle: 197.4892
[10/05/2022 17:12:23:721] Camera angle: 203.4219
[10/05/2022 17:12:23:797] Camera angle: 208.7265
[10/05/2022 17:12:23:869] Camera angle: 213.8084
[10/05/2022 17:12:23:954] Camera angle: 219.7395
[10/05/2022 17:12:24:29] Camera angle: 224.9743
[10/05/2022 17:12:24:101] Camera angle: 230.0224
[10/05/2022 17:12:24:176] Camera angle: 235.2543
[10/05/2022 17:12:24:258] Camera angle: 240.994
[10/05/2022 17:12:24:333] Camera angle: 246.2094
[10/05/2022 17:12:24:406] Camera angle: 251.3356
[10/05/2022 17:12:24:489] Camera angle: 257.1679
[10/05/2022 17:12:24:564] Camera angle: 262.4435
[10/05/2022 17:12:24:638] Camera angle: 267.5755
[10/05/2022 17:12:24:721] Camera angle: 273.4305
[10/05/2022 17:12:24:797] Camera angle: 278.6841
[10/05/2022 17:12:24:871] Camera angle: 283.8409
[10/05/2022 17:12:24:944] Camera angle: 289.0632
[10/05/2022 17:12:25:26] Camera angle: 294.7568
[10/05/2022 17:12:25:66] Video time: 313
[10/05/2022 17:12:25:99] Camera angle: 299.8772
[10/05/2022 17:12:25:174] Camera angle: 305.0683
[10/05/2022 17:12:25:257] Camera angle: 310.871
[10/05/2022 17:12:25:330] Camera angle: 316.0689
[10/05/2022 17:12:25:404] Camera angle: 321.241
[10/05/2022 17:12:25:487] Camera angle: 327.0605
[10/05/2022 17:12:25:561] Camera angle: 332.1983
[10/05/2022 17:12:25:634] Camera angle: 337.304
[10/05/2022 17:12:25:660] right released
[10/05/2022 17:12:26:307] right pressed
[10/05/2022 17:12:26:365] Camera angle: 342.5065
[10/05/2022 17:12:26:437] Camera angle: 347.58
[10/05/2022 17:12:26:511] Camera angle: 352.741
[10/05/2022 17:12:26:593] right released
[10/05/2022 17:12:29:66] Starting SAGAT 2
[10/05/2022 17:12:29:67] SAGAT question loaded: "Identify one person who was in your field of view just before the simulation paused." Answers: Carlos ; Elizabeth ; Susan ; Annie ; John ; Maria ; )
[10/05/2022 17:12:36:986] Toggle pressed: Carlos
[10/05/2022 17:12:39:642] SAGAT answer given: "Carlos" (correct; "Carlos|John|Maria")
[10/05/2022 17:12:39:643] SAGAT question loaded: "Who last answered incorrectly?" Answers: [Maria] ; Elizabeth ; Annie ; John ; Susan ; Carlos ; )
[10/05/2022 17:12:51:720] Toggle pressed: Elizabeth
[10/05/2022 17:12:53:694] SAGAT answer given: "Elizabeth" (incorrect; "Maria")
[10/05/2022 17:12:53:696] SAGAT question loaded: "Who last answered correctly?" Answers: John ; Maria ; Carlos ; [Elizabeth] ; Annie ; Susan ; )
[10/05/2022 17:13:11:837] Toggle pressed: John
[10/05/2022 17:13:14:826] Toggle pressed: I don't know
[10/05/2022 17:13:14:826] Toggle pressed: I don't know
[10/05/2022 17:13:16:230] SAGAT answer given: "I don't know" (incorrect; "Elizabeth")
[10/05/2022 17:13:16:230] SAGAT question loaded: "Identify one person who was in your field of view just before the simulation paused." Answers: Maria ; John ; Annie ; Susan ; Elizabeth ; Carlos ; )
[10/05/2022 17:13:21:319] Toggle pressed: Carlos
[10/05/2022 17:13:22:895] SAGAT answer given: "Carlos" (correct; "Carlos|John|Maria")
[10/05/2022 17:13:22:896] SAGAT question loaded: "Who is sitting right of the quiz master (your right)?" Answers: Elizabeth ; Maria ; Susan ; [John] ; Annie ; Carlos ; )
[10/05/2022 17:13:35:618] Toggle pressed: John
[10/05/2022 17:13:44:191] SAGAT answer given: "John" (correct; "John")
[10/05/2022 17:13:44:191] SAGAT Complete
[10/05/2022 17:13:45:213] Video time: 318
[10/05/2022 17:13:50:205] Video time: 323
[10/05/2022 17:13:51:769] left pressed
[10/05/2022 17:13:51:896] Camera angle: 347.2058
[10/05/2022 17:13:51:979] Camera angle: 341.4755
[10/05/2022 17:13:52:51] Camera angle: 336.3481
[10/05/2022 17:13:52:126] Camera angle: 331.1143
[10/05/2022 17:13:52:199] Camera angle: 325.9767
[10/05/2022 17:13:52:274] Camera angle: 320.7543
[10/05/2022 17:13:52:322] left released
[10/05/2022 17:13:52:541] left pressed
[10/05/2022 17:13:52:571] Camera angle: 315.29
[10/05/2022 17:13:52:650] Camera angle: 309.7936
[10/05/2022 17:13:52:728] Camera angle: 304.3347
[10/05/2022 17:13:52:799] Camera angle: 299.3139
[10/05/2022 17:13:52:876] Camera angle: 293.9614
[10/05/2022 17:13:52:953] Camera angle: 288.5587
[10/05/2022 17:13:53:26] Camera angle: 283.4492
[10/05/2022 17:13:53:99] Camera angle: 278.3256
[10/05/2022 17:13:53:140] left released
[10/05/2022 17:13:55:231] Video time: 328
[10/05/2022 17:13:57:203] Quiz question: <What colour is the Mallow flower>, Target: <Susan>, Distractor: <John>, Target_Answer: <Pink>, Distractor_Answer: <Purple>, Target_correct: <False>
[10/05/2022 17:13:57:203] RightAnswerTask: Showing onscreen question 10
[10/05/2022 17:14:00:218] Video time: 333
[10/05/2022 17:14:00:693] Video finished
[10/05/2022 17:14:00:939] RightAnswerTask: Correct answer 10 logged (Distractor correct, A pressed)
[10/05/2022 17:14:11:595] Escape pressed during experiment
[10/05/2022 17:14:11:596] Log creation for experiment proper...
