[10/05/2022 11:46:05:75] Participant ID: 43
[10/05/2022 11:46:05:75] Session: Actual
[10/05/2022 11:46:05:75] Scene: Scene 1
[10/05/2022 11:46:05:75] Audio: Spatial
[10/05/2022 11:46:05:75] Loading video from file: C:/Users/Administrator/Downloads/build_vulkan/build_vulkan/Videos/Scene1.mp4
[10/05/2022 11:46:05:75] Got SAGAT times: 217s and 317s
[10/05/2022 11:46:05:76] RightAnswerTask: Ready
[10/05/2022 11:46:15:312] left pressed
[10/05/2022 11:46:15:381] Camera angle: 354.6356
[10/05/2022 11:46:15:459] Camera angle: 349.2479
[10/05/2022 11:46:15:534] Camera angle: 343.927
[10/05/2022 11:46:15:608] Camera angle: 338.7357
[10/05/2022 11:46:15:682] Camera angle: 333.6183
[10/05/2022 11:46:15:756] Camera angle: 328.4313
[10/05/2022 11:46:15:830] Camera angle: 323.278
[10/05/2022 11:46:15:902] Camera angle: 318.1758
[10/05/2022 11:46:15:918] left released
[10/05/2022 11:46:16:293] left pressed
[10/05/2022 11:46:16:348] Camera angle: 313.1595
[10/05/2022 11:46:16:397] left released
[10/05/2022 11:46:16:580] left pressed
[10/05/2022 11:46:16:604] Camera angle: 307.9418
[10/05/2022 11:46:16:668] left released
[10/05/2022 11:46:16:786] left pressed
[10/05/2022 11:46:16:818] Camera angle: 301.9058
[10/05/2022 11:46:16:849] left released
[10/05/2022 11:46:16:998] left pressed
[10/05/2022 11:46:17:46] Camera angle: 296.412
[10/05/2022 11:46:17:92] left released
[10/05/2022 11:46:17:260] left pressed
[10/05/2022 11:46:17:275] Camera angle: 291.3826
[10/05/2022 11:46:17:355] Camera angle: 285.7539
[10/05/2022 11:46:17:391] left released
[10/05/2022 11:46:17:563] left pressed
[10/05/2022 11:46:17:600] Camera angle: 280.4919
[10/05/2022 11:46:17:632] left released
[10/05/2022 11:46:17:777] left pressed
[10/05/2022 11:46:17:818] Camera angle: 275.4407
[10/05/2022 11:46:17:849] left released
[10/05/2022 11:46:17:992] left pressed
[10/05/2022 11:46:18:39] Camera angle: 270.0514
[10/05/2022 11:46:18:76] left released
[10/05/2022 11:46:18:237] left pressed
[10/05/2022 11:46:18:275] Camera angle: 264.7571
[10/05/2022 11:46:18:341] left released
[10/05/2022 11:46:18:511] left pressed
[10/05/2022 11:46:18:539] Camera angle: 258.4384
[10/05/2022 11:46:18:610] left released
[10/05/2022 11:46:18:766] left pressed
[10/05/2022 11:46:18:766] Camera angle: 252.7321
[10/05/2022 11:46:18:840] Camera angle: 247.551
[10/05/2022 11:46:18:873] left released
[10/05/2022 11:46:19:7] left pressed
[10/05/2022 11:46:19:47] Camera angle: 242.38
[10/05/2022 11:46:19:81] left released
[10/05/2022 11:46:19:213] left pressed
[10/05/2022 11:46:19:254] Camera angle: 237.1741
[10/05/2022 11:46:19:279] left released
[10/05/2022 11:46:19:410] left pressed
[10/05/2022 11:46:19:468] Camera angle: 231.3297
[10/05/2022 11:46:19:485] left released
[10/05/2022 11:46:19:607] left pressed
[10/05/2022 11:46:19:656] Camera angle: 226.1411
[10/05/2022 11:46:19:690] left released
[10/05/2022 11:46:19:806] left pressed
[10/05/2022 11:46:19:839] Camera angle: 220.96
[10/05/2022 11:46:19:886] left released
[10/05/2022 11:46:20:3] left pressed
[10/05/2022 11:46:20:19] Camera angle: 215.8995
[10/05/2022 11:46:20:84] left released
[10/05/2022 11:46:20:198] left pressed
[10/05/2022 11:46:20:206] Camera angle: 210.7486
[10/05/2022 11:46:20:278] Camera angle: 205.6844
[10/05/2022 11:46:20:287] left released
[10/05/2022 11:46:20:399] left pressed
[10/05/2022 11:46:20:456] Camera angle: 200.622
[10/05/2022 11:46:20:481] left released
[10/05/2022 11:46:20:596] left pressed
[10/05/2022 11:46:20:660] Camera angle: 194.9892
[10/05/2022 11:46:20:684] left released
[10/05/2022 11:46:20:807] left pressed
[10/05/2022 11:46:20:848] Camera angle: 189.8783
[10/05/2022 11:46:20:906] left released
[10/05/2022 11:46:21:6] left pressed
[10/05/2022 11:46:21:22] Camera angle: 184.6238
[10/05/2022 11:46:21:94] left released
[10/05/2022 11:46:21:200] left pressed
[10/05/2022 11:46:21:200] Camera angle: 179.6197
[10/05/2022 11:46:21:275] left released
[10/05/2022 11:46:21:401] left pressed
[10/05/2022 11:46:21:416] Camera angle: 174.1153
[10/05/2022 11:46:21:470] left released
[10/05/2022 11:46:21:592] left pressed
[10/05/2022 11:46:21:616] Camera angle: 168.6509
[10/05/2022 11:46:21:672] left released
[10/05/2022 11:46:21:785] left pressed
[10/05/2022 11:46:21:801] Camera angle: 163.5733
[10/05/2022 11:46:21:865] left released
[10/05/2022 11:46:21:973] left pressed
[10/05/2022 11:46:21:989] Camera angle: 158.1238
[10/05/2022 11:46:22:64] left released
[10/05/2022 11:46:22:171] left pressed
[10/05/2022 11:46:22:171] Camera angle: 152.8102
[10/05/2022 11:46:22:246] Camera angle: 147.5542
[10/05/2022 11:46:22:262] left released
[10/05/2022 11:46:22:399] left pressed
[10/05/2022 11:46:22:454] Camera angle: 142.5481
[10/05/2022 11:46:22:528] left released
[10/05/2022 11:46:22:672] left pressed
[10/05/2022 11:46:22:672] Camera angle: 137.3116
[10/05/2022 11:46:22:748] Camera angle: 131.948
[10/05/2022 11:46:22:764] left released
[10/05/2022 11:46:22:930] left pressed
[10/05/2022 11:46:22:990] Camera angle: 126.5996
[10/05/2022 11:46:23:67] Camera angle: 121.2393
[10/05/2022 11:46:23:73] left released
[10/05/2022 11:46:23:315] left pressed
[10/05/2022 11:46:23:380] Camera angle: 116.0492
[10/05/2022 11:46:23:405] left released
[10/05/2022 11:46:23:545] left pressed
[10/05/2022 11:46:23:605] Camera angle: 110.193
[10/05/2022 11:46:23:639] left released
[10/05/2022 11:46:23:771] left pressed
[10/05/2022 11:46:23:811] Camera angle: 105.0352
[10/05/2022 11:46:23:876] left released
[10/05/2022 11:46:24:24] left pressed
[10/05/2022 11:46:24:43] Camera angle: 99.86814
[10/05/2022 11:46:24:117] left released
[10/05/2022 11:46:24:256] left pressed
[10/05/2022 11:46:24:256] Camera angle: 94.73418
[10/05/2022 11:46:24:339] Camera angle: 88.8907
[10/05/2022 11:46:24:348] left released
[10/05/2022 11:46:24:472] left pressed
[10/05/2022 11:46:24:538] Camera angle: 83.05676
[10/05/2022 11:46:24:572] left released
[10/05/2022 11:46:24:754] left pressed
[10/05/2022 11:46:24:820] Camera angle: 77.81381
[10/05/2022 11:46:24:893] Camera angle: 72.70658
[10/05/2022 11:46:24:911] left released
[10/05/2022 11:46:25:109] left pressed
[10/05/2022 11:46:25:175] Camera angle: 66.89027
[10/05/2022 11:46:25:208] left released
[10/05/2022 11:46:25:354] left pressed
[10/05/2022 11:46:25:405] Camera angle: 61.79343
[10/05/2022 11:46:25:455] left released
[10/05/2022 11:46:25:610] left pressed
[10/05/2022 11:46:25:626] Camera angle: 56.66086
[10/05/2022 11:46:25:710] Camera angle: 50.82553
[10/05/2022 11:46:25:719] left released
[10/05/2022 11:46:25:874] left pressed
[10/05/2022 11:46:25:941] Camera angle: 44.98287
[10/05/2022 11:46:25:974] left released
[10/05/2022 11:46:26:112] left pressed
[10/05/2022 11:46:26:153] Camera angle: 39.86687
[10/05/2022 11:46:26:210] left released
[10/05/2022 11:46:26:342] left pressed
[10/05/2022 11:46:26:358] Camera angle: 34.74973
[10/05/2022 11:46:26:442] left released
[10/05/2022 11:46:26:574] left pressed
[10/05/2022 11:46:26:574] Camera angle: 28.94764
[10/05/2022 11:46:26:648] Camera angle: 23.78416
[10/05/2022 11:46:26:673] left released
[10/05/2022 11:46:26:844] left pressed
[10/05/2022 11:46:26:893] Camera angle: 18.7012
[10/05/2022 11:46:26:959] left released
[10/05/2022 11:46:27:117] left pressed
[10/05/2022 11:46:27:123] Camera angle: 13.49646
[10/05/2022 11:46:27:207] left released
[10/05/2022 11:46:27:387] left pressed
[10/05/2022 11:46:27:387] Camera angle: 8.337466
[10/05/2022 11:46:27:460] Camera angle: 3.196042
[10/05/2022 11:46:27:542] left released
[10/05/2022 11:46:29:341] right pressed
[10/05/2022 11:46:29:479] right released
[10/05/2022 11:46:29:640] right pressed
[10/05/2022 11:46:29:640] Camera angle: 9.300688
[10/05/2022 11:46:29:718] Camera angle: 14.77687
[10/05/2022 11:46:29:757] right released
[10/05/2022 11:46:29:898] right pressed
[10/05/2022 11:46:29:932] Camera angle: 19.79006
[10/05/2022 11:46:30:11] Camera angle: 25.29078
[10/05/2022 11:46:30:18] right released
[10/05/2022 11:46:30:159] right pressed
[10/05/2022 11:46:30:220] Camera angle: 30.74915
[10/05/2022 11:46:30:238] right released
[10/05/2022 11:46:30:348] right pressed
[10/05/2022 11:46:30:419] Camera angle: 36.25005
[10/05/2022 11:46:30:482] right released
[10/05/2022 11:46:30:643] right pressed
[10/05/2022 11:46:30:659] Camera angle: 41.57061
[10/05/2022 11:46:30:728] right released
[10/05/2022 11:46:31:169] right pressed
[10/05/2022 11:46:31:177] Camera angle: 46.78105
[10/05/2022 11:46:31:252] Camera angle: 52.06067
[10/05/2022 11:46:31:285] right released
[10/05/2022 11:46:31:435] right pressed
[10/05/2022 11:46:31:482] Camera angle: 57.49302
[10/05/2022 11:46:31:551] right released
[10/05/2022 11:46:31:642] right pressed
[10/05/2022 11:46:31:651] Camera angle: 62.91448
[10/05/2022 11:46:31:725] Camera angle: 68.18113
[10/05/2022 11:46:31:764] right released
[10/05/2022 11:46:31:932] right pressed
[10/05/2022 11:46:31:968] Camera angle: 73.43118
[10/05/2022 11:46:32:30] right released
[10/05/2022 11:46:32:196] right pressed
[10/05/2022 11:46:32:212] Camera angle: 78.81108
[10/05/2022 11:46:32:284] right released
[10/05/2022 11:46:32:430] right pressed
[10/05/2022 11:46:32:430] Camera angle: 83.84416
[10/05/2022 11:46:32:502] Camera angle: 88.94126
[10/05/2022 11:46:32:519] right released
[10/05/2022 11:46:32:661] right pressed
[10/05/2022 11:46:32:718] Camera angle: 94.17691
[10/05/2022 11:46:32:785] right released
[10/05/2022 11:46:32:933] right pressed
[10/05/2022 11:46:32:950] Camera angle: 99.34057
[10/05/2022 11:46:33:25] Camera angle: 104.5487
[10/05/2022 11:46:33:84] right released
[10/05/2022 11:46:33:192] right pressed
[10/05/2022 11:46:33:216] Camera angle: 109.7662
[10/05/2022 11:46:33:289] Camera angle: 114.846
[10/05/2022 11:46:33:347] right released
[10/05/2022 11:46:33:485] right pressed
[10/05/2022 11:46:33:500] Camera angle: 119.9837
[10/05/2022 11:46:33:567] right released
[10/05/2022 11:46:33:717] right pressed
[10/05/2022 11:46:33:717] Camera angle: 125.2163
[10/05/2022 11:46:33:790] Camera angle: 130.396
[10/05/2022 11:46:33:817] right released
[10/05/2022 11:46:33:933] right pressed
[10/05/2022 11:46:33:990] Camera angle: 135.608
[10/05/2022 11:46:34:64] right released
[10/05/2022 11:46:34:195] right pressed
[10/05/2022 11:46:34:195] Camera angle: 140.748
[10/05/2022 11:46:34:220] right released
[10/05/2022 11:46:34:392] right pressed
[10/05/2022 11:46:34:451] Camera angle: 145.913
[10/05/2022 11:46:34:492] right released
[10/05/2022 11:46:34:633] right pressed
[10/05/2022 11:46:34:666] Camera angle: 151.0759
[10/05/2022 11:46:34:749] Camera angle: 156.9116
[10/05/2022 11:46:34:757] right released
[10/05/2022 11:46:34:921] right pressed
[10/05/2022 11:46:34:988] Camera angle: 162.787
[10/05/2022 11:46:35:21] right released
[10/05/2022 11:46:35:154] right pressed
[10/05/2022 11:46:35:195] Camera angle: 167.9206
[10/05/2022 11:46:35:253] right released
[10/05/2022 11:46:35:400] right pressed
[10/05/2022 11:46:35:426] Camera angle: 173.011
[10/05/2022 11:46:35:494] right released
[10/05/2022 11:46:35:616] right pressed
[10/05/2022 11:46:35:625] Camera angle: 178.4651
[10/05/2022 11:46:35:701] Camera angle: 183.7364
[10/05/2022 11:46:35:724] right released
[10/05/2022 11:46:35:850] right pressed
[10/05/2022 11:46:35:890] Camera angle: 188.8833
[10/05/2022 11:46:35:950] right released
[10/05/2022 11:46:36:55] right pressed
[10/05/2022 11:46:36:87] Camera angle: 194.4853
[10/05/2022 11:46:36:163] Camera angle: 199.7154
[10/05/2022 11:46:36:187] right released
[10/05/2022 11:46:36:302] right pressed
[10/05/2022 11:46:36:361] Camera angle: 204.7523
[10/05/2022 11:46:36:419] right released
[10/05/2022 11:46:36:550] right pressed
[10/05/2022 11:46:36:566] Camera angle: 209.8642
[10/05/2022 11:46:36:649] right released
[10/05/2022 11:46:36:789] right pressed
[10/05/2022 11:46:36:790] Camera angle: 215.8268
[10/05/2022 11:46:36:863] Camera angle: 221.0624
[10/05/2022 11:46:36:871] right released
[10/05/2022 11:46:37:4] right pressed
[10/05/2022 11:46:37:70] Camera angle: 226.2514
[10/05/2022 11:46:37:128] right released
[10/05/2022 11:46:37:249] right pressed
[10/05/2022 11:46:37:267] Camera angle: 231.497
[10/05/2022 11:46:37:348] Camera angle: 237.1724
[10/05/2022 11:46:37:365] right released
[10/05/2022 11:46:37:474] right pressed
[10/05/2022 11:46:37:542] Camera angle: 243.1116
[10/05/2022 11:46:37:609] right released
[10/05/2022 11:46:37:667] right pressed
[10/05/2022 11:46:37:668] Camera angle: 248.3705
[10/05/2022 11:46:37:741] Camera angle: 253.4978
[10/05/2022 11:46:37:781] right released
[10/05/2022 11:46:37:936] right pressed
[10/05/2022 11:46:37:970] Camera angle: 259.3424
[10/05/2022 11:46:38:3] right released
[10/05/2022 11:46:38:125] right pressed
[10/05/2022 11:46:38:173] Camera angle: 264.3461
[10/05/2022 11:46:38:239] right released
[10/05/2022 11:46:38:374] right pressed
[10/05/2022 11:46:38:390] Camera angle: 269.4538
[10/05/2022 11:46:38:469] Camera angle: 274.9624
[10/05/2022 11:46:38:477] right released
[10/05/2022 11:46:38:623] right pressed
[10/05/2022 11:46:38:688] Camera angle: 280.1689
[10/05/2022 11:46:38:714] right released
[10/05/2022 11:46:38:900] right pressed
[10/05/2022 11:46:38:956] Camera angle: 285.7282
[10/05/2022 11:46:38:985] right released
[10/05/2022 11:46:39:131] right pressed
[10/05/2022 11:46:39:176] Camera angle: 291.0246
[10/05/2022 11:46:39:254] Camera angle: 296.4551
[10/05/2022 11:46:39:261] right released
[10/05/2022 11:46:39:436] right pressed
[10/05/2022 11:46:39:506] Camera angle: 301.6894
[10/05/2022 11:46:39:544] right released
[10/05/2022 11:46:39:689] right pressed
[10/05/2022 11:46:39:727] Camera angle: 307.1134
[10/05/2022 11:46:39:803] Camera angle: 312.3978
[10/05/2022 11:46:39:826] right released
[10/05/2022 11:46:39:956] right pressed
[10/05/2022 11:46:40:13] Camera angle: 318.0674
[10/05/2022 11:46:40:55] right released
[10/05/2022 11:46:40:192] right pressed
[10/05/2022 11:46:40:223] Camera angle: 323.1367
[10/05/2022 11:46:40:298] right released
[10/05/2022 11:46:40:421] right pressed
[10/05/2022 11:46:40:421] Camera angle: 328.4984
[10/05/2022 11:46:40:497] Camera angle: 333.8091
[10/05/2022 11:46:40:550] right released
[10/05/2022 11:46:40:681] right pressed
[10/05/2022 11:46:40:705] Camera angle: 339.2591
[10/05/2022 11:46:40:780] Camera angle: 344.459
[10/05/2022 11:46:40:852] right released
[10/05/2022 11:46:41:835] right pressed
[10/05/2022 11:46:41:835] Camera angle: 349.4735
[10/05/2022 11:46:41:908] Camera angle: 354.5969
[10/05/2022 11:46:41:958] right released
[10/05/2022 11:46:46:444] right pressed
[10/05/2022 11:46:46:477] Camera angle: 359.7934
[10/05/2022 11:46:46:552] Camera angle: 5.014155
[10/05/2022 11:46:46:591] right released
[10/05/2022 11:46:47:903] left pressed
[10/05/2022 11:46:47:994] left released
[10/05/2022 11:46:48:505] right pressed
[10/05/2022 11:46:48:629] Camera angle: 10.65493
[10/05/2022 11:46:48:637] right released
[10/05/2022 11:46:48:866] right pressed
[10/05/2022 11:46:48:932] Camera angle: 16.47773
[10/05/2022 11:46:48:982] right released
[10/05/2022 11:46:49:113] right pressed
[10/05/2022 11:46:49:140] Camera angle: 21.71104
[10/05/2022 11:46:49:213] Camera angle: 26.83443
[10/05/2022 11:46:49:238] right released
[10/05/2022 11:46:49:402] right pressed
[10/05/2022 11:46:49:442] Camera angle: 32.14451
[10/05/2022 11:46:49:516] Camera angle: 37.28931
[10/05/2022 11:46:49:533] right released
[10/05/2022 11:46:49:674] right pressed
[10/05/2022 11:46:49:739] Camera angle: 42.47382
[10/05/2022 11:46:49:812] Camera angle: 47.60625
[10/05/2022 11:46:49:831] right released
[10/05/2022 11:46:50:535] right pressed
[10/05/2022 11:46:50:601] Camera angle: 53.28726
[10/05/2022 11:46:50:676] right released
[10/05/2022 11:46:50:848] right pressed
[10/05/2022 11:46:50:849] Camera angle: 58.48027
[10/05/2022 11:46:50:931] Camera angle: 64.2261
[10/05/2022 11:46:51:4] right released
[10/05/2022 11:46:52:99] right pressed
[10/05/2022 11:46:52:99] Camera angle: 69.33398
[10/05/2022 11:46:52:174] Camera angle: 74.53179
[10/05/2022 11:46:52:222] right released
[10/05/2022 11:46:52:445] right pressed
[10/05/2022 11:46:52:470] Camera angle: 79.69839
[10/05/2022 11:46:52:546] Camera angle: 85.0308
[10/05/2022 11:46:52:598] right released
[10/05/2022 11:46:52:772] right pressed
[10/05/2022 11:46:52:787] Camera angle: 90.26623
[10/05/2022 11:46:52:861] Camera angle: 95.39557
[10/05/2022 11:46:52:870] right released
[10/05/2022 11:46:53:0] right pressed
[10/05/2022 11:46:53:56] Camera angle: 100.5431
[10/05/2022 11:46:53:139] right released
[10/05/2022 11:46:53:253] right pressed
[10/05/2022 11:46:53:253] Camera angle: 106.4621
[10/05/2022 11:46:53:324] Camera angle: 111.4669
[10/05/2022 11:46:53:358] right released
[10/05/2022 11:46:53:494] right pressed
[10/05/2022 11:46:53:559] Camera angle: 117.6608
[10/05/2022 11:46:53:639] Camera angle: 123.1823
[10/05/2022 11:46:53:662] right released
[10/05/2022 11:46:53:874] right pressed
[10/05/2022 11:46:53:930] Camera angle: 128.6957
[10/05/2022 11:46:54:2] Camera angle: 133.7186
[10/05/2022 11:46:54:17] right released
[10/05/2022 11:46:54:220] right pressed
[10/05/2022 11:46:54:283] Camera angle: 139.1499
[10/05/2022 11:46:54:362] Camera angle: 144.6759
[10/05/2022 11:46:54:396] right released
[10/05/2022 11:46:54:527] right pressed
[10/05/2022 11:46:54:581] Camera angle: 149.9442
[10/05/2022 11:46:54:596] right released
[10/05/2022 11:46:54:736] right pressed
[10/05/2022 11:46:54:800] Camera angle: 155.5337
[10/05/2022 11:46:54:857] right released
[10/05/2022 11:46:55:10] right pressed
[10/05/2022 11:46:55:27] Camera angle: 160.6216
[10/05/2022 11:46:55:105] Camera angle: 166.0327
[10/05/2022 11:46:55:119] right released
[10/05/2022 11:46:55:263] right pressed
[10/05/2022 11:46:55:323] Camera angle: 171.1228
[10/05/2022 11:46:55:377] right released
[10/05/2022 11:46:55:507] right pressed
[10/05/2022 11:46:55:531] Camera angle: 176.5719
[10/05/2022 11:46:55:606] Camera angle: 181.9224
[10/05/2022 11:46:55:614] right released
[10/05/2022 11:46:55:767] right pressed
[10/05/2022 11:46:55:836] Camera angle: 187.2987
[10/05/2022 11:46:55:890] right released
[10/05/2022 11:46:56:40] right pressed
[10/05/2022 11:46:56:63] Camera angle: 192.5898
[10/05/2022 11:46:56:132] right released
[10/05/2022 11:46:56:356] right pressed
[10/05/2022 11:46:56:363] Camera angle: 197.9281
[10/05/2022 11:46:56:436] Camera angle: 203.09
[10/05/2022 11:46:56:509] right released
[10/05/2022 11:46:56:626] right pressed
[10/05/2022 11:46:56:626] Camera angle: 208.215
[10/05/2022 11:46:56:704] Camera angle: 213.6542
[10/05/2022 11:46:56:771] right released
[10/05/2022 11:46:56:909] right pressed
[10/05/2022 11:46:56:918] Camera angle: 218.9063
[10/05/2022 11:46:56:976] right released
[10/05/2022 11:46:57:108] right pressed
[10/05/2022 11:46:57:122] Camera angle: 224.0185
[10/05/2022 11:46:57:206] right released
[10/05/2022 11:46:57:356] right pressed
[10/05/2022 11:46:57:356] Camera angle: 229.2714
[10/05/2022 11:46:57:440] Camera angle: 235.1281
[10/05/2022 11:46:57:457] right released
[10/05/2022 11:46:57:606] right pressed
[10/05/2022 11:46:57:654] Camera angle: 240.3133
[10/05/2022 11:46:57:721] right released
[10/05/2022 11:46:57:878] right pressed
[10/05/2022 11:46:57:878] Camera angle: 245.6893
[10/05/2022 11:46:57:956] right released
[10/05/2022 11:46:58:92] right pressed
[10/05/2022 11:46:58:92] Camera angle: 250.8835
[10/05/2022 11:46:58:175] Camera angle: 256.7094
[10/05/2022 11:46:58:209] right released
[10/05/2022 11:46:58:307] right pressed
[10/05/2022 11:46:58:348] Camera angle: 261.8962
[10/05/2022 11:46:58:423] Camera angle: 267.0774
[10/05/2022 11:46:58:439] right released
[10/05/2022 11:46:58:488] right pressed
[10/05/2022 11:46:58:555] Camera angle: 272.3299
[10/05/2022 11:46:58:623] right released
[10/05/2022 11:46:58:756] right pressed
[10/05/2022 11:46:58:773] Camera angle: 278.2621
[10/05/2022 11:46:58:846] Camera angle: 283.4184
[10/05/2022 11:46:58:905] right released
[10/05/2022 11:46:59:377] right pressed
[10/05/2022 11:46:59:391] Camera angle: 288.7013
[10/05/2022 11:46:59:458] right released
[10/05/2022 11:46:59:643] right pressed
[10/05/2022 11:46:59:643] Camera angle: 294.1187
[10/05/2022 11:46:59:717] Camera angle: 299.3148
[10/05/2022 11:46:59:783] right released
[10/05/2022 11:46:59:980] right pressed
[10/05/2022 11:46:59:980] Camera angle: 304.7592
[10/05/2022 11:47:00:55] Camera angle: 310.0305
[10/05/2022 11:47:00:128] Camera angle: 315.1547
[10/05/2022 11:47:00:144] right released
[10/05/2022 11:47:01:663] right pressed
[10/05/2022 11:47:01:728] Camera angle: 320.3042
[10/05/2022 11:47:01:811] Camera angle: 326.1265
[10/05/2022 11:47:01:821] right released
[10/05/2022 11:47:01:984] right pressed
[10/05/2022 11:47:02:40] Camera angle: 331.2776
[10/05/2022 11:47:02:113] right released
[10/05/2022 11:47:02:284] right pressed
[10/05/2022 11:47:02:284] Camera angle: 336.9877
[10/05/2022 11:47:02:356] Camera angle: 342.0372
[10/05/2022 11:47:02:421] right released
[10/05/2022 11:47:02:870] right pressed
[10/05/2022 11:47:02:877] Camera angle: 347.0774
[10/05/2022 11:47:02:952] Camera angle: 352.3492
[10/05/2022 11:47:02:990] right released
[10/05/2022 11:47:03:574] right pressed
[10/05/2022 11:47:03:612] Camera angle: 357.7514
[10/05/2022 11:47:03:689] Camera angle: 3.19747
[10/05/2022 11:47:03:706] right released
[10/05/2022 11:47:09:891] right pressed
[10/05/2022 11:47:09:950] Camera angle: 8.493194
[10/05/2022 11:47:10:17] right released
[10/05/2022 11:47:10:172] right pressed
[10/05/2022 11:47:10:189] Camera angle: 13.67603
[10/05/2022 11:47:10:263] Camera angle: 18.87194
[10/05/2022 11:47:10:270] right released
[10/05/2022 11:47:10:373] right pressed
[10/05/2022 11:47:10:441] Camera angle: 24.24011
[10/05/2022 11:47:10:486] right released
[10/05/2022 11:47:10:620] right pressed
[10/05/2022 11:47:10:660] Camera angle: 30.1561
[10/05/2022 11:47:10:693] right released
[10/05/2022 11:47:10:807] right pressed
[10/05/2022 11:47:10:850] Camera angle: 35.39095
[10/05/2022 11:47:10:922] right released
[10/05/2022 11:47:11:108] right pressed
[10/05/2022 11:47:11:109] Camera angle: 40.40324
[10/05/2022 11:47:11:183] Camera angle: 45.61527
[10/05/2022 11:47:11:232] right released
[10/05/2022 11:47:15:292] right pressed
[10/05/2022 11:47:15:307] Camera angle: 50.70125
[10/05/2022 11:47:15:390] Camera angle: 56.46984
[10/05/2022 11:47:15:423] right released
[10/05/2022 11:47:15:554] right pressed
[10/05/2022 11:47:15:596] Camera angle: 61.61874
[10/05/2022 11:47:15:628] right released
[10/05/2022 11:47:15:725] right pressed
[10/05/2022 11:47:15:765] Camera angle: 66.67334
[10/05/2022 11:47:15:806] right released
[10/05/2022 11:47:15:904] right pressed
[10/05/2022 11:47:15:937] Camera angle: 71.72953
[10/05/2022 11:47:15:997] right released
[10/05/2022 11:47:16:78] right pressed
[10/05/2022 11:47:16:103] Camera angle: 76.93733
[10/05/2022 11:47:16:161] right released
[10/05/2022 11:47:16:241] right pressed
[10/05/2022 11:47:16:265] Camera angle: 82.03874
[10/05/2022 11:47:16:339] Camera angle: 87.18282
[10/05/2022 11:47:16:356] right released
[10/05/2022 11:47:16:398] right pressed
[10/05/2022 11:47:16:463] Camera angle: 92.46313
[10/05/2022 11:47:16:536] Camera angle: 97.52094
[10/05/2022 11:47:16:609] Camera angle: 102.6259
[10/05/2022 11:47:16:692] Camera angle: 108.407
[10/05/2022 11:47:16:764] Camera angle: 113.4811
[10/05/2022 11:47:16:840] Camera angle: 118.7515
[10/05/2022 11:47:16:864] right released
[10/05/2022 11:47:17:363] right pressed
[10/05/2022 11:47:17:413] Camera angle: 123.9593
[10/05/2022 11:47:17:488] Camera angle: 129.2146
[10/05/2022 11:47:17:497] right released
[10/05/2022 11:47:17:646] right pressed
[10/05/2022 11:47:17:713] Camera angle: 134.4056
[10/05/2022 11:47:17:731] right released
[10/05/2022 11:47:17:863] right pressed
[10/05/2022 11:47:17:928] Camera angle: 140.3063
[10/05/2022 11:47:17:961] right released
[10/05/2022 11:47:18:58] right pressed
[10/05/2022 11:47:18:99] Camera angle: 145.3683
[10/05/2022 11:47:18:147] right released
[10/05/2022 11:47:18:264] right pressed
[10/05/2022 11:47:18:280] Camera angle: 150.5472
[10/05/2022 11:47:18:363] right released
[10/05/2022 11:47:18:496] right pressed
[10/05/2022 11:47:18:496] Camera angle: 156.4335
[10/05/2022 11:47:18:571] Camera angle: 161.6607
[10/05/2022 11:47:18:579] right released
[10/05/2022 11:47:18:696] right pressed
[10/05/2022 11:47:18:761] Camera angle: 167.4764
[10/05/2022 11:47:18:833] Camera angle: 172.5362
[10/05/2022 11:47:18:858] right released
[10/05/2022 11:47:19:919] right pressed
[10/05/2022 11:47:19:976] Camera angle: 177.7079
[10/05/2022 11:47:19:999] right released
[10/05/2022 11:47:20:164] right pressed
[10/05/2022 11:47:20:205] Camera angle: 182.9007
[10/05/2022 11:47:20:270] right released
[10/05/2022 11:47:20:375] right pressed
[10/05/2022 11:47:20:407] Camera angle: 189.0535
[10/05/2022 11:47:20:487] Camera angle: 194.6822
[10/05/2022 11:47:20:496] right released
[10/05/2022 11:47:20:599] right pressed
[10/05/2022 11:47:20:671] Camera angle: 200.1716
[10/05/2022 11:47:20:701] right released
[10/05/2022 11:47:20:820] right pressed
[10/05/2022 11:47:20:867] Camera angle: 205.6375
[10/05/2022 11:47:20:915] right released
[10/05/2022 11:47:21:50] right pressed
[10/05/2022 11:47:21:73] Camera angle: 210.6911
[10/05/2022 11:47:21:151] Camera angle: 216.1421
[10/05/2022 11:47:21:192] right released
[10/05/2022 11:47:21:309] right pressed
[10/05/2022 11:47:21:357] Camera angle: 221.6936
[10/05/2022 11:47:21:403] right released
[10/05/2022 11:47:21:522] right pressed
[10/05/2022 11:47:21:553] Camera angle: 227.0464
[10/05/2022 11:47:21:630] Camera angle: 232.4524
[10/05/2022 11:47:21:638] right released
[10/05/2022 11:47:23:446] right pressed
[10/05/2022 11:47:23:510] Camera angle: 237.5865
[10/05/2022 11:47:23:571] right released
[10/05/2022 11:47:23:701] right pressed
[10/05/2022 11:47:23:717] Camera angle: 242.7945
[10/05/2022 11:47:23:801] right released
[10/05/2022 11:47:23:900] right pressed
[10/05/2022 11:47:23:900] Camera angle: 248.6079
[10/05/2022 11:47:23:976] Camera angle: 253.8487
[10/05/2022 11:47:24:8] right released
[10/05/2022 11:47:24:108] right pressed
[10/05/2022 11:47:24:147] Camera angle: 258.9729
[10/05/2022 11:47:24:207] right released
[10/05/2022 11:47:24:332] right pressed
[10/05/2022 11:47:24:341] Camera angle: 264.4148
[10/05/2022 11:47:24:414] right released
[10/05/2022 11:47:24:531] right pressed
[10/05/2022 11:47:24:531] Camera angle: 270.3052
[10/05/2022 11:47:24:604] Camera angle: 275.4174
[10/05/2022 11:47:24:637] right released
[10/05/2022 11:47:24:744] right pressed
[10/05/2022 11:47:24:801] Camera angle: 281.1318
[10/05/2022 11:47:24:876] Camera angle: 286.4003
[10/05/2022 11:47:24:900] right released
[10/05/2022 11:47:26:176] right pressed
[10/05/2022 11:47:26:233] Camera angle: 291.4955
[10/05/2022 11:47:26:308] Camera angle: 296.7156
[10/05/2022 11:47:26:324] right released
[10/05/2022 11:47:26:487] right pressed
[10/05/2022 11:47:26:544] Camera angle: 301.8459
[10/05/2022 11:47:26:577] right released
[10/05/2022 11:47:26:710] right pressed
[10/05/2022 11:47:26:750] Camera angle: 306.9497
[10/05/2022 11:47:26:809] right released
[10/05/2022 11:47:26:940] right pressed
[10/05/2022 11:47:26:946] Camera angle: 312.1805
[10/05/2022 11:47:27:12] right released
[10/05/2022 11:47:27:136] right pressed
[10/05/2022 11:47:27:136] Camera angle: 317.4408
[10/05/2022 11:47:27:209] Camera angle: 322.6031
[10/05/2022 11:47:27:243] right released
[10/05/2022 11:47:27:309] right pressed
[10/05/2022 11:47:27:340] Camera angle: 327.8481
[10/05/2022 11:47:27:413] right released
[10/05/2022 11:47:27:543] right pressed
[10/05/2022 11:47:27:543] Camera angle: 332.9428
[10/05/2022 11:47:27:617] Camera angle: 338.1001
[10/05/2022 11:47:27:650] right released
[10/05/2022 11:47:27:757] right pressed
[10/05/2022 11:47:27:807] Camera angle: 343.9689
[10/05/2022 11:47:27:873] right released
[10/05/2022 11:47:28:84] right pressed
[10/05/2022 11:47:28:101] Camera angle: 349.1179
[10/05/2022 11:47:28:142] right released
[10/05/2022 11:47:28:401] right pressed
[10/05/2022 11:47:28:443] Camera angle: 354.966
[10/05/2022 11:47:28:511] right released
[10/05/2022 11:47:28:709] right pressed
[10/05/2022 11:47:28:718] Camera angle: 0.3223291
[10/05/2022 11:47:28:791] right released
[10/05/2022 11:47:31:687] left pressed
[10/05/2022 11:47:31:733] left released
[10/05/2022 11:47:44:506] left pressed
[10/05/2022 11:47:44:597] Camera angle: 354.7905
[10/05/2022 11:47:44:631] left released
[10/05/2022 11:47:45:588] left pressed
[10/05/2022 11:47:45:621] Camera angle: 349.4928
[10/05/2022 11:47:45:695] Camera angle: 344.3355
[10/05/2022 11:47:45:767] Camera angle: 339.2336
[10/05/2022 11:47:45:841] Camera angle: 334.0702
[10/05/2022 11:47:45:924] Camera angle: 328.2643
[10/05/2022 11:47:45:998] Camera angle: 323.1018
[10/05/2022 11:47:46:73] Camera angle: 317.8826
[10/05/2022 11:47:46:156] Camera angle: 312.0388
[10/05/2022 11:47:46:231] Camera angle: 306.7822
[10/05/2022 11:47:46:304] Camera angle: 301.6773
[10/05/2022 11:47:46:391] Camera angle: 295.5811
[10/05/2022 11:47:46:468] Camera angle: 290.2258
[10/05/2022 11:47:46:543] Camera angle: 284.9129
[10/05/2022 11:47:46:621] Camera angle: 279.511
[10/05/2022 11:47:46:695] Camera angle: 274.3092
[10/05/2022 11:47:46:768] Camera angle: 269.2183
[10/05/2022 11:47:46:841] Camera angle: 264.0668
[10/05/2022 11:47:46:924] Camera angle: 258.2464
[10/05/2022 11:47:47:0] Camera angle: 252.9641
[10/05/2022 11:47:47:74] left released
[10/05/2022 11:47:47:285] left pressed
[10/05/2022 11:47:47:286] Camera angle: 247.937
[10/05/2022 11:47:47:359] Camera angle: 242.7696
[10/05/2022 11:47:47:433] Camera angle: 237.6006
[10/05/2022 11:47:47:507] Camera angle: 232.4808
[10/05/2022 11:47:47:581] Camera angle: 227.2523
[10/05/2022 11:47:47:653] Camera angle: 222.2235
[10/05/2022 11:47:47:726] Camera angle: 217.0786
[10/05/2022 11:47:47:800] Camera angle: 211.943
[10/05/2022 11:47:47:858] left released
[10/05/2022 11:47:48:957] right pressed
[10/05/2022 11:47:49:67] Camera angle: 217.2863
[10/05/2022 11:47:49:143] Camera angle: 222.5899
[10/05/2022 11:47:49:217] Camera angle: 227.8628
[10/05/2022 11:47:49:295] Camera angle: 233.2605
[10/05/2022 11:47:49:371] Camera angle: 238.6133
[10/05/2022 11:47:49:449] Camera angle: 244.0173
[10/05/2022 11:47:49:525] Camera angle: 249.3165
[10/05/2022 11:47:49:599] Camera angle: 254.5869
[10/05/2022 11:47:49:677] Camera angle: 259.997
[10/05/2022 11:47:49:754] Camera angle: 265.3646
[10/05/2022 11:47:49:830] Camera angle: 270.7213
[10/05/2022 11:47:49:906] Camera angle: 276.0371
[10/05/2022 11:47:49:982] Camera angle: 281.3523
[10/05/2022 11:47:50:58] Camera angle: 286.6967
[10/05/2022 11:47:50:134] Camera angle: 291.987
[10/05/2022 11:47:50:165] Quiz question: <Which European city hosted the 1936 Summer Olympics>, Target: <Annie>, Distractor: <Maria>, Target_Answer: <London>, Distractor_Answer: <Berlin>, Target_correct: <False>
[10/05/2022 11:47:50:166] RightAnswerTask: Showing onscreen question 1
[10/05/2022 11:47:50:211] Camera angle: 297.3987
[10/05/2022 11:47:50:283] Camera angle: 302.4067
[10/05/2022 11:47:50:316] right released
[10/05/2022 11:47:53:531] RightAnswerTask: Correct answer 1 logged (Distractor correct, D pressed)
[10/05/2022 11:47:59:634] right pressed
[10/05/2022 11:47:59:674] Camera angle: 307.4728
[10/05/2022 11:47:59:750] Camera angle: 312.7519
[10/05/2022 11:47:59:768] right released
[10/05/2022 11:47:59:950] right pressed
[10/05/2022 11:48:00:16] Camera angle: 317.8943
[10/05/2022 11:48:00:49] right released
[10/05/2022 11:48:00:238] right pressed
[10/05/2022 11:48:00:270] Camera angle: 323.1554
[10/05/2022 11:48:00:303] right released
[10/05/2022 11:48:00:467] right pressed
[10/05/2022 11:48:00:509] Camera angle: 328.3079
[10/05/2022 11:48:00:542] right released
[10/05/2022 11:48:00:711] right pressed
[10/05/2022 11:48:00:752] Camera angle: 333.4088
[10/05/2022 11:48:00:836] right released
[10/05/2022 11:48:01:39] right pressed
[10/05/2022 11:48:01:39] Camera angle: 339.1733
[10/05/2022 11:48:01:112] Camera angle: 344.2718
[10/05/2022 11:48:01:145] right released
[10/05/2022 11:48:01:316] right pressed
[10/05/2022 11:48:01:356] Camera angle: 349.3314
[10/05/2022 11:48:01:414] right released
[10/05/2022 11:48:06:182] right pressed
[10/05/2022 11:48:06:191] Camera angle: 354.6616
[10/05/2022 11:48:06:268] Camera angle: 0.07119213
[10/05/2022 11:48:06:346] Camera angle: 5.566928
[10/05/2022 11:48:06:369] right released
[10/05/2022 11:48:06:493] right pressed
[10/05/2022 11:48:06:549] Camera angle: 11.00297
[10/05/2022 11:48:06:625] Camera angle: 16.30724
[10/05/2022 11:48:06:641] right released
[10/05/2022 11:48:08:335] left pressed
[10/05/2022 11:48:08:407] left released
[10/05/2022 11:48:08:743] left pressed
[10/05/2022 11:48:08:743] Camera angle: 10.384
[10/05/2022 11:48:08:818] Camera angle: 5.163154
[10/05/2022 11:48:08:843] left released
[10/05/2022 11:48:10:281] left pressed
[10/05/2022 11:48:10:347] left released
[10/05/2022 11:48:10:544] right pressed
[10/05/2022 11:48:10:684] Camera angle: 11.10963
[10/05/2022 11:48:10:756] Camera angle: 16.20409
[10/05/2022 11:48:10:830] Camera angle: 21.36868
[10/05/2022 11:48:10:912] Camera angle: 27.10392
[10/05/2022 11:48:10:986] Camera angle: 32.28354
[10/05/2022 11:48:11:59] Camera angle: 37.36628
[10/05/2022 11:48:11:68] right released
[10/05/2022 11:48:11:517] right pressed
[10/05/2022 11:48:11:581] Camera angle: 43.09198
[10/05/2022 11:48:11:655] Camera angle: 48.25185
[10/05/2022 11:48:11:680] right released
[10/05/2022 11:48:11:845] right pressed
[10/05/2022 11:48:11:886] right released
[10/05/2022 11:48:17:151] Quiz question: <When is World Literacy Day celebrated>, Target: <John>, Distractor: <Susan>, Target_Answer: <October 7>, Distractor_Answer: <September 8>, Target_correct: <False>
[10/05/2022 11:48:17:152] RightAnswerTask: Showing onscreen question 2
[10/05/2022 11:48:21:39] RightAnswerTask: Correct answer 2 logged (Distractor correct, D pressed)
[10/05/2022 11:48:28:677] left pressed
[10/05/2022 11:48:28:767] left released
[10/05/2022 11:48:29:171] left pressed
[10/05/2022 11:48:29:231] left released
[10/05/2022 11:48:29:370] left pressed
[10/05/2022 11:48:29:371] Camera angle: 42.76756
[10/05/2022 11:48:29:443] left released
[10/05/2022 11:48:29:574] left pressed
[10/05/2022 11:48:29:574] Camera angle: 37.64766
[10/05/2022 11:48:29:640] left released
[10/05/2022 11:48:29:773] left pressed
[10/05/2022 11:48:29:782] Camera angle: 32.49928
[10/05/2022 11:48:29:865] left released
[10/05/2022 11:48:29:997] left pressed
[10/05/2022 11:48:29:997] Camera angle: 26.5625
[10/05/2022 11:48:30:71] Camera angle: 21.42333
[10/05/2022 11:48:30:81] left released
[10/05/2022 11:48:30:203] left pressed
[10/05/2022 11:48:30:269] Camera angle: 15.62789
[10/05/2022 11:48:30:310] left released
[10/05/2022 11:48:30:631] left pressed
[10/05/2022 11:48:30:664] Camera angle: 9.788753
[10/05/2022 11:48:30:740] Camera angle: 4.491811
[10/05/2022 11:48:30:764] left released
[10/05/2022 11:48:36:524] right pressed
[10/05/2022 11:48:36:605] Camera angle: 10.28585
[10/05/2022 11:48:36:677] Camera angle: 15.36768
[10/05/2022 11:48:36:703] right released
[10/05/2022 11:48:36:811] right pressed
[10/05/2022 11:48:36:860] Camera angle: 20.61778
[10/05/2022 11:48:36:912] right released
[10/05/2022 11:48:37:9] right pressed
[10/05/2022 11:48:37:41] Camera angle: 26.4369
[10/05/2022 11:48:37:114] right released
[10/05/2022 11:48:37:236] right pressed
[10/05/2022 11:48:37:237] Camera angle: 32.19706
[10/05/2022 11:48:37:310] Camera angle: 37.42288
[10/05/2022 11:48:37:351] right released
[10/05/2022 11:48:43:150] Quiz question: <How far is the target in Olympic Archery>, Target: <John>, Distractor: <Annie>, Target_Answer: <70 metres>, Distractor_Answer: <80 metres>, Target_correct: <True>
[10/05/2022 11:48:43:151] RightAnswerTask: Showing onscreen question 3
[10/05/2022 11:48:45:190] RightAnswerTask: Correct answer 3 logged (Target correct, A pressed)
[10/05/2022 11:48:47:996] left pressed
[10/05/2022 11:48:48:95] Camera angle: 32.34852
[10/05/2022 11:48:48:128] left released
[10/05/2022 11:48:48:315] left pressed
[10/05/2022 11:48:48:347] Camera angle: 27.13222
[10/05/2022 11:48:48:362] left released
[10/05/2022 11:48:48:520] left pressed
[10/05/2022 11:48:48:568] Camera angle: 21.9686
[10/05/2022 11:48:48:586] left released
[10/05/2022 11:48:48:748] left pressed
[10/05/2022 11:48:48:805] Camera angle: 16.77752
[10/05/2022 11:48:48:822] left released
[10/05/2022 11:48:48:970] left pressed
[10/05/2022 11:48:49:35] Camera angle: 11.6247
[10/05/2022 11:48:49:86] left released
[10/05/2022 11:48:49:484] left pressed
[10/05/2022 11:48:49:518] Camera angle: 5.712826
[10/05/2022 11:48:49:561] left released
[10/05/2022 11:48:49:784] left pressed
[10/05/2022 11:48:49:817] Camera angle: 359.7178
[10/05/2022 11:48:49:882] left released
[10/05/2022 11:49:01:433] right pressed
[10/05/2022 11:49:01:540] Camera angle: 4.976622
[10/05/2022 11:49:01:598] right released
[10/05/2022 11:49:01:834] right pressed
[10/05/2022 11:49:01:850] Camera angle: 10.18351
[10/05/2022 11:49:01:934] Camera angle: 16.02348
[10/05/2022 11:49:01:950] right released
[10/05/2022 11:49:02:66] right pressed
[10/05/2022 11:49:02:115] Camera angle: 21.12145
[10/05/2022 11:49:02:166] right released
[10/05/2022 11:49:02:297] right pressed
[10/05/2022 11:49:02:331] Camera angle: 27.0712
[10/05/2022 11:49:02:395] right released
[10/05/2022 11:49:02:516] right pressed
[10/05/2022 11:49:02:542] Camera angle: 32.658
[10/05/2022 11:49:02:599] right released
[10/05/2022 11:49:03:232] right pressed
[10/05/2022 11:49:03:248] Camera angle: 37.8239
[10/05/2022 11:49:03:332] Camera angle: 43.68546
[10/05/2022 11:49:03:366] right released
[10/05/2022 11:49:08:171] Quiz question: <What was invented by James Dewer in 1872>, Target: <John>, Distractor: <Susan>, Target_Answer: <Steam pump>, Distractor_Answer: <Thermos flask>, Target_correct: <False>
[10/05/2022 11:49:08:172] RightAnswerTask: Showing onscreen question 4
[10/05/2022 11:49:15:499] RightAnswerTask: Correct answer 4 logged (Distractor correct, D pressed)
[10/05/2022 11:49:19:292] left pressed
[10/05/2022 11:49:19:365] left released
[10/05/2022 11:49:19:547] left pressed
[10/05/2022 11:49:19:556] Camera angle: 38.19667
[10/05/2022 11:49:19:630] Camera angle: 33.00635
[10/05/2022 11:49:19:647] left released
[10/05/2022 11:49:19:785] left pressed
[10/05/2022 11:49:19:851] left released
[10/05/2022 11:49:19:990] left pressed
[10/05/2022 11:49:19:991] Camera angle: 27.86187
[10/05/2022 11:49:20:47] left released
[10/05/2022 11:49:20:180] left pressed
[10/05/2022 11:49:20:195] Camera angle: 22.77194
[10/05/2022 11:49:20:269] left released
[10/05/2022 11:49:20:399] left pressed
[10/05/2022 11:49:20:400] Camera angle: 17.67467
[10/05/2022 11:49:20:483] left released
[10/05/2022 11:49:20:655] left pressed
[10/05/2022 11:49:20:655] Camera angle: 12.5044
[10/05/2022 11:49:20:726] Camera angle: 7.473752
[10/05/2022 11:49:20:752] left released
[10/05/2022 11:49:21:315] left pressed
[10/05/2022 11:49:21:365] Camera angle: 2.297378
[10/05/2022 11:49:21:449] left released
[10/05/2022 11:49:21:747] left pressed
[10/05/2022 11:49:21:748] Camera angle: 357.1173
[10/05/2022 11:49:21:823] Camera angle: 351.8683
[10/05/2022 11:49:21:853] left released
[10/05/2022 11:49:24:852] left pressed
[10/05/2022 11:49:24:900] Camera angle: 346.348
[10/05/2022 11:49:24:958] left released
[10/05/2022 11:49:25:633] right pressed
[10/05/2022 11:49:25:738] Camera angle: 351.5053
[10/05/2022 11:49:25:822] Camera angle: 357.3477
[10/05/2022 11:49:25:896] Camera angle: 2.538757
[10/05/2022 11:49:25:972] Camera angle: 7.826992
[10/05/2022 11:49:26:55] Camera angle: 13.65368
[10/05/2022 11:49:26:128] Camera angle: 18.77189
[10/05/2022 11:49:26:201] Camera angle: 23.89252
[10/05/2022 11:49:26:274] Camera angle: 28.96863
[10/05/2022 11:49:26:358] Camera angle: 34.81621
[10/05/2022 11:49:26:431] Camera angle: 39.97337
[10/05/2022 11:49:26:505] Camera angle: 45.15284
[10/05/2022 11:49:26:588] Camera angle: 50.98853
[10/05/2022 11:49:26:662] Camera angle: 56.17381
[10/05/2022 11:49:26:737] Camera angle: 61.38137
[10/05/2022 11:49:26:822] Camera angle: 67.31627
[10/05/2022 11:49:26:894] Camera angle: 72.37736
[10/05/2022 11:49:26:968] Camera angle: 77.53841
[10/05/2022 11:49:27:41] Camera angle: 82.64993
[10/05/2022 11:49:27:126] Camera angle: 88.61685
[10/05/2022 11:49:27:199] Camera angle: 93.7384
[10/05/2022 11:49:27:273] Camera angle: 98.89509
[10/05/2022 11:49:27:357] Camera angle: 104.7364
[10/05/2022 11:49:27:432] Camera angle: 109.9807
[10/05/2022 11:49:27:462] right released
[10/05/2022 11:49:30:48] left pressed
[10/05/2022 11:49:30:146] Camera angle: 104.2521
[10/05/2022 11:49:30:202] left released
[10/05/2022 11:49:31:153] Quiz question: <Where is the largest bowlilng alley>, Target: <Elizabeth>, Distractor: <Maria>, Target_Answer: <Japan>, Distractor_Answer: <Minnesota>, Target_correct: <True>
[10/05/2022 11:49:31:153] RightAnswerTask: Showing onscreen question 5
[10/05/2022 11:49:31:296] right pressed
[10/05/2022 11:49:31:407] Camera angle: 109.31
[10/05/2022 11:49:31:432] right released
[10/05/2022 11:49:32:960] RightAnswerTask: Correct answer 5 logged (Target correct, A pressed)
[10/05/2022 11:49:33:774] right pressed
[10/05/2022 11:49:33:826] Camera angle: 114.5961
[10/05/2022 11:49:33:902] Camera angle: 119.9024
[10/05/2022 11:49:33:978] Camera angle: 125.2583
[10/05/2022 11:49:34:54] Camera angle: 130.5608
[10/05/2022 11:49:34:131] Camera angle: 135.9194
[10/05/2022 11:49:34:206] Camera angle: 141.2166
[10/05/2022 11:49:34:282] Camera angle: 146.5267
[10/05/2022 11:49:34:357] Camera angle: 151.7665
[10/05/2022 11:49:34:434] Camera angle: 157.1912
[10/05/2022 11:49:34:516] Camera angle: 162.8103
[10/05/2022 11:49:34:580] right released
[10/05/2022 11:49:34:868] right pressed
[10/05/2022 11:49:34:868] Camera angle: 167.9718
[10/05/2022 11:49:34:942] Camera angle: 173.1339
[10/05/2022 11:49:35:15] right released
[10/05/2022 11:49:35:195] right pressed
[10/05/2022 11:49:35:195] Camera angle: 178.8693
[10/05/2022 11:49:35:268] Camera angle: 183.9704
[10/05/2022 11:49:35:343] right released
[10/05/2022 11:49:35:664] right pressed
[10/05/2022 11:49:35:665] Camera angle: 189.7671
[10/05/2022 11:49:35:737] Camera angle: 194.8746
[10/05/2022 11:49:35:771] right released
[10/05/2022 11:49:36:42] right pressed
[10/05/2022 11:49:36:84] Camera angle: 200.1029
[10/05/2022 11:49:36:167] Camera angle: 205.9522
[10/05/2022 11:49:36:201] right released
[10/05/2022 11:49:36:534] right pressed
[10/05/2022 11:49:36:570] Camera angle: 211.1427
[10/05/2022 11:49:36:628] right released
[10/05/2022 11:49:37:683] right pressed
[10/05/2022 11:49:37:708] Camera angle: 216.3419
[10/05/2022 11:49:37:783] Camera angle: 221.5932
[10/05/2022 11:49:37:817] right released
[10/05/2022 11:49:43:146] Starting SAGAT 1
[10/05/2022 11:49:43:147] SAGAT question loaded: "What kind of social event is taking place here?" Answers: Debate ; [Quiz] ; Workshop ; Exam ; Focus Group ; Presentation ; )
[10/05/2022 11:49:43:253] right pressed
[10/05/2022 11:49:43:405] right released
[10/05/2022 11:49:48:794] Toggle pressed: Quiz
[10/05/2022 11:49:50:799] SAGAT answer given: "Quiz" (correct; "Quiz")
[10/05/2022 11:49:50:800] SAGAT question loaded: "Who was asked to answer a question most recently?" Answers: [Elizabeth] ; Susan ; Carlos ; John ; Maria ; Annie ; )
[10/05/2022 11:50:01:114] Toggle pressed: Elizabeth
[10/05/2022 11:50:03:814] SAGAT answer given: "Elizabeth" (correct; "Elizabeth")
[10/05/2022 11:50:03:815] SAGAT question loaded: "Who last answered incorrectly?" Answers: Susan ; Annie ; Carlos ; [Maria] ; Elizabeth ; John ; )
[10/05/2022 11:50:09:840] Toggle pressed: John
[10/05/2022 11:50:11:704] SAGAT answer given: "John" (incorrect; "Maria")
[10/05/2022 11:50:11:704] SAGAT question loaded: "What was the most recent quiz question?" Answers: [Where is the largest bowlilng alley] ; What continent covers four hemispheres? ; How far is the target in Olympic Archery ; What was invented by James Dewer in 1872 ; When is World Literacy Day celebrated ; What pigment is mercurial sulfate? ; )
[10/05/2022 11:50:15:281] Toggle pressed: Where is the largest bowlilng alley
[10/05/2022 11:50:17:790] SAGAT answer given: "Where is the largest bowlilng alley" (correct; "Where is the largest bowlilng alley")
[10/05/2022 11:50:17:791] SAGAT question loaded: "What is the colour of the quiz master's shirt?" Answers: Green ; White ; Blue ; [Brown] ; Black ; Yellow ; )
[10/05/2022 11:50:21:479] Toggle pressed: I don't know
[10/05/2022 11:50:22:862] SAGAT answer given: "I don't know" (incorrect; "Brown")
[10/05/2022 11:50:22:862] SAGAT Complete
[10/05/2022 11:50:27:963] left pressed
[10/05/2022 11:50:28:44] Camera angle: 216.3656
[10/05/2022 11:50:28:78] left released
[10/05/2022 11:50:28:594] left pressed
[10/05/2022 11:50:28:627] Camera angle: 211.0348
[10/05/2022 11:50:28:702] Camera angle: 205.8179
[10/05/2022 11:50:28:776] Camera angle: 200.6187
[10/05/2022 11:50:28:860] Camera angle: 194.7243
[10/05/2022 11:50:28:933] Camera angle: 189.6161
[10/05/2022 11:50:29:7] Camera angle: 184.4682
[10/05/2022 11:50:29:80] Camera angle: 179.3186
[10/05/2022 11:50:29:154] Camera angle: 174.1284
[10/05/2022 11:50:29:227] Camera angle: 169.0362
[10/05/2022 11:50:29:301] Camera angle: 163.8976
[10/05/2022 11:50:29:375] Camera angle: 158.707
[10/05/2022 11:50:29:447] Camera angle: 153.595
[10/05/2022 11:50:29:520] Camera angle: 148.4874
[10/05/2022 11:50:29:594] Camera angle: 143.3342
[10/05/2022 11:50:29:610] left released
[10/05/2022 11:50:29:953] left pressed
[10/05/2022 11:50:30:11] Camera angle: 138.1894
[10/05/2022 11:50:30:93] Camera angle: 132.4303
[10/05/2022 11:50:30:171] Camera angle: 126.9431
[10/05/2022 11:50:30:201] left released
[10/05/2022 11:50:30:729] right pressed
[10/05/2022 11:50:30:817] Camera angle: 131.9531
[10/05/2022 11:50:30:893] Camera angle: 137.2815
[10/05/2022 11:50:30:969] Camera angle: 142.6661
[10/05/2022 11:50:31:45] Camera angle: 147.9411
[10/05/2022 11:50:31:122] Camera angle: 153.3259
[10/05/2022 11:50:31:199] Camera angle: 158.6723
[10/05/2022 11:50:31:275] Camera angle: 164.0618
[10/05/2022 11:50:31:351] Camera angle: 169.3631
[10/05/2022 11:50:31:427] Camera angle: 174.6638
[10/05/2022 11:50:31:504] Camera angle: 180.0462
[10/05/2022 11:50:31:581] Camera angle: 185.4535
[10/05/2022 11:50:31:656] Camera angle: 190.7037
[10/05/2022 11:50:31:687] right released
[10/05/2022 11:50:31:884] right pressed
[10/05/2022 11:50:31:929] Camera angle: 196.0064
[10/05/2022 11:50:32:6] Camera angle: 201.3917
[10/05/2022 11:50:32:36] right released
[10/05/2022 11:50:32:129] right pressed
[10/05/2022 11:50:32:177] Camera angle: 206.8812
[10/05/2022 11:50:32:251] Camera angle: 212.0526
[10/05/2022 11:50:32:292] right released
[10/05/2022 11:50:32:389] right pressed
[10/05/2022 11:50:32:422] Camera angle: 217.1645
[10/05/2022 11:50:32:497] Camera angle: 222.3862
[10/05/2022 11:50:32:531] right released
[10/05/2022 11:50:36:657] right pressed
[10/05/2022 11:50:36:707] Camera angle: 227.6373
[10/05/2022 11:50:36:774] right released
[10/05/2022 11:50:36:873] Quiz question: <Who was the first Tsar of Russia>, Target: <Susan>, Distractor: <John>, Target_Answer: <Ivan the Terrible>, Distractor_Answer: <Catherine the Great>, Target_correct: <True>
[10/05/2022 11:50:36:874] RightAnswerTask: Showing onscreen question 6
[10/05/2022 11:50:36:956] right pressed
[10/05/2022 11:50:36:973] Camera angle: 232.9556
[10/05/2022 11:50:37:47] Camera angle: 238.0938
[10/05/2022 11:50:37:107] right released
[10/05/2022 11:50:39:702] RightAnswerTask: Correct answer 6 logged (Target correct, D pressed)
[10/05/2022 11:50:45:696] right pressed
[10/05/2022 11:50:45:721] Camera angle: 243.2669
[10/05/2022 11:50:45:794] Camera angle: 248.3645
[10/05/2022 11:50:45:853] right released
[10/05/2022 11:50:45:991] right pressed
[10/05/2022 11:50:46:9] Camera angle: 253.5547
[10/05/2022 11:50:46:84] right released
[10/05/2022 11:50:46:188] right pressed
[10/05/2022 11:50:46:189] Camera angle: 258.7342
[10/05/2022 11:50:46:261] Camera angle: 263.8369
[10/05/2022 11:50:46:280] right released
[10/05/2022 11:50:46:413] right pressed
[10/05/2022 11:50:46:463] Camera angle: 269.0742
[10/05/2022 11:50:46:512] right released
[10/05/2022 11:50:46:677] right pressed
[10/05/2022 11:50:46:693] Camera angle: 274.1821
[10/05/2022 11:50:46:768] Camera angle: 279.4377
[10/05/2022 11:50:46:793] right released
[10/05/2022 11:50:46:940] right pressed
[10/05/2022 11:50:46:999] Camera angle: 285.2139
[10/05/2022 11:50:47:72] Camera angle: 290.3601
[10/05/2022 11:50:47:81] right released
[10/05/2022 11:50:47:478] right pressed
[10/05/2022 11:50:47:542] Camera angle: 295.4055
[10/05/2022 11:50:47:615] right released
[10/05/2022 11:50:47:743] right pressed
[10/05/2022 11:50:47:743] Camera angle: 300.5168
[10/05/2022 11:50:47:815] Camera angle: 305.5553
[10/05/2022 11:50:47:861] right released
[10/05/2022 11:50:47:968] right pressed
[10/05/2022 11:50:47:998] Camera angle: 310.8978
[10/05/2022 11:50:48:74] Camera angle: 316.1905
[10/05/2022 11:50:48:83] right released
[10/05/2022 11:50:48:181] right pressed
[10/05/2022 11:50:48:251] Camera angle: 321.5386
[10/05/2022 11:50:48:303] right released
[10/05/2022 11:50:48:409] right pressed
[10/05/2022 11:50:48:433] Camera angle: 326.9027
[10/05/2022 11:50:48:509] Camera angle: 332.2037
[10/05/2022 11:50:48:584] right released
[10/05/2022 11:50:48:745] right pressed
[10/05/2022 11:50:48:745] Camera angle: 337.6157
[10/05/2022 11:50:48:820] Camera angle: 342.879
[10/05/2022 11:50:48:897] Camera angle: 348.2452
[10/05/2022 11:50:48:934] right released
[10/05/2022 11:50:51:426] left pressed
[10/05/2022 11:50:51:500] left released
[10/05/2022 11:50:55:329] left pressed
[10/05/2022 11:50:55:353] Camera angle: 342.7405
[10/05/2022 11:50:55:427] left released
[10/05/2022 11:50:55:955] right pressed
[10/05/2022 11:50:56:94] Camera angle: 348.3311
[10/05/2022 11:50:56:167] Camera angle: 353.4716
[10/05/2022 11:50:56:248] Camera angle: 359.1247
[10/05/2022 11:50:56:324] Camera angle: 4.482645
[10/05/2022 11:50:56:403] Camera angle: 9.9834
[10/05/2022 11:50:56:480] Camera angle: 15.42805
[10/05/2022 11:50:56:559] Camera angle: 20.90886
[10/05/2022 11:50:56:631] Camera angle: 25.95675
[10/05/2022 11:50:56:703] Camera angle: 31.05094
[10/05/2022 11:50:56:776] Camera angle: 36.1469
[10/05/2022 11:50:56:854] Camera angle: 41.54959
[10/05/2022 11:50:56:931] Camera angle: 46.91713
[10/05/2022 11:50:57:6] Camera angle: 52.19608
[10/05/2022 11:50:57:81] Camera angle: 57.47869
[10/05/2022 11:50:57:158] Camera angle: 62.83892
[10/05/2022 11:50:57:234] Camera angle: 68.13338
[10/05/2022 11:50:57:310] Camera angle: 73.48459
[10/05/2022 11:50:57:387] Camera angle: 78.82799
[10/05/2022 11:50:57:463] Camera angle: 84.19711
[10/05/2022 11:50:57:538] Camera angle: 89.45137
[10/05/2022 11:50:57:614] Camera angle: 94.75291
[10/05/2022 11:50:57:691] Camera angle: 100.1544
[10/05/2022 11:50:57:765] Camera angle: 105.3789
[10/05/2022 11:50:57:842] Camera angle: 110.7372
[10/05/2022 11:50:57:857] right released
[10/05/2022 11:51:02:861] Quiz question: <Where is the oldest tree in the world>, Target: <Elizabeth>, Distractor: <Maria>, Target_Answer: <Colorado>, Distractor_Answer: <California>, Target_correct: <False>
[10/05/2022 11:51:02:862] RightAnswerTask: Showing onscreen question 7
[10/05/2022 11:51:07:733] RightAnswerTask: Correct answer 7 logged (Distractor correct, D pressed)
[10/05/2022 11:51:15:509] right pressed
[10/05/2022 11:51:15:576] Camera angle: 116.4145
[10/05/2022 11:51:15:650] Camera angle: 121.6281
[10/05/2022 11:51:15:723] Camera angle: 126.7099
[10/05/2022 11:51:15:807] Camera angle: 132.5675
[10/05/2022 11:51:15:881] Camera angle: 137.7588
[10/05/2022 11:51:15:956] Camera angle: 142.9666
[10/05/2022 11:51:16:38] Camera angle: 148.8138
[10/05/2022 11:51:16:113] Camera angle: 154.0249
[10/05/2022 11:51:16:140] right released
[10/05/2022 11:51:16:361] right pressed
[10/05/2022 11:51:16:420] Camera angle: 159.2466
[10/05/2022 11:51:16:494] Camera angle: 164.3871
[10/05/2022 11:51:16:577] Camera angle: 170.2275
[10/05/2022 11:51:16:651] Camera angle: 175.4326
[10/05/2022 11:51:16:724] Camera angle: 180.5357
[10/05/2022 11:51:16:808] Camera angle: 186.4126
[10/05/2022 11:51:16:817] right released
[10/05/2022 11:51:20:26] right pressed
[10/05/2022 11:51:20:92] Camera angle: 191.5791
[10/05/2022 11:51:20:166] Camera angle: 196.7242
[10/05/2022 11:51:20:183] right released
[10/05/2022 11:51:20:333] right pressed
[10/05/2022 11:51:20:401] Camera angle: 202.1028
[10/05/2022 11:51:20:453] right released
[10/05/2022 11:51:26:853] Quiz question: <What is the tallest mountain in Canada>, Target: <Annie>, Distractor: <John>, Target_Answer: <Mount Columbia>, Distractor_Answer: <Mount Logan>, Target_correct: <False>
[10/05/2022 11:51:26:854] RightAnswerTask: Showing onscreen question 8
[10/05/2022 11:51:30:696] RightAnswerTask: Incorrect answer 8 logged (Distractor correct, D pressed)
[10/05/2022 11:51:35:806] right pressed
[10/05/2022 11:51:35:839] Camera angle: 207.3844
[10/05/2022 11:51:35:880] right released
[10/05/2022 11:51:36:13] right pressed
[10/05/2022 11:51:36:46] Camera angle: 212.6072
[10/05/2022 11:51:36:71] right released
[10/05/2022 11:51:36:196] right pressed
[10/05/2022 11:51:36:238] Camera angle: 217.9248
[10/05/2022 11:51:36:246] right released
[10/05/2022 11:51:36:363] right pressed
[10/05/2022 11:51:36:429] Camera angle: 223.7911
[10/05/2022 11:51:36:495] right released
[10/05/2022 11:51:36:633] right pressed
[10/05/2022 11:51:36:666] Camera angle: 229.9633
[10/05/2022 11:51:36:740] Camera angle: 235.1292
[10/05/2022 11:51:36:748] right released
[10/05/2022 11:51:36:831] right pressed
[10/05/2022 11:51:36:897] Camera angle: 241.0013
[10/05/2022 11:51:36:971] Camera angle: 246.1961
[10/05/2022 11:51:37:46] Camera angle: 251.4364
[10/05/2022 11:51:37:129] Camera angle: 257.2769
[10/05/2022 11:51:37:204] Camera angle: 262.5045
[10/05/2022 11:51:37:279] Camera angle: 267.7404
[10/05/2022 11:51:37:363] Camera angle: 273.6032
[10/05/2022 11:51:37:379] right released
[10/05/2022 11:51:37:908] right pressed
[10/05/2022 11:51:37:967] Camera angle: 278.7789
[10/05/2022 11:51:38:15] right released
[10/05/2022 11:51:40:966] right pressed
[10/05/2022 11:51:40:988] Camera angle: 283.7856
[10/05/2022 11:51:41:65] Camera angle: 289.1627
[10/05/2022 11:51:41:72] right released
[10/05/2022 11:51:41:439] right pressed
[10/05/2022 11:51:41:508] Camera angle: 294.5436
[10/05/2022 11:51:41:545] right released
[10/05/2022 11:51:51:851] Quiz question: <Who wrote Flowers for Algernon>, Target: <Elizabeth>, Distractor: <Maria>, Target_Answer: <Daniel Keyes>, Distractor_Answer: <Isaac Asimov>, Target_correct: <True>
[10/05/2022 11:51:51:851] RightAnswerTask: Showing onscreen question 9
[10/05/2022 11:51:57:420] RightAnswerTask: Correct answer 9 logged (Target correct, D pressed)
[10/05/2022 11:52:02:69] right pressed
[10/05/2022 11:52:02:110] Camera angle: 300.0558
[10/05/2022 11:52:02:191] Camera angle: 305.8161
[10/05/2022 11:52:02:248] right released
[10/05/2022 11:52:02:447] right pressed
[10/05/2022 11:52:02:463] Camera angle: 310.8806
[10/05/2022 11:52:02:535] Camera angle: 315.8827
[10/05/2022 11:52:02:558] right released
[10/05/2022 11:52:02:702] right pressed
[10/05/2022 11:52:02:752] Camera angle: 320.9951
[10/05/2022 11:52:02:822] Camera angle: 325.9963
[10/05/2022 11:52:02:852] right released
[10/05/2022 11:52:02:860] Starting SAGAT 2
[10/05/2022 11:52:02:862] SAGAT question loaded: "Who is the quiz master?" Answers: Annie ; Elizabeth ; Maria ; John ; [Carlos] ; Susan ; )
[10/05/2022 11:52:02:933] right pressed
[10/05/2022 11:52:03:66] right released
[10/05/2022 11:52:03:201] right pressed
[10/05/2022 11:52:03:343] right released
[10/05/2022 11:52:07:682] Toggle pressed: Carlos
[10/05/2022 11:52:09:375] SAGAT answer given: "Carlos" (correct; "Carlos")
[10/05/2022 11:52:09:376] SAGAT question loaded: "Who last answered incorrectly?" Answers: Susan ; Carlos ; Elizabeth ; [Maria] ; John ; Annie ; )
[10/05/2022 11:52:17:40] Toggle pressed: Maria
[10/05/2022 11:52:20:61] SAGAT answer given: "Maria" (correct; "Maria")
[10/05/2022 11:52:20:62] SAGAT question loaded: "What was the most recent quiz question?" Answers: What is the tallest mountain in Canada ; Who was the first Tsar of Russia ; Where is the oldest tree in the world ; Where is the largest bowlilng alley ; [Who wrote Flowers for Algernon] ; What was invented by James Dewer in 1872 ; )
[10/05/2022 11:52:25:587] Toggle pressed: Who wrote Flowers for Algernon
[10/05/2022 11:52:27:811] SAGAT answer given: "Who wrote Flowers for Algernon" (correct; "Who wrote Flowers for Algernon")
[10/05/2022 11:52:27:812] SAGAT question loaded: "Who was asked to answer a question most recently?" Answers: [Elizabeth] ; Carlos ; Annie ; John ; Maria ; Susan ; )
[10/05/2022 11:52:36:404] Toggle pressed: Elizabeth
[10/05/2022 11:52:38:808] SAGAT answer given: "Elizabeth" (correct; "Elizabeth")
[10/05/2022 11:52:38:809] SAGAT question loaded: "Identify one person who was in your field of view just before the simulation paused." Answers: Annie ; Elizabeth ; Susan ; John ; Maria ; Carlos ; )
[10/05/2022 11:52:47:598] Toggle pressed: Annie
[10/05/2022 11:52:49:767] SAGAT answer given: "Annie" (incorrect; "Maria|Carlos|Susan")
[10/05/2022 11:52:49:767] SAGAT Complete
[10/05/2022 11:52:58:168] left pressed
[10/05/2022 11:52:58:254] Camera angle: 320.9756
[10/05/2022 11:52:58:325] Camera angle: 315.9685
[10/05/2022 11:52:58:405] Camera angle: 310.4194
[10/05/2022 11:52:58:481] Camera angle: 305.1143
[10/05/2022 11:52:58:559] Camera angle: 299.6243
[10/05/2022 11:52:58:631] Camera angle: 294.5608
[10/05/2022 11:52:58:704] Camera angle: 289.4863
[10/05/2022 11:52:58:776] Camera angle: 284.4572
[10/05/2022 11:52:58:825] left released
[10/05/2022 11:52:59:2] left pressed
[10/05/2022 11:52:59:25] Camera angle: 279.342
[10/05/2022 11:52:59:101] Camera angle: 274.0865
[10/05/2022 11:52:59:140] left released
[10/05/2022 11:52:59:245] left pressed
[10/05/2022 11:52:59:284] Camera angle: 268.6685
[10/05/2022 11:52:59:323] left released
[10/05/2022 11:53:02:741] Quiz question: <What colour is the Mallow flower>, Target: <Susan>, Distractor: <John>, Target_Answer: <Pink>, Distractor_Answer: <Purple>, Target_correct: <False>
[10/05/2022 11:53:02:741] RightAnswerTask: Showing onscreen question 10
[10/05/2022 11:53:05:376] RightAnswerTask: Incorrect answer 10 logged (Distractor correct, D pressed)
[10/05/2022 11:53:06:756] Video finished
[10/05/2022 11:53:16:185] Escape pressed during experiment
[10/05/2022 11:53:16:187] Log creation for experiment proper...
