[10/05/2022 11:29:51:949] Participant ID: 41
[10/05/2022 11:29:51:950] Session: Actual
[10/05/2022 11:29:51:950] Scene: Scene 2
[10/05/2022 11:29:51:950] Audio: Spatial
[10/05/2022 11:29:51:950] Loading video from file: C:/Users/Administrator/Downloads/build_vulkan/build_vulkan/Videos/Scene2.mp4
[10/05/2022 11:29:51:950] Got SAGAT times: 205s and 265s
[10/05/2022 11:29:51:950] RightAnswerTask: Ready
[10/05/2022 11:30:03:818] right pressed
[10/05/2022 11:30:03:884] Camera angle: 5.136012
[10/05/2022 11:30:03:902] right released
[10/05/2022 11:30:04:138] right pressed
[10/05/2022 11:30:04:203] Camera angle: 10.21522
[10/05/2022 11:30:04:244] right released
[10/05/2022 11:30:04:381] right pressed
[10/05/2022 11:30:04:414] Camera angle: 15.48019
[10/05/2022 11:30:04:488] right released
[10/05/2022 11:30:04:617] right pressed
[10/05/2022 11:30:04:625] Camera angle: 20.4972
[10/05/2022 11:30:04:700] Camera angle: 25.73754
[10/05/2022 11:30:04:706] right released
[10/05/2022 11:30:04:826] right pressed
[10/05/2022 11:30:04:889] Camera angle: 30.74135
[10/05/2022 11:30:04:913] right released
[10/05/2022 11:30:05:39] right pressed
[10/05/2022 11:30:05:86] Camera angle: 35.76128
[10/05/2022 11:30:05:132] right released
[10/05/2022 11:30:05:245] right pressed
[10/05/2022 11:30:05:274] Camera angle: 41.10002
[10/05/2022 11:30:05:347] Camera angle: 46.13584
[10/05/2022 11:30:05:368] right released
[10/05/2022 11:30:05:573] right pressed
[10/05/2022 11:30:05:637] Camera angle: 52.16439
[10/05/2022 11:30:05:698] right released
[10/05/2022 11:30:06:70] right pressed
[10/05/2022 11:30:06:85] Camera angle: 57.44533
[10/05/2022 11:30:06:164] Camera angle: 62.91903
[10/05/2022 11:30:06:204] right released
[10/05/2022 11:30:06:353] right pressed
[10/05/2022 11:30:06:392] Camera angle: 68.42963
[10/05/2022 11:30:06:454] right released
[10/05/2022 11:30:06:597] right pressed
[10/05/2022 11:30:06:604] Camera angle: 73.43074
[10/05/2022 11:30:06:679] Camera angle: 78.60327
[10/05/2022 11:30:06:686] right released
[10/05/2022 11:30:06:822] right pressed
[10/05/2022 11:30:06:891] Camera angle: 83.98745
[10/05/2022 11:30:06:921] right released
[10/05/2022 11:30:07:66] right pressed
[10/05/2022 11:30:07:113] Camera angle: 89.3274
[10/05/2022 11:30:07:151] right released
[10/05/2022 11:30:07:280] right pressed
[10/05/2022 11:30:07:318] Camera angle: 94.67226
[10/05/2022 11:30:07:384] right released
[10/05/2022 11:30:07:505] right pressed
[10/05/2022 11:30:07:522] Camera angle: 99.75712
[10/05/2022 11:30:07:588] right released
[10/05/2022 11:30:07:719] right pressed
[10/05/2022 11:30:07:728] Camera angle: 104.9676
[10/05/2022 11:30:07:800] Camera angle: 110.0212
[10/05/2022 11:30:07:825] right released
[10/05/2022 11:30:07:940] right pressed
[10/05/2022 11:30:07:996] Camera angle: 115.2232
[10/05/2022 11:30:08:54] right released
[10/05/2022 11:30:08:162] right pressed
[10/05/2022 11:30:08:194] Camera angle: 120.9148
[10/05/2022 11:30:08:259] right released
[10/05/2022 11:30:08:363] right pressed
[10/05/2022 11:30:08:389] Camera angle: 126.5448
[10/05/2022 11:30:08:454] right released
[10/05/2022 11:30:08:563] right pressed
[10/05/2022 11:30:08:570] Camera angle: 131.7081
[10/05/2022 11:30:08:644] right released
[10/05/2022 11:30:08:744] right pressed
[10/05/2022 11:30:08:744] Camera angle: 136.9456
[10/05/2022 11:30:08:825] Camera angle: 142.6813
[10/05/2022 11:30:08:833] right released
[10/05/2022 11:30:08:924] right pressed
[10/05/2022 11:30:08:989] Camera angle: 148.4514
[10/05/2022 11:30:09:5] right released
[10/05/2022 11:30:09:95] right pressed
[10/05/2022 11:30:09:144] Camera angle: 153.4703
[10/05/2022 11:30:09:162] right released
[10/05/2022 11:30:09:262] right pressed
[10/05/2022 11:30:09:329] right released
[10/05/2022 11:30:09:427] right pressed
[10/05/2022 11:30:09:427] Camera angle: 159.3629
[10/05/2022 11:30:09:492] right released
[10/05/2022 11:30:09:590] right pressed
[10/05/2022 11:30:09:598] Camera angle: 164.471
[10/05/2022 11:30:09:671] right released
[10/05/2022 11:30:09:779] right pressed
[10/05/2022 11:30:09:779] Camera angle: 169.6278
[10/05/2022 11:30:09:862] right released
[10/05/2022 11:30:09:969] right pressed
[10/05/2022 11:30:09:969] Camera angle: 174.7338
[10/05/2022 11:30:10:45] Camera angle: 180.0364
[10/05/2022 11:30:10:62] right released
[10/05/2022 11:30:10:162] right pressed
[10/05/2022 11:30:10:216] Camera angle: 185.136
[10/05/2022 11:30:10:233] right released
[10/05/2022 11:30:10:355] right pressed
[10/05/2022 11:30:10:412] Camera angle: 190.2791
[10/05/2022 11:30:10:445] right released
[10/05/2022 11:30:10:575] right pressed
[10/05/2022 11:30:10:615] Camera angle: 195.578
[10/05/2022 11:30:10:671] right released
[10/05/2022 11:30:11:6] right pressed
[10/05/2022 11:30:11:14] Camera angle: 200.6495
[10/05/2022 11:30:11:87] Camera angle: 205.7925
[10/05/2022 11:30:11:105] right released
[10/05/2022 11:30:11:261] right pressed
[10/05/2022 11:30:11:316] Camera angle: 210.9593
[10/05/2022 11:30:11:364] right released
[10/05/2022 11:30:11:506] right pressed
[10/05/2022 11:30:11:539] Camera angle: 216.6419
[10/05/2022 11:30:11:613] right released
[10/05/2022 11:30:11:979] right pressed
[10/05/2022 11:30:11:995] Camera angle: 222.1929
[10/05/2022 11:30:12:68] Camera angle: 227.1931
[10/05/2022 11:30:12:84] right released
[10/05/2022 11:30:12:585] right pressed
[10/05/2022 11:30:12:641] Camera angle: 232.3386
[10/05/2022 11:30:12:706] right released
[10/05/2022 11:30:12:852] right pressed
[10/05/2022 11:30:12:861] Camera angle: 237.4559
[10/05/2022 11:30:12:933] Camera angle: 242.5653
[10/05/2022 11:30:12:955] right released
[10/05/2022 11:30:13:101] right pressed
[10/05/2022 11:30:13:154] Camera angle: 247.7827
[10/05/2022 11:30:13:216] right released
[10/05/2022 11:30:13:355] right pressed
[10/05/2022 11:30:13:362] Camera angle: 253.1987
[10/05/2022 11:30:13:436] Camera angle: 258.3638
[10/05/2022 11:30:13:470] right released
[10/05/2022 11:30:13:610] right pressed
[10/05/2022 11:30:13:660] Camera angle: 264.2161
[10/05/2022 11:30:13:727] right released
[10/05/2022 11:30:14:475] right pressed
[10/05/2022 11:30:14:499] Camera angle: 270.0295
[10/05/2022 11:30:14:574] Camera angle: 275.2455
[10/05/2022 11:30:14:608] right released
[10/05/2022 11:30:15:47] right pressed
[10/05/2022 11:30:15:97] Camera angle: 281.0972
[10/05/2022 11:30:15:164] right released
[10/05/2022 11:30:15:298] right pressed
[10/05/2022 11:30:15:306] Camera angle: 286.3671
[10/05/2022 11:30:15:380] Camera angle: 291.49
[10/05/2022 11:30:15:445] right released
[10/05/2022 11:30:15:571] right pressed
[10/05/2022 11:30:15:578] Camera angle: 296.7605
[10/05/2022 11:30:15:652] Camera angle: 301.8823
[10/05/2022 11:30:15:694] right released
[10/05/2022 11:30:15:825] right pressed
[10/05/2022 11:30:15:859] Camera angle: 307.152
[10/05/2022 11:30:15:921] right released
[10/05/2022 11:30:16:44] right pressed
[10/05/2022 11:30:16:52] Camera angle: 312.7139
[10/05/2022 11:30:16:126] Camera angle: 317.8531
[10/05/2022 11:30:16:151] right released
[10/05/2022 11:30:16:256] right pressed
[10/05/2022 11:30:16:321] Camera angle: 323.5086
[10/05/2022 11:30:16:361] right released
[10/05/2022 11:30:16:466] right pressed
[10/05/2022 11:30:16:509] Camera angle: 328.511
[10/05/2022 11:30:16:558] right released
[10/05/2022 11:30:16:663] right pressed
[10/05/2022 11:30:16:678] Camera angle: 333.5675
[10/05/2022 11:30:16:743] right released
[10/05/2022 11:30:16:849] right pressed
[10/05/2022 11:30:16:859] Camera angle: 338.7393
[10/05/2022 11:30:16:937] right released
[10/05/2022 11:30:17:74] right pressed
[10/05/2022 11:30:17:75] Camera angle: 344.2008
[10/05/2022 11:30:17:152] Camera angle: 349.7235
[10/05/2022 11:30:17:168] right released
[10/05/2022 11:30:17:287] right pressed
[10/05/2022 11:30:17:348] Camera angle: 355.009
[10/05/2022 11:30:17:365] right released
[10/05/2022 11:30:18:240] right pressed
[10/05/2022 11:30:18:308] Camera angle: 0.3310796
[10/05/2022 11:30:18:369] right released
[10/05/2022 11:31:01:595] right pressed
[10/05/2022 11:31:01:612] Camera angle: 5.756653
[10/05/2022 11:31:01:687] Camera angle: 10.98691
[10/05/2022 11:31:01:712] right released
[10/05/2022 11:31:01:844] right pressed
[10/05/2022 11:31:01:893] Camera angle: 16.08403
[10/05/2022 11:31:01:950] right released
[10/05/2022 11:31:02:72] right pressed
[10/05/2022 11:31:02:90] Camera angle: 21.30323
[10/05/2022 11:31:02:145] right released
[10/05/2022 11:31:02:260] right pressed
[10/05/2022 11:31:02:281] Camera angle: 26.80663
[10/05/2022 11:31:02:346] right released
[10/05/2022 11:31:02:444] right pressed
[10/05/2022 11:31:02:469] Camera angle: 32.42174
[10/05/2022 11:31:02:541] right released
[10/05/2022 11:31:02:647] right pressed
[10/05/2022 11:31:02:647] Camera angle: 38.23821
[10/05/2022 11:31:02:721] Camera angle: 43.41418
[10/05/2022 11:31:02:755] right released
[10/05/2022 11:31:02:844] right pressed
[10/05/2022 11:31:02:891] Camera angle: 48.42295
[10/05/2022 11:31:02:957] right released
[10/05/2022 11:31:03:30] right pressed
[10/05/2022 11:31:03:38] Camera angle: 53.57917
[10/05/2022 11:31:03:117] Camera angle: 59.08657
[10/05/2022 11:31:03:190] Camera angle: 64.17203
[10/05/2022 11:31:03:261] Camera angle: 69.19707
[10/05/2022 11:31:03:339] Camera angle: 74.67414
[10/05/2022 11:31:03:420] Camera angle: 80.29016
[10/05/2022 11:31:03:495] Camera angle: 85.55025
[10/05/2022 11:31:03:573] Camera angle: 91.0189
[10/05/2022 11:31:03:651] Camera angle: 96.45873
[10/05/2022 11:31:03:722] Camera angle: 101.5031
[10/05/2022 11:31:03:788] right released
[10/05/2022 11:31:04:364] right pressed
[10/05/2022 11:31:04:371] Camera angle: 106.611
[10/05/2022 11:31:04:447] Camera angle: 111.9835
[10/05/2022 11:31:04:524] Camera angle: 117.2915
[10/05/2022 11:31:04:601] Camera angle: 122.6748
[10/05/2022 11:31:04:676] Camera angle: 127.9997
[10/05/2022 11:31:04:754] Camera angle: 133.3943
[10/05/2022 11:31:04:770] right released
[10/05/2022 11:31:05:238] right pressed
[10/05/2022 11:31:05:295] Camera angle: 138.5038
[10/05/2022 11:31:05:370] Camera angle: 143.7174
[10/05/2022 11:31:05:377] right released
[10/05/2022 11:31:05:516] right pressed
[10/05/2022 11:31:05:581] Camera angle: 148.8817
[10/05/2022 11:31:05:624] right released
[10/05/2022 11:31:05:748] right pressed
[10/05/2022 11:31:05:780] Camera angle: 154.8248
[10/05/2022 11:31:05:846] right released
[10/05/2022 11:31:05:986] right pressed
[10/05/2022 11:31:06:1] Camera angle: 159.904
[10/05/2022 11:31:06:60] right released
[10/05/2022 11:31:06:979] right pressed
[10/05/2022 11:31:06:987] Camera angle: 165.2198
[10/05/2022 11:31:07:61] Camera angle: 170.3887
[10/05/2022 11:31:07:120] right released
[10/05/2022 11:31:08:102] right pressed
[10/05/2022 11:31:08:128] Camera angle: 175.6579
[10/05/2022 11:31:08:185] right released
[10/05/2022 11:31:08:286] right pressed
[10/05/2022 11:31:08:302] Camera angle: 180.8911
[10/05/2022 11:31:08:360] right released
[10/05/2022 11:31:08:452] right pressed
[10/05/2022 11:31:08:459] Camera angle: 186.1258
[10/05/2022 11:31:08:518] right released
[10/05/2022 11:31:08:618] right pressed
[10/05/2022 11:31:08:634] Camera angle: 191.3585
[10/05/2022 11:31:08:685] right released
[10/05/2022 11:31:08:783] right pressed
[10/05/2022 11:31:08:816] Camera angle: 197.1914
[10/05/2022 11:31:08:850] right released
[10/05/2022 11:31:08:930] right pressed
[10/05/2022 11:31:08:987] Camera angle: 202.8721
[10/05/2022 11:31:09:3] right released
[10/05/2022 11:31:09:86] right pressed
[10/05/2022 11:31:09:136] Camera angle: 208.156
[10/05/2022 11:31:09:152] right released
[10/05/2022 11:31:09:252] right pressed
[10/05/2022 11:31:09:319] right released
[10/05/2022 11:31:09:385] right pressed
[10/05/2022 11:31:09:385] Camera angle: 214.0076
[10/05/2022 11:31:09:458] Camera angle: 219.1769
[10/05/2022 11:31:09:484] right released
[10/05/2022 11:31:09:551] right pressed
[10/05/2022 11:31:09:600] Camera angle: 224.537
[10/05/2022 11:31:09:619] right released
[10/05/2022 11:31:09:685] right pressed
[10/05/2022 11:31:09:718] right released
[10/05/2022 11:31:09:818] right pressed
[10/05/2022 11:31:09:851] Camera angle: 230.4373
[10/05/2022 11:31:09:884] right released
[10/05/2022 11:31:09:984] right pressed
[10/05/2022 11:31:10:25] Camera angle: 235.5769
[10/05/2022 11:31:10:51] right released
[10/05/2022 11:31:10:150] right pressed
[10/05/2022 11:31:10:198] Camera angle: 240.9267
[10/05/2022 11:31:10:205] right released
[10/05/2022 11:31:10:305] right pressed
[10/05/2022 11:31:10:384] right released
[10/05/2022 11:31:10:487] right pressed
[10/05/2022 11:31:10:487] Camera angle: 247.0343
[10/05/2022 11:31:10:557] right released
[10/05/2022 11:31:10:632] right pressed
[10/05/2022 11:31:10:646] Camera angle: 252.2466
[10/05/2022 11:31:10:704] right released
[10/05/2022 11:31:10:810] right pressed
[10/05/2022 11:31:10:826] Camera angle: 257.3539
[10/05/2022 11:31:10:875] right released
[10/05/2022 11:31:10:966] right pressed
[10/05/2022 11:31:10:981] Camera angle: 262.5327
[10/05/2022 11:31:11:48] right released
[10/05/2022 11:31:11:128] right pressed
[10/05/2022 11:31:11:135] Camera angle: 267.6547
[10/05/2022 11:31:11:201] right released
[10/05/2022 11:31:11:301] right pressed
[10/05/2022 11:31:11:302] Camera angle: 272.9514
[10/05/2022 11:31:11:356] right released
[10/05/2022 11:31:11:453] right pressed
[10/05/2022 11:31:11:470] Camera angle: 278.1438
[10/05/2022 11:31:11:543] right released
[10/05/2022 11:31:11:634] right pressed
[10/05/2022 11:31:11:658] Camera angle: 284.3187
[10/05/2022 11:31:11:731] right released
[10/05/2022 11:31:11:819] right pressed
[10/05/2022 11:31:11:828] Camera angle: 289.3675
[10/05/2022 11:31:11:908] right released
[10/05/2022 11:31:11:995] right pressed
[10/05/2022 11:31:12:2] Camera angle: 294.8164
[10/05/2022 11:31:12:67] right released
[10/05/2022 11:31:12:161] right pressed
[10/05/2022 11:31:12:168] Camera angle: 299.8804
[10/05/2022 11:31:12:234] right released
[10/05/2022 11:31:12:334] right pressed
[10/05/2022 11:31:12:342] Camera angle: 304.9046
[10/05/2022 11:31:12:416] right released
[10/05/2022 11:31:12:507] right pressed
[10/05/2022 11:31:12:516] Camera angle: 310.5021
[10/05/2022 11:31:12:585] right released
[10/05/2022 11:31:12:684] right pressed
[10/05/2022 11:31:12:692] Camera angle: 315.9464
[10/05/2022 11:31:12:762] right released
[10/05/2022 11:31:12:866] right pressed
[10/05/2022 11:31:12:866] Camera angle: 320.9852
[10/05/2022 11:31:12:945] Camera angle: 326.4868
[10/05/2022 11:31:12:952] right released
[10/05/2022 11:31:13:44] right pressed
[10/05/2022 11:31:13:113] Camera angle: 331.8813
[10/05/2022 11:31:13:130] right released
[10/05/2022 11:31:13:219] right pressed
[10/05/2022 11:31:13:281] Camera angle: 337.2802
[10/05/2022 11:31:13:302] right released
[10/05/2022 11:31:13:396] right pressed
[10/05/2022 11:31:13:448] Camera angle: 342.6384
[10/05/2022 11:31:13:465] right released
[10/05/2022 11:31:13:928] right pressed
[10/05/2022 11:31:13:989] Camera angle: 348.1605
[10/05/2022 11:31:14:26] right released
[10/05/2022 11:31:14:422] right pressed
[10/05/2022 11:31:14:460] Camera angle: 353.4915
[10/05/2022 11:31:14:490] right released
[10/05/2022 11:31:31:175] Quiz question: <What country was previously called Formosa>, Target: <Amy>, Distractor: <Paul>, Target_Answer: <Taiwan>, Distractor_Answer: <Indonesia>, Target_correct: <True>
[10/05/2022 11:31:31:175] RightAnswerTask: Showing onscreen question 1
[10/05/2022 11:31:34:141] RightAnswerTask: Correct answer 1 logged (Target correct, D pressed)
[10/05/2022 11:31:51:183] Quiz question: <How many chukkers are there in a polo match?>, Target: <Emma>, Distractor: <Michael>, Target_Answer: <4>, Distractor_Answer: <6>, Target_correct: <False>
[10/05/2022 11:31:51:183] RightAnswerTask: Showing onscreen question 2
[10/05/2022 11:31:52:832] RightAnswerTask: Correct answer 2 logged (Distractor correct, A pressed)
[10/05/2022 11:32:13:170] Quiz question: <Dendrophobia is fear of what>, Target: <Carol>, Distractor: <Michael>, Target_Answer: <Trees>, Distractor_Answer: <Teeth>, Target_correct: <True>
[10/05/2022 11:32:13:170] RightAnswerTask: Showing onscreen question 3
[10/05/2022 11:32:14:780] RightAnswerTask: Correct answer 3 logged (Target correct, A pressed)
[10/05/2022 11:32:34:161] Quiz question: <What was the first movie to be rated PG-13>, Target: <Michael>, Distractor: <Carol>, Target_Answer: <Gone with the Wind>, Distractor_Answer: <Red Dawn>, Target_correct: <False>
[10/05/2022 11:32:34:162] RightAnswerTask: Showing onscreen question 4
[10/05/2022 11:32:36:951] RightAnswerTask: Correct answer 4 logged (Distractor correct, D pressed)
[10/05/2022 11:32:54:169] Quiz question: <What is the surface area of the Earth?>, Target: <Paul>, Distractor: <Emma>, Target_Answer: <510 million km>, Distractor_Answer: <197 million km>, Target_correct: <True>
[10/05/2022 11:32:54:170] RightAnswerTask: Showing onscreen question 5
[10/05/2022 11:33:04:183] RightAnswerTask: Timeout, no answer given
[10/05/2022 11:33:13:179] Quiz question: <When was the first digital computer invented>, Target: <Amy>, Distractor: <Michael>, Target_Answer: <1960>, Distractor_Answer: <1946>, Target_correct: <False>
[10/05/2022 11:33:13:179] RightAnswerTask: Showing onscreen question 6
[10/05/2022 11:33:17:377] RightAnswerTask: Correct answer 6 logged (Distractor correct, A pressed)
[10/05/2022 11:33:18:159] Starting SAGAT 1
[10/05/2022 11:33:18:161] SAGAT question loaded: "Who was asked to answer a question most recently?" Answers: Paul ; [Amy] ; Megan ; Carol ; Emma ; Michael ; )
[10/05/2022 11:33:27:870] Toggle pressed: I don't know
[10/05/2022 11:33:30:865] SAGAT answer given: "I don't know" (incorrect; "Amy")
[10/05/2022 11:33:30:867] SAGAT question loaded: "Who is sitting two seats to the right of the quiz master (your right)?" Answers: Megan ; Paul ; [Emma] ; Michael ; Amy ; Carol ; )
[10/05/2022 11:33:40:803] Toggle pressed: Carol
[10/05/2022 11:33:43:982] SAGAT answer given: "Carol" (incorrect; "Emma")
[10/05/2022 11:33:43:982] SAGAT question loaded: "Identify one person who was in your field of view just before the simulation paused." Answers: Megan ; Emma ; Amy ; Carol ; Paul ; Michael ; )
[10/05/2022 11:33:49:715] Toggle pressed: Megan
[10/05/2022 11:33:52:311] SAGAT answer given: "Megan" (correct; "Megan|Michael|Paul")
[10/05/2022 11:33:52:311] SAGAT question loaded: "What is the colour of the quiz master's shirt?" Answers: Blue ; White ; Brown ; Black ; Yellow ; [Green] ; )
[10/05/2022 11:33:57:816] Toggle pressed: Green
[10/05/2022 11:34:00:125] SAGAT answer given: "Green" (correct; "Green")
[10/05/2022 11:34:00:125] SAGAT question loaded: "Who last answered incorrectly?" Answers: [Amy] ; Carol ; Megan ; Michael ; Emma ; Paul ; )
[10/05/2022 11:34:05:289] Toggle pressed: I don't know
[10/05/2022 11:34:07:62] SAGAT answer given: "I don't know" (incorrect; "Amy")
[10/05/2022 11:34:07:62] SAGAT Complete
[10/05/2022 11:34:23:73] Quiz question: <What species of land animal has the largest eyes>, Target: <Paul>, Distractor: <Emma>, Target_Answer: <Elephant>, Distractor_Answer: <Ostrich>, Target_correct: <False>
[10/05/2022 11:34:23:74] RightAnswerTask: Showing onscreen question 7
[10/05/2022 11:34:26:700] RightAnswerTask: Correct answer 7 logged (Distractor correct, D pressed)
[10/05/2022 11:34:41:81] Quiz question: <Who was the first performer at Woodstock>, Target: <Emma>, Distractor: <Paul>, Target_Answer: <Fleetwood Mac>, Distractor_Answer: <Richie Havens>, Target_correct: <False>
[10/05/2022 11:34:41:81] RightAnswerTask: Showing onscreen question 8
[10/05/2022 11:34:43:507] RightAnswerTask: Correct answer 8 logged (Distractor correct, D pressed)
[10/05/2022 11:35:02:69] Quiz question: <Where are the most Trappist breweries>, Target: <Michael>, Distractor: <Carol>, Target_Answer: <Denmark>, Distractor_Answer: <Belgium>, Target_correct: <False>
[10/05/2022 11:35:02:69] RightAnswerTask: Showing onscreen question 9
[10/05/2022 11:35:05:727] RightAnswerTask: Incorrect answer 9 logged (Distractor correct, A pressed)
[10/05/2022 11:35:07:68] Starting SAGAT 2
[10/05/2022 11:35:07:69] SAGAT question loaded: "Who last answered correctly?" Answers: Amy ; Paul ; [Carol] ; Emma ; Megan ; Michael ; )
[10/05/2022 11:35:11:907] Toggle pressed: Carol
[10/05/2022 11:35:14:266] SAGAT answer given: "Carol" (correct; "Carol")
[10/05/2022 11:35:14:267] SAGAT question loaded: "Who is sitting two seats to the left of the quiz master (your left)?" Answers: [Carol] ; Paul ; Michael ; Amy ; Emma ; Megan ; )
[10/05/2022 11:35:23:986] Toggle pressed: Carol
[10/05/2022 11:35:26:425] SAGAT answer given: "Carol" (correct; "Carol")
[10/05/2022 11:35:26:426] SAGAT question loaded: "What kind of social event is taking place here?" Answers: Workshop ; Exam ; [Quiz] ; Focus Group ; Presentation ; Debate ; )
[10/05/2022 11:35:30:865] Toggle pressed: Quiz
[10/05/2022 11:35:33:144] SAGAT answer given: "Quiz" (correct; "Quiz")
[10/05/2022 11:35:33:144] SAGAT question loaded: "What was the most recent quiz question?" Answers: What is the surface area of the Earth? ; [Where are the most Trappist breweries] ; Who was the first performer at Woodstock ; When was the first digital computer invented ; What species of land animal has the largest eyes ; What was the first movie to be rated PG-13 ; )
[10/05/2022 11:35:47:255] Toggle pressed: What species of land animal has the largest eyes
[10/05/2022 11:35:50:956] SAGAT answer given: "What species of land animal has the largest eyes" (incorrect; "Where are the most Trappist breweries")
[10/05/2022 11:35:50:957] SAGAT question loaded: "Who is the quiz master?" Answers: Paul ; Michael ; Amy ; Emma ; [Megan] ; Carol ; )
[10/05/2022 11:35:53:535] Toggle pressed: Megan
[10/05/2022 11:35:55:307] SAGAT answer given: "Megan" (correct; "Megan")
[10/05/2022 11:35:55:307] SAGAT Complete
[10/05/2022 11:36:10:308] Quiz question: <How many countries are there in the Southern Hemisphere>, Target: <Emma>, Distractor: <Paul>, Target_Answer: <35>, Distractor_Answer: <32>, Target_correct: <False>
[10/05/2022 11:36:10:308] RightAnswerTask: Showing onscreen question 10
[10/05/2022 11:36:12:401] RightAnswerTask: Correct answer 10 logged (Distractor correct, A pressed)
[10/05/2022 11:36:19:696] Video finished
[10/05/2022 11:36:28:624] Escape pressed during experiment
[10/05/2022 11:36:28:625] Log creation for experiment proper...
