[10/05/2022 12:59:19:76] Participant ID: 45
[10/05/2022 12:59:19:76] Session: Actual
[10/05/2022 12:59:19:76] Scene: Scene 2
[10/05/2022 12:59:19:76] Audio: Spatial
[10/05/2022 12:59:19:76] Loading video from file: C:/Users/Administrator/Downloads/build_vulkan/build_vulkan/Videos/Scene2.mp4
[10/05/2022 12:59:19:77] Got SAGAT times: 127s and 265s
[10/05/2022 12:59:19:77] RightAnswerTask: Ready
[10/05/2022 12:59:26:236] left pressed
[10/05/2022 12:59:26:303] Camera angle: 354.775
[10/05/2022 12:59:26:385] Camera angle: 348.9917
[10/05/2022 12:59:26:442] left released
[10/05/2022 12:59:26:624] right pressed
[10/05/2022 12:59:26:730] Camera angle: 354.3422
[10/05/2022 12:59:26:804] Camera angle: 359.4794
[10/05/2022 12:59:26:889] Camera angle: 5.421231
[10/05/2022 12:59:26:961] Camera angle: 10.56469
[10/05/2022 12:59:27:36] Camera angle: 15.79835
[10/05/2022 12:59:27:119] Camera angle: 21.63287
[10/05/2022 12:59:27:193] Camera angle: 26.745
[10/05/2022 12:59:27:265] Camera angle: 31.77578
[10/05/2022 12:59:27:337] Camera angle: 36.84954
[10/05/2022 12:59:27:411] Camera angle: 42.05686
[10/05/2022 12:59:27:486] Camera angle: 47.2893
[10/05/2022 12:59:27:558] Camera angle: 52.30856
[10/05/2022 12:59:27:639] Camera angle: 57.946
[10/05/2022 12:59:27:711] Camera angle: 63.05956
[10/05/2022 12:59:27:786] Camera angle: 68.26884
[10/05/2022 12:59:27:867] Camera angle: 73.94978
[10/05/2022 12:59:27:941] Camera angle: 79.13209
[10/05/2022 12:59:28:15] Camera angle: 84.27132
[10/05/2022 12:59:28:87] Camera angle: 89.34553
[10/05/2022 12:59:28:161] Camera angle: 94.5417
[10/05/2022 12:59:28:236] Camera angle: 99.77238
[10/05/2022 12:59:28:308] Camera angle: 104.8333
[10/05/2022 12:59:28:381] Camera angle: 109.9378
[10/05/2022 12:59:28:458] Camera angle: 115.3385
[10/05/2022 12:59:28:536] Camera angle: 120.7484
[10/05/2022 12:59:28:609] Camera angle: 125.8441
[10/05/2022 12:59:28:681] Camera angle: 130.937
[10/05/2022 12:59:28:761] Camera angle: 136.5443
[10/05/2022 12:59:28:834] Camera angle: 141.6386
[10/05/2022 12:59:28:912] Camera angle: 147.0813
[10/05/2022 12:59:28:988] Camera angle: 152.4019
[10/05/2022 12:59:29:65] Camera angle: 157.7829
[10/05/2022 12:59:29:141] Camera angle: 163.1138
[10/05/2022 12:59:29:218] Camera angle: 168.4792
[10/05/2022 12:59:29:294] Camera angle: 173.8602
[10/05/2022 12:59:29:371] Camera angle: 179.2423
[10/05/2022 12:59:29:447] Camera angle: 184.5418
[10/05/2022 12:59:29:524] Camera angle: 189.8833
[10/05/2022 12:59:29:599] Camera angle: 195.2305
[10/05/2022 12:59:29:676] Camera angle: 200.5765
[10/05/2022 12:59:29:752] Camera angle: 205.8886
[10/05/2022 12:59:29:828] Camera angle: 211.2385
[10/05/2022 12:59:29:905] Camera angle: 216.5475
[10/05/2022 12:59:29:981] Camera angle: 221.9248
[10/05/2022 12:59:30:58] Camera angle: 227.3015
[10/05/2022 12:59:30:130] Camera angle: 232.3661
[10/05/2022 12:59:30:204] Camera angle: 237.4956
[10/05/2022 12:59:30:278] Camera angle: 242.7
[10/05/2022 12:59:30:351] Camera angle: 247.88
[10/05/2022 12:59:30:424] Camera angle: 252.9881
[10/05/2022 12:59:30:499] Camera angle: 258.1488
[10/05/2022 12:59:30:570] Camera angle: 263.1971
[10/05/2022 12:59:30:657] Camera angle: 269.1971
[10/05/2022 12:59:30:731] Camera angle: 274.4226
[10/05/2022 12:59:30:805] Camera angle: 279.5759
[10/05/2022 12:59:30:878] Camera angle: 284.6833
[10/05/2022 12:59:30:960] Camera angle: 290.4959
[10/05/2022 12:59:31:35] Camera angle: 295.6793
[10/05/2022 12:59:31:109] Camera angle: 300.8416
[10/05/2022 12:59:31:192] Camera angle: 306.6384
[10/05/2022 12:59:31:266] Camera angle: 311.8695
[10/05/2022 12:59:31:340] Camera angle: 317.0582
[10/05/2022 12:59:31:423] Camera angle: 322.8706
[10/05/2022 12:59:31:497] Camera angle: 328.0046
[10/05/2022 12:59:31:570] Camera angle: 333.1014
[10/05/2022 12:59:31:642] Camera angle: 338.2539
[10/05/2022 12:59:31:726] right released
[10/05/2022 12:59:32:128] right pressed
[10/05/2022 12:59:32:128] Camera angle: 344.0628
[10/05/2022 12:59:32:200] Camera angle: 349.1929
[10/05/2022 12:59:32:274] Camera angle: 354.3541
[10/05/2022 12:59:32:358] Camera angle: 0.1373184
[10/05/2022 12:59:32:432] Camera angle: 5.332501
[10/05/2022 12:59:32:464] right released
[10/05/2022 12:59:32:709] left pressed
[10/05/2022 12:59:32:791] Camera angle: 0.08967591
[10/05/2022 12:59:32:865] Camera angle: 354.9307
[10/05/2022 12:59:32:938] Camera angle: 349.8207
[10/05/2022 12:59:33:11] Camera angle: 344.6771
[10/05/2022 12:59:33:93] Camera angle: 338.9021
[10/05/2022 12:59:33:167] Camera angle: 333.7466
[10/05/2022 12:59:33:241] Camera angle: 328.5865
[10/05/2022 12:59:33:316] Camera angle: 323.4062
[10/05/2022 12:59:33:349] left released
[10/05/2022 12:59:33:416] right pressed
[10/05/2022 12:59:33:504] Camera angle: 328.4088
[10/05/2022 12:59:33:577] Camera angle: 333.5546
[10/05/2022 12:59:33:660] Camera angle: 339.3209
[10/05/2022 12:59:33:733] Camera angle: 344.4875
[10/05/2022 12:59:33:806] Camera angle: 349.5907
[10/05/2022 12:59:33:880] Camera angle: 354.7265
[10/05/2022 12:59:33:962] Camera angle: 0.5008124
[10/05/2022 12:59:34:34] Camera angle: 5.581153
[10/05/2022 12:59:34:108] Camera angle: 10.74297
[10/05/2022 12:59:34:184] Camera angle: 15.9845
[10/05/2022 12:59:34:267] Camera angle: 21.81758
[10/05/2022 12:59:34:340] Camera angle: 26.97429
[10/05/2022 12:59:34:415] Camera angle: 32.1463
[10/05/2022 12:59:34:498] Camera angle: 38.00015
[10/05/2022 12:59:34:570] Camera angle: 43.07631
[10/05/2022 12:59:34:596] right released
[10/05/2022 12:59:34:800] right pressed
[10/05/2022 12:59:34:849] Camera angle: 48.39441
[10/05/2022 12:59:34:933] Camera angle: 54.26046
[10/05/2022 12:59:35:8] Camera angle: 59.48466
[10/05/2022 12:59:35:82] Camera angle: 64.72586
[10/05/2022 12:59:35:166] Camera angle: 70.58823
[10/05/2022 12:59:35:240] Camera angle: 75.75235
[10/05/2022 12:59:35:315] Camera angle: 80.94903
[10/05/2022 12:59:35:400] Camera angle: 86.97434
[10/05/2022 12:59:35:477] Camera angle: 92.33591
[10/05/2022 12:59:35:552] Camera angle: 97.61306
[10/05/2022 12:59:35:626] Camera angle: 102.76
[10/05/2022 12:59:35:707] Camera angle: 108.4283
[10/05/2022 12:59:35:782] Camera angle: 113.6917
[10/05/2022 12:59:35:864] Camera angle: 119.3711
[10/05/2022 12:59:35:936] Camera angle: 124.4514
[10/05/2022 12:59:36:9] Camera angle: 129.5392
[10/05/2022 12:59:36:82] Camera angle: 134.7031
[10/05/2022 12:59:36:156] Camera angle: 139.8624
[10/05/2022 12:59:36:230] Camera angle: 145.0318
[10/05/2022 12:59:36:304] Camera angle: 150.202
[10/05/2022 12:59:36:385] Camera angle: 155.8257
[10/05/2022 12:59:36:466] Camera angle: 161.5387
[10/05/2022 12:59:36:547] Camera angle: 167.2221
[10/05/2022 12:59:36:620] Camera angle: 172.3293
[10/05/2022 12:59:36:693] Camera angle: 177.4355
[10/05/2022 12:59:36:766] Camera angle: 182.5135
[10/05/2022 12:59:36:843] Camera angle: 187.9956
[10/05/2022 12:59:36:915] Camera angle: 193.0203
[10/05/2022 12:59:36:994] Camera angle: 198.4805
[10/05/2022 12:59:37:66] Camera angle: 203.5145
[10/05/2022 12:59:37:142] Camera angle: 208.8293
[10/05/2022 12:59:37:213] Camera angle: 213.8387
[10/05/2022 12:59:37:290] Camera angle: 219.2291
[10/05/2022 12:59:37:369] Camera angle: 224.7997
[10/05/2022 12:59:37:442] Camera angle: 229.8908
[10/05/2022 12:59:37:515] Camera angle: 235.0044
[10/05/2022 12:59:37:588] Camera angle: 240.1044
[10/05/2022 12:59:37:661] Camera angle: 245.1588
[10/05/2022 12:59:37:736] Camera angle: 250.5124
[10/05/2022 12:59:37:813] Camera angle: 255.8728
[10/05/2022 12:59:37:889] Camera angle: 261.2081
[10/05/2022 12:59:37:965] Camera angle: 266.5138
[10/05/2022 12:59:38:43] Camera angle: 271.9215
[10/05/2022 12:59:38:119] Camera angle: 277.3251
[10/05/2022 12:59:38:196] Camera angle: 282.6616
[10/05/2022 12:59:38:272] Camera angle: 287.985
[10/05/2022 12:59:38:348] Camera angle: 293.3134
[10/05/2022 12:59:38:429] Camera angle: 298.9924
[10/05/2022 12:59:38:503] Camera angle: 304.149
[10/05/2022 12:59:38:577] Camera angle: 309.3682
[10/05/2022 12:59:38:651] Camera angle: 314.5342
[10/05/2022 12:59:38:736] Camera angle: 320.4609
[10/05/2022 12:59:38:811] Camera angle: 325.6846
[10/05/2022 12:59:38:883] Camera angle: 330.7854
[10/05/2022 12:59:38:968] Camera angle: 336.7029
[10/05/2022 12:59:39:43] Camera angle: 341.9195
[10/05/2022 12:59:39:115] Camera angle: 347.0049
[10/05/2022 12:59:39:199] Camera angle: 352.8696
[10/05/2022 12:59:39:273] Camera angle: 358.0483
[10/05/2022 12:59:39:281] right released
[10/05/2022 12:59:42:169] left pressed
[10/05/2022 12:59:42:235] Camera angle: 352.2132
[10/05/2022 12:59:42:310] Camera angle: 347.0213
[10/05/2022 12:59:42:383] Camera angle: 341.8942
[10/05/2022 12:59:42:458] Camera angle: 336.7106
[10/05/2022 12:59:42:539] Camera angle: 330.9538
[10/05/2022 12:59:42:612] Camera angle: 325.8234
[10/05/2022 12:59:42:686] Camera angle: 320.6686
[10/05/2022 12:59:42:770] Camera angle: 314.8585
[10/05/2022 12:59:42:844] Camera angle: 309.6504
[10/05/2022 12:59:42:917] Camera angle: 304.5269
[10/05/2022 12:59:42:991] Camera angle: 299.3415
[10/05/2022 12:59:43:63] Camera angle: 294.2886
[10/05/2022 12:59:43:137] Camera angle: 289.1376
[10/05/2022 12:59:43:219] Camera angle: 283.4019
[10/05/2022 12:59:43:301] Camera angle: 277.6221
[10/05/2022 12:59:43:373] Camera angle: 272.6201
[10/05/2022 12:59:43:447] Camera angle: 267.4464
[10/05/2022 12:59:43:520] Camera angle: 262.3199
[10/05/2022 12:59:43:580] left released
[10/05/2022 12:59:44:428] left pressed
[10/05/2022 12:59:44:451] Camera angle: 257.2333
[10/05/2022 12:59:44:530] Camera angle: 251.6946
[10/05/2022 12:59:44:610] Camera angle: 246.1628
[10/05/2022 12:59:44:689] Camera angle: 240.5851
[10/05/2022 12:59:44:768] Camera angle: 235.0876
[10/05/2022 12:59:44:839] Camera angle: 230.0453
[10/05/2022 12:59:44:913] Camera angle: 224.9225
[10/05/2022 12:59:44:992] Camera angle: 219.4099
[10/05/2022 12:59:45:69] Camera angle: 213.9927
[10/05/2022 12:59:45:147] Camera angle: 208.5377
[10/05/2022 12:59:45:219] Camera angle: 203.4949
[10/05/2022 12:59:45:297] left released
[10/05/2022 12:59:45:543] left pressed
[10/05/2022 12:59:45:543] Camera angle: 198.0138
[10/05/2022 12:59:45:622] Camera angle: 192.4606
[10/05/2022 12:59:45:700] Camera angle: 186.969
[10/05/2022 12:59:45:777] Camera angle: 181.574
[10/05/2022 12:59:45:853] Camera angle: 176.2438
[10/05/2022 12:59:45:928] Camera angle: 171.0084
[10/05/2022 12:59:46:2] Camera angle: 165.8384
[10/05/2022 12:59:46:76] Camera angle: 160.6436
[10/05/2022 12:59:46:153] Camera angle: 155.2988
[10/05/2022 12:59:46:225] Camera angle: 150.2329
[10/05/2022 12:59:46:300] Camera angle: 144.9167
[10/05/2022 12:59:46:377] Camera angle: 139.5404
[10/05/2022 12:59:46:453] Camera angle: 134.2527
[10/05/2022 12:59:46:529] Camera angle: 128.9524
[10/05/2022 12:59:46:606] Camera angle: 123.5706
[10/05/2022 12:59:46:681] Camera angle: 118.2776
[10/05/2022 12:59:46:758] Camera angle: 112.9095
[10/05/2022 12:59:46:834] Camera angle: 107.575
[10/05/2022 12:59:46:911] Camera angle: 102.2108
[10/05/2022 12:59:46:986] Camera angle: 96.87505
[10/05/2022 12:59:47:62] Camera angle: 91.59656
[10/05/2022 12:59:47:139] Camera angle: 86.24361
[10/05/2022 12:59:47:215] Camera angle: 80.96139
[10/05/2022 12:59:47:291] Camera angle: 75.57558
[10/05/2022 12:59:47:363] Camera angle: 70.55391
[10/05/2022 12:59:47:438] Camera angle: 65.31628
[10/05/2022 12:59:47:511] Camera angle: 60.2067
[10/05/2022 12:59:47:587] Camera angle: 54.90214
[10/05/2022 12:59:47:661] Camera angle: 49.72392
[10/05/2022 12:59:47:744] Camera angle: 43.83628
[10/05/2022 12:59:47:819] Camera angle: 38.64039
[10/05/2022 12:59:47:894] Camera angle: 33.4141
[10/05/2022 12:59:47:977] Camera angle: 27.57102
[10/05/2022 12:59:48:51] Camera angle: 22.40067
[10/05/2022 12:59:48:126] Camera angle: 17.18685
[10/05/2022 12:59:48:210] Camera angle: 11.26463
[10/05/2022 12:59:48:289] Camera angle: 5.711576
[10/05/2022 12:59:48:322] left released
[10/05/2022 12:59:55:807] left pressed
[10/05/2022 12:59:55:846] Camera angle: 0.504318
[10/05/2022 12:59:55:920] Camera angle: 355.4004
[10/05/2022 12:59:55:960] left released
[10/05/2022 12:59:56:287] right pressed
[10/05/2022 12:59:56:386] Camera angle: 0.6289878
[10/05/2022 12:59:56:424] right released
[10/05/2022 12:59:59:55] right pressed
[10/05/2022 12:59:59:88] Camera angle: 6.369002
[10/05/2022 12:59:59:161] Camera angle: 11.42242
[10/05/2022 12:59:59:227] right released
[10/05/2022 12:59:59:438] right pressed
[10/05/2022 12:59:59:455] Camera angle: 17.17768
[10/05/2022 12:59:59:530] Camera angle: 22.39441
[10/05/2022 12:59:59:605] Camera angle: 27.64689
[10/05/2022 12:59:59:689] Camera angle: 33.47925
[10/05/2022 12:59:59:762] Camera angle: 38.64182
[10/05/2022 12:59:59:836] Camera angle: 43.83207
[10/05/2022 12:59:59:919] Camera angle: 49.62089
[10/05/2022 12:59:59:992] Camera angle: 54.7383
[10/05/2022 13:00:00:67] Camera angle: 59.93276
[10/05/2022 13:00:00:138] Camera angle: 65.00446
[10/05/2022 13:00:00:223] Camera angle: 70.88644
[10/05/2022 13:00:00:296] Camera angle: 76.05598
[10/05/2022 13:00:00:371] Camera angle: 81.28292
[10/05/2022 13:00:00:455] Camera angle: 87.13546
[10/05/2022 13:00:00:529] Camera angle: 92.29509
[10/05/2022 13:00:00:602] Camera angle: 97.45258
[10/05/2022 13:00:00:675] Camera angle: 102.563
[10/05/2022 13:00:00:760] Camera angle: 108.4703
[10/05/2022 13:00:00:834] Camera angle: 113.6506
[10/05/2022 13:00:00:906] Camera angle: 118.7618
[10/05/2022 13:00:00:990] Camera angle: 124.6364
[10/05/2022 13:00:01:65] Camera angle: 129.8212
[10/05/2022 13:00:01:138] Camera angle: 134.9695
[10/05/2022 13:00:01:221] Camera angle: 140.8126
[10/05/2022 13:00:01:296] Camera angle: 146.0243
[10/05/2022 13:00:01:371] Camera angle: 151.265
[10/05/2022 13:00:01:455] Camera angle: 157.1058
[10/05/2022 13:00:01:528] Camera angle: 162.2646
[10/05/2022 13:00:01:602] Camera angle: 167.4795
[10/05/2022 13:00:01:676] Camera angle: 172.6449
[10/05/2022 13:00:01:753] Camera angle: 177.9762
[10/05/2022 13:00:01:826] Camera angle: 183.125
[10/05/2022 13:00:01:901] Camera angle: 188.3425
[10/05/2022 13:00:01:975] Camera angle: 193.4919
[10/05/2022 13:00:02:59] Camera angle: 199.4175
[10/05/2022 13:00:02:134] Camera angle: 204.6728
[10/05/2022 13:00:02:208] Camera angle: 209.8204
[10/05/2022 13:00:02:292] Camera angle: 215.7348
[10/05/2022 13:00:02:366] Camera angle: 220.9159
[10/05/2022 13:00:02:439] Camera angle: 226.051
[10/05/2022 13:00:02:523] Camera angle: 231.9631
[10/05/2022 13:00:02:597] Camera angle: 237.0854
[10/05/2022 13:00:02:680] Camera angle: 242.904
[10/05/2022 13:00:02:765] Camera angle: 248.8186
[10/05/2022 13:00:02:849] Camera angle: 254.7266
[10/05/2022 13:00:02:922] Camera angle: 259.8576
[10/05/2022 13:00:02:996] Camera angle: 265.0036
[10/05/2022 13:00:03:70] Camera angle: 270.2211
[10/05/2022 13:00:03:154] Camera angle: 276.0323
[10/05/2022 13:00:03:225] Camera angle: 281.1171
[10/05/2022 13:00:03:299] Camera angle: 286.2844
[10/05/2022 13:00:03:380] Camera angle: 291.9028
[10/05/2022 13:00:03:452] Camera angle: 296.9689
[10/05/2022 13:00:03:525] Camera angle: 302.1026
[10/05/2022 13:00:03:604] Camera angle: 307.5578
[10/05/2022 13:00:03:676] Camera angle: 312.6034
[10/05/2022 13:00:03:754] Camera angle: 318.0793
[10/05/2022 13:00:03:826] Camera angle: 323.1277
[10/05/2022 13:00:03:904] Camera angle: 328.6251
[10/05/2022 13:00:03:976] Camera angle: 333.6338
[10/05/2022 13:00:04:48] Camera angle: 338.6584
[10/05/2022 13:00:04:120] Camera angle: 343.6709
[10/05/2022 13:00:04:175] right released
[10/05/2022 13:00:04:420] right pressed
[10/05/2022 13:00:04:449] Camera angle: 348.9559
[10/05/2022 13:00:04:527] Camera angle: 354.4204
[10/05/2022 13:00:04:605] Camera angle: 359.8723
[10/05/2022 13:00:04:683] Camera angle: 5.315339
[10/05/2022 13:00:04:761] Camera angle: 10.75661
[10/05/2022 13:00:04:834] Camera angle: 15.93591
[10/05/2022 13:00:04:907] right released
[10/05/2022 13:00:05:294] right pressed
[10/05/2022 13:00:05:294] Camera angle: 21.01777
[10/05/2022 13:00:05:369] Camera angle: 26.32501
[10/05/2022 13:00:05:446] Camera angle: 31.71094
[10/05/2022 13:00:05:476] right released
[10/05/2022 13:00:05:499] left pressed
[10/05/2022 13:00:05:592] Camera angle: 26.3266
[10/05/2022 13:00:05:669] Camera angle: 20.9221
[10/05/2022 13:00:05:743] Camera angle: 15.71583
[10/05/2022 13:00:05:819] Camera angle: 10.39165
[10/05/2022 13:00:05:896] Camera angle: 4.985904
[10/05/2022 13:00:05:971] Camera angle: 359.7456
[10/05/2022 13:00:06:48] Camera angle: 354.3693
[10/05/2022 13:00:06:124] Camera angle: 349.0507
[10/05/2022 13:00:06:162] left released
[10/05/2022 13:00:06:469] right pressed
[10/05/2022 13:00:06:567] Camera angle: 354.3958
[10/05/2022 13:00:06:642] Camera angle: 359.6033
[10/05/2022 13:00:06:715] Camera angle: 4.814998
[10/05/2022 13:00:06:798] Camera angle: 10.58203
[10/05/2022 13:00:06:871] Camera angle: 15.69797
[10/05/2022 13:00:06:944] Camera angle: 20.83349
[10/05/2022 13:00:07:27] Camera angle: 26.62207
[10/05/2022 13:00:07:102] Camera angle: 31.83102
[10/05/2022 13:00:07:176] Camera angle: 37.01184
[10/05/2022 13:00:07:248] Camera angle: 42.12682
[10/05/2022 13:00:07:333] Camera angle: 47.96642
[10/05/2022 13:00:07:404] Camera angle: 53.04734
[10/05/2022 13:00:07:478] Camera angle: 58.18554
[10/05/2022 13:00:07:561] Camera angle: 63.96079
[10/05/2022 13:00:07:636] Camera angle: 69.22656
[10/05/2022 13:00:07:708] Camera angle: 74.28831
[10/05/2022 13:00:07:767] right released
[10/05/2022 13:00:08:69] right pressed
[10/05/2022 13:00:08:94] Camera angle: 79.42049
[10/05/2022 13:00:08:169] Camera angle: 84.68352
[10/05/2022 13:00:08:241] Camera angle: 89.77681
[10/05/2022 13:00:08:318] Camera angle: 95.11044
[10/05/2022 13:00:08:401] Camera angle: 100.9294
[10/05/2022 13:00:08:473] Camera angle: 105.9836
[10/05/2022 13:00:08:546] Camera angle: 111.1075
[10/05/2022 13:00:08:628] Camera angle: 116.8655
[10/05/2022 13:00:08:701] Camera angle: 121.9553
[10/05/2022 13:00:08:776] Camera angle: 127.1589
[10/05/2022 13:00:08:851] Camera angle: 132.4135
[10/05/2022 13:00:08:934] Camera angle: 138.2525
[10/05/2022 13:00:09:8] Camera angle: 143.4004
[10/05/2022 13:00:09:34] right released
[10/05/2022 13:00:09:107] left pressed
[10/05/2022 13:00:09:181] Camera angle: 138.3486
[10/05/2022 13:00:09:263] Camera angle: 132.558
[10/05/2022 13:00:09:336] Camera angle: 127.4664
[10/05/2022 13:00:09:409] Camera angle: 122.3142
[10/05/2022 13:00:09:484] Camera angle: 117.1132
[10/05/2022 13:00:09:568] Camera angle: 111.2684
[10/05/2022 13:00:09:642] Camera angle: 106.0892
[10/05/2022 13:00:09:716] Camera angle: 100.879
[10/05/2022 13:00:09:800] Camera angle: 94.94809
[10/05/2022 13:00:09:873] Camera angle: 89.86661
[10/05/2022 13:00:09:947] Camera angle: 84.71597
[10/05/2022 13:00:10:30] Camera angle: 78.93835
[10/05/2022 13:00:10:102] Camera angle: 73.83099
[10/05/2022 13:00:10:176] Camera angle: 68.63912
[10/05/2022 13:00:10:274] Camera angle: 61.8082
[10/05/2022 13:00:10:350] Camera angle: 56.46218
[10/05/2022 13:00:10:434] Camera angle: 50.62965
[10/05/2022 13:00:10:508] Camera angle: 45.45105
[10/05/2022 13:00:10:584] Camera angle: 40.15748
[10/05/2022 13:00:10:661] Camera angle: 34.68884
[10/05/2022 13:00:10:734] Camera angle: 29.61518
[10/05/2022 13:00:10:806] Camera angle: 24.54758
[10/05/2022 13:00:10:881] Camera angle: 19.32743
[10/05/2022 13:00:10:962] Camera angle: 13.60669
[10/05/2022 13:00:11:36] Camera angle: 8.460005
[10/05/2022 13:00:11:109] Camera angle: 3.305778
[10/05/2022 13:00:11:184] Camera angle: 358.151
[10/05/2022 13:00:11:267] Camera angle: 352.3152
[10/05/2022 13:00:11:342] Camera angle: 347.0711
[10/05/2022 13:00:11:416] Camera angle: 341.9107
[10/05/2022 13:00:11:500] Camera angle: 335.9782
[10/05/2022 13:00:11:576] Camera angle: 330.6282
[10/05/2022 13:00:11:653] Camera angle: 325.2816
[10/05/2022 13:00:11:731] Camera angle: 319.9426
[10/05/2022 13:00:11:803] Camera angle: 314.774
[10/05/2022 13:00:11:886] Camera angle: 308.9598
[10/05/2022 13:00:11:960] Camera angle: 303.7913
[10/05/2022 13:00:12:33] Camera angle: 298.6726
[10/05/2022 13:00:12:107] Camera angle: 293.5385
[10/05/2022 13:00:12:183] Camera angle: 288.192
[10/05/2022 13:00:12:262] Camera angle: 282.646
[10/05/2022 13:00:12:344] Camera angle: 276.9569
[10/05/2022 13:00:12:415] Camera angle: 271.869
[10/05/2022 13:00:12:488] Camera angle: 266.7954
[10/05/2022 13:00:12:562] Camera angle: 261.644
[10/05/2022 13:00:12:634] Camera angle: 256.5551
[10/05/2022 13:00:12:708] Camera angle: 251.4167
[10/05/2022 13:00:12:783] Camera angle: 246.2163
[10/05/2022 13:00:12:856] Camera angle: 241.0923
[10/05/2022 13:00:12:930] Camera angle: 235.9159
[10/05/2022 13:00:13:9] Camera angle: 230.3804
[10/05/2022 13:00:13:81] Camera angle: 225.308
[10/05/2022 13:00:13:159] Camera angle: 219.8715
[10/05/2022 13:00:13:231] Camera angle: 214.854
[10/05/2022 13:00:13:309] Camera angle: 209.371
[10/05/2022 13:00:13:355] left released
[10/05/2022 13:00:14:82] right pressed
[10/05/2022 13:00:14:189] Camera angle: 214.5949
[10/05/2022 13:00:14:266] Camera angle: 219.9419
[10/05/2022 13:00:14:342] Camera angle: 225.304
[10/05/2022 13:00:14:418] Camera angle: 230.6342
[10/05/2022 13:00:14:496] Camera angle: 236.0592
[10/05/2022 13:00:14:571] Camera angle: 241.3576
[10/05/2022 13:00:14:648] Camera angle: 246.7417
[10/05/2022 13:00:14:725] Camera angle: 252.1134
[10/05/2022 13:00:14:802] Camera angle: 257.4807
[10/05/2022 13:00:14:878] Camera angle: 262.8298
[10/05/2022 13:00:14:955] Camera angle: 268.1811
[10/05/2022 13:00:15:31] Camera angle: 273.5591
[10/05/2022 13:00:15:107] Camera angle: 278.8626
[10/05/2022 13:00:15:183] Camera angle: 284.1558
[10/05/2022 13:00:15:260] Camera angle: 289.5917
[10/05/2022 13:00:15:332] Camera angle: 294.6486
[10/05/2022 13:00:15:407] Camera angle: 299.8663
[10/05/2022 13:00:15:481] Camera angle: 305.0521
[10/05/2022 13:00:15:554] Camera angle: 310.1576
[10/05/2022 13:00:15:629] Camera angle: 315.3409
[10/05/2022 13:00:15:706] Camera angle: 320.7962
[10/05/2022 13:00:15:782] Camera angle: 326.1007
[10/05/2022 13:00:15:855] Camera angle: 331.219
[10/05/2022 13:00:15:939] Camera angle: 337.0867
[10/05/2022 13:00:16:15] Camera angle: 342.3672
[10/05/2022 13:00:16:87] Camera angle: 347.4415
[10/05/2022 13:00:16:171] Camera angle: 353.3441
[10/05/2022 13:00:16:245] Camera angle: 358.4995
[10/05/2022 13:00:16:318] Camera angle: 3.639845
[10/05/2022 13:00:16:393] Camera angle: 8.835959
[10/05/2022 13:00:16:474] Camera angle: 14.60203
[10/05/2022 13:00:16:548] Camera angle: 19.71439
[10/05/2022 13:00:16:621] Camera angle: 24.86286
[10/05/2022 13:00:16:704] Camera angle: 30.6459
[10/05/2022 13:00:16:779] Camera angle: 35.8585
[10/05/2022 13:00:16:853] Camera angle: 41.0612
[10/05/2022 13:00:16:936] Camera angle: 46.8802
[10/05/2022 13:00:17:9] Camera angle: 52.01777
[10/05/2022 13:00:17:83] Camera angle: 57.17139
[10/05/2022 13:00:17:155] Camera angle: 62.25768
[10/05/2022 13:00:17:238] Camera angle: 68.05028
[10/05/2022 13:00:17:313] Camera angle: 73.32737
[10/05/2022 13:00:17:386] Camera angle: 78.39334
[10/05/2022 13:00:17:470] Camera angle: 84.22774
[10/05/2022 13:00:17:478] right released
[10/05/2022 13:00:17:608] right pressed
[10/05/2022 13:00:17:673] Camera angle: 89.97517
[10/05/2022 13:00:17:747] Camera angle: 95.13384
[10/05/2022 13:00:17:805] right released
[10/05/2022 13:00:17:984] left pressed
[10/05/2022 13:00:18:91] Camera angle: 89.98468
[10/05/2022 13:00:18:173] Camera angle: 84.23656
[10/05/2022 13:00:18:247] Camera angle: 79.08558
[10/05/2022 13:00:18:320] Camera angle: 73.95074
[10/05/2022 13:00:18:394] Camera angle: 68.79491
[10/05/2022 13:00:18:478] Camera angle: 62.96008
[10/05/2022 13:00:18:550] Camera angle: 57.86427
[10/05/2022 13:00:18:624] Camera angle: 52.73806
[10/05/2022 13:00:18:705] Camera angle: 46.96815
[10/05/2022 13:00:18:779] Camera angle: 41.78928
[10/05/2022 13:00:18:853] Camera angle: 36.665
[10/05/2022 13:00:18:927] Camera angle: 31.51687
[10/05/2022 13:00:19:8] Camera angle: 25.72739
[10/05/2022 13:00:19:82] Camera angle: 20.62501
[10/05/2022 13:00:19:155] Camera angle: 15.48553
[10/05/2022 13:00:19:239] Camera angle: 9.669963
[10/05/2022 13:00:19:313] Camera angle: 4.439724
[10/05/2022 13:00:19:382] left released
[10/05/2022 13:00:29:65] right pressed
[10/05/2022 13:00:29:181] Camera angle: 9.724619
[10/05/2022 13:00:29:255] Camera angle: 14.92129
[10/05/2022 13:00:29:327] Camera angle: 19.95516
[10/05/2022 13:00:29:400] Camera angle: 25.08763
[10/05/2022 13:00:29:483] Camera angle: 30.86149
[10/05/2022 13:00:29:558] Camera angle: 36.14258
[10/05/2022 13:00:29:632] Camera angle: 41.26366
[10/05/2022 13:00:29:704] right released
[10/05/2022 13:00:30:565] right pressed
[10/05/2022 13:00:30:565] Camera angle: 46.34899
[10/05/2022 13:00:30:640] Camera angle: 51.54716
[10/05/2022 13:00:30:722] Camera angle: 57.3719
[10/05/2022 13:00:30:787] right released
[10/05/2022 13:00:31:518] right pressed
[10/05/2022 13:00:31:526] Camera angle: 62.46708
[10/05/2022 13:00:31:598] Camera angle: 67.57444
[10/05/2022 13:00:31:674] Camera angle: 72.81074
[10/05/2022 13:00:31:758] Camera angle: 78.65557
[10/05/2022 13:00:31:832] Camera angle: 83.88766
[10/05/2022 13:00:31:907] Camera angle: 89.11598
[10/05/2022 13:00:31:979] Camera angle: 94.19389
[10/05/2022 13:00:32:53] Camera angle: 99.34544
[10/05/2022 13:00:32:126] Camera angle: 104.4394
[10/05/2022 13:00:32:198] Camera angle: 109.5496
[10/05/2022 13:00:32:272] Camera angle: 114.7213
[10/05/2022 13:00:32:346] Camera angle: 119.8674
[10/05/2022 13:00:32:419] Camera angle: 124.9818
[10/05/2022 13:00:32:493] Camera angle: 130.1581
[10/05/2022 13:00:32:570] Camera angle: 135.588
[10/05/2022 13:00:32:648] Camera angle: 141.0048
[10/05/2022 13:00:32:725] Camera angle: 146.3499
[10/05/2022 13:00:32:806] Camera angle: 152.1122
[10/05/2022 13:00:32:888] Camera angle: 157.7687
[10/05/2022 13:00:32:961] Camera angle: 162.9033
[10/05/2022 13:00:33:35] Camera angle: 168.0408
[10/05/2022 13:00:33:115] Camera angle: 173.6949
[10/05/2022 13:00:33:194] Camera angle: 179.276
[10/05/2022 13:00:33:225] right released
[10/05/2022 13:00:33:815] right pressed
[10/05/2022 13:00:33:856] Camera angle: 184.3481
[10/05/2022 13:00:33:933] Camera angle: 189.7278
[10/05/2022 13:00:34:12] Camera angle: 195.2564
[10/05/2022 13:00:34:86] Camera angle: 200.3795
[10/05/2022 13:00:34:165] Camera angle: 205.9651
[10/05/2022 13:00:34:239] Camera angle: 211.1584
[10/05/2022 13:00:34:317] Camera angle: 216.6089
[10/05/2022 13:00:34:339] right released
[10/05/2022 13:00:34:807] right pressed
[10/05/2022 13:00:34:859] Camera angle: 221.9333
[10/05/2022 13:00:34:937] Camera angle: 227.3463
[10/05/2022 13:00:35:12] Camera angle: 232.6349
[10/05/2022 13:00:35:35] right released
[10/05/2022 13:00:36:1] right pressed
[10/05/2022 13:00:36:60] Camera angle: 238.3628
[10/05/2022 13:00:36:136] Camera angle: 243.616
[10/05/2022 13:00:36:194] right released
[10/05/2022 13:00:37:5] right pressed
[10/05/2022 13:00:37:29] Camera angle: 248.6835
[10/05/2022 13:00:37:104] Camera angle: 253.9222
[10/05/2022 13:00:37:179] Camera angle: 259.1207
[10/05/2022 13:00:37:261] Camera angle: 264.8805
[10/05/2022 13:00:37:337] Camera angle: 270.1309
[10/05/2022 13:00:37:409] Camera angle: 275.285
[10/05/2022 13:00:37:493] Camera angle: 281.1145
[10/05/2022 13:00:37:568] Camera angle: 286.3322
[10/05/2022 13:00:37:601] right released
[10/05/2022 13:00:38:162] right pressed
[10/05/2022 13:00:38:195] Camera angle: 291.6088
[10/05/2022 13:00:38:269] Camera angle: 296.7917
[10/05/2022 13:00:38:343] Camera angle: 301.9548
[10/05/2022 13:00:38:362] right released
[10/05/2022 13:00:39:334] right pressed
[10/05/2022 13:00:39:399] Camera angle: 307.1307
[10/05/2022 13:00:39:472] Camera angle: 312.1724
[10/05/2022 13:00:39:544] Camera angle: 317.3222
[10/05/2022 13:00:39:628] Camera angle: 323.1307
[10/05/2022 13:00:39:702] Camera angle: 328.3385
[10/05/2022 13:00:39:776] Camera angle: 333.4589
[10/05/2022 13:00:39:859] Camera angle: 339.3169
[10/05/2022 13:00:39:926] right released
[10/05/2022 13:00:40:477] right pressed
[10/05/2022 13:00:40:494] Camera angle: 344.4494
[10/05/2022 13:00:40:571] Camera angle: 349.8033
[10/05/2022 13:00:40:597] right released
[10/05/2022 13:00:41:398] right pressed
[10/05/2022 13:00:41:446] Camera angle: 355.0122
[10/05/2022 13:00:41:520] Camera angle: 0.1916534
[10/05/2022 13:00:41:527] right released
[10/05/2022 13:00:52:451] right pressed
[10/05/2022 13:00:52:516] Camera angle: 5.282957
[10/05/2022 13:00:52:590] Camera angle: 10.42304
[10/05/2022 13:00:52:672] Camera angle: 16.20327
[10/05/2022 13:00:52:746] Camera angle: 21.41419
[10/05/2022 13:00:52:820] Camera angle: 26.52294
[10/05/2022 13:00:52:893] Camera angle: 31.64
[10/05/2022 13:00:52:975] Camera angle: 37.39643
[10/05/2022 13:00:53:48] Camera angle: 42.54304
[10/05/2022 13:00:53:121] Camera angle: 47.65522
[10/05/2022 13:00:53:195] Camera angle: 52.80147
[10/05/2022 13:00:53:279] Camera angle: 58.64888
[10/05/2022 13:00:53:352] Camera angle: 63.73449
[10/05/2022 13:00:53:424] Camera angle: 68.87766
[10/05/2022 13:00:53:506] Camera angle: 74.60555
[10/05/2022 13:00:53:582] Camera angle: 79.86871
[10/05/2022 13:00:53:655] Camera angle: 84.99567
[10/05/2022 13:00:53:731] Camera angle: 90.28936
[10/05/2022 13:00:53:812] Camera angle: 96.03721
[10/05/2022 13:00:53:885] Camera angle: 101.0896
[10/05/2022 13:00:53:959] Camera angle: 106.2517
[10/05/2022 13:00:54:41] Camera angle: 112.0324
[10/05/2022 13:00:54:114] Camera angle: 117.1535
[10/05/2022 13:00:54:188] Camera angle: 122.3034
[10/05/2022 13:00:54:262] Camera angle: 127.5453
[10/05/2022 13:00:54:347] Camera angle: 133.4438
[10/05/2022 13:00:54:420] Camera angle: 138.557
[10/05/2022 13:00:54:494] Camera angle: 143.7009
[10/05/2022 13:00:54:579] Camera angle: 149.6129
[10/05/2022 13:00:54:657] Camera angle: 155.1696
[10/05/2022 13:00:54:740] Camera angle: 160.904
[10/05/2022 13:00:54:797] right released
[10/05/2022 13:00:55:308] right pressed
[10/05/2022 13:00:55:315] Camera angle: 166.0182
[10/05/2022 13:00:55:388] Camera angle: 171.1673
[10/05/2022 13:00:55:463] Camera angle: 176.3673
[10/05/2022 13:00:55:480] right released
[10/05/2022 13:00:56:978] right pressed
[10/05/2022 13:00:57:43] Camera angle: 181.5142
[10/05/2022 13:00:57:122] Camera angle: 187.152
[10/05/2022 13:00:57:188] right released
[10/05/2022 13:00:58:206] Quiz question: <What country was previously called Formosa>, Target: <Amy>, Distractor: <Paul>, Target_Answer: <Taiwan>, Distractor_Answer: <Indonesia>, Target_correct: <True>
[10/05/2022 13:00:58:206] RightAnswerTask: Showing onscreen question 1
[10/05/2022 13:01:01:598] RightAnswerTask: Correct answer 1 logged (Target correct, D pressed)
[10/05/2022 13:01:02:983] right pressed
[10/05/2022 13:01:02:991] Camera angle: 192.3385
[10/05/2022 13:01:03:65] Camera angle: 197.507
[10/05/2022 13:01:03:138] Camera angle: 202.6203
[10/05/2022 13:01:03:220] Camera angle: 208.3895
[10/05/2022 13:01:03:293] Camera angle: 213.5169
[10/05/2022 13:01:03:368] Camera angle: 218.7089
[10/05/2022 13:01:03:450] Camera angle: 224.4887
[10/05/2022 13:01:03:525] Camera angle: 229.689
[10/05/2022 13:01:03:598] Camera angle: 234.8747
[10/05/2022 13:01:03:672] Camera angle: 240.0302
[10/05/2022 13:01:03:755] Camera angle: 245.8188
[10/05/2022 13:01:03:827] Camera angle: 250.9105
[10/05/2022 13:01:03:901] Camera angle: 256.0661
[10/05/2022 13:01:03:984] Camera angle: 261.8697
[10/05/2022 13:01:04:59] Camera angle: 267.1067
[10/05/2022 13:01:04:132] Camera angle: 272.2476
[10/05/2022 13:01:04:206] Camera angle: 277.4103
[10/05/2022 13:01:04:290] Camera angle: 283.2558
[10/05/2022 13:01:04:364] Camera angle: 288.4541
[10/05/2022 13:01:04:437] Camera angle: 293.5869
[10/05/2022 13:01:04:519] Camera angle: 299.3236
[10/05/2022 13:01:04:593] Camera angle: 304.4614
[10/05/2022 13:01:04:667] Camera angle: 309.671
[10/05/2022 13:01:04:739] Camera angle: 314.7531
[10/05/2022 13:01:04:823] Camera angle: 320.5922
[10/05/2022 13:01:04:897] Camera angle: 325.7399
[10/05/2022 13:01:04:970] Camera angle: 330.8404
[10/05/2022 13:01:05:51] Camera angle: 336.5912
[10/05/2022 13:01:05:59] right released
[10/05/2022 13:01:09:20] right pressed
[10/05/2022 13:01:09:84] Camera angle: 341.6351
[10/05/2022 13:01:09:162] Camera angle: 347.0492
[10/05/2022 13:01:09:169] right released
[10/05/2022 13:01:10:628] right pressed
[10/05/2022 13:01:10:695] Camera angle: 352.3156
[10/05/2022 13:01:10:771] right released
[10/05/2022 13:01:11:728] right pressed
[10/05/2022 13:01:11:728] Camera angle: 358.1578
[10/05/2022 13:01:11:803] Camera angle: 3.39766
[10/05/2022 13:01:11:843] right released
[10/05/2022 13:01:12:571] right pressed
[10/05/2022 13:01:12:605] Camera angle: 8.904672
[10/05/2022 13:01:12:692] Camera angle: 15.06852
[10/05/2022 13:01:12:767] Camera angle: 20.2326
[10/05/2022 13:01:12:839] Camera angle: 25.28709
[10/05/2022 13:01:12:912] Camera angle: 30.43689
[10/05/2022 13:01:12:995] Camera angle: 36.22607
[10/05/2022 13:01:13:69] Camera angle: 41.40116
[10/05/2022 13:01:13:142] Camera angle: 46.50866
[10/05/2022 13:01:13:226] Camera angle: 52.36742
[10/05/2022 13:01:13:299] Camera angle: 57.46611
[10/05/2022 13:01:13:372] Camera angle: 62.61023
[10/05/2022 13:01:13:445] Camera angle: 67.76428
[10/05/2022 13:01:13:528] Camera angle: 73.54288
[10/05/2022 13:01:13:602] Camera angle: 78.72179
[10/05/2022 13:01:13:675] Camera angle: 83.82708
[10/05/2022 13:01:13:749] Camera angle: 88.96815
[10/05/2022 13:01:13:831] Camera angle: 94.78626
[10/05/2022 13:01:13:906] Camera angle: 99.9677
[10/05/2022 13:01:13:971] right released
[10/05/2022 13:01:14:628] right pressed
[10/05/2022 13:01:14:629] Camera angle: 105.1231
[10/05/2022 13:01:14:694] right released
[10/05/2022 13:01:17:85] left pressed
[10/05/2022 13:01:17:204] Camera angle: 99.64126
[10/05/2022 13:01:17:220] left released
[10/05/2022 13:01:18:207] Quiz question: <How many chukkers are there in a polo match?>, Target: <Emma>, Distractor: <Michael>, Target_Answer: <4>, Distractor_Answer: <6>, Target_correct: <False>
[10/05/2022 13:01:18:208] RightAnswerTask: Showing onscreen question 2
[10/05/2022 13:01:18:629] left pressed
[10/05/2022 13:01:18:691] Camera angle: 94.21743
[10/05/2022 13:01:18:721] left released
[10/05/2022 13:01:20:869] RightAnswerTask: Correct answer 2 logged (Distractor correct, D pressed)
[10/05/2022 13:01:26:539] left pressed
[10/05/2022 13:01:26:578] Camera angle: 88.7067
[10/05/2022 13:01:26:656] Camera angle: 83.21723
[10/05/2022 13:01:26:733] Camera angle: 77.80873
[10/05/2022 13:01:26:810] Camera angle: 72.3876
[10/05/2022 13:01:26:883] Camera angle: 67.34093
[10/05/2022 13:01:26:956] Camera angle: 62.22687
[10/05/2022 13:01:27:30] Camera angle: 57.09502
[10/05/2022 13:01:27:107] Camera angle: 51.59768
[10/05/2022 13:01:27:183] Camera angle: 46.29108
[10/05/2022 13:01:27:206] Starting SAGAT 1
[10/05/2022 13:01:27:208] SAGAT question loaded: "What kind of social event is taking place here?" Answers: Workshop ; Focus Group ; Debate ; Exam ; Presentation ; [Quiz] ; )
[10/05/2022 13:01:27:607] left released
[10/05/2022 13:01:42:876] Toggle pressed: Debate
[10/05/2022 13:01:45:258] Toggle pressed: Focus Group
[10/05/2022 13:01:45:259] Toggle pressed: Focus Group
[10/05/2022 13:01:48:407] SAGAT answer given: "Focus Group" (incorrect; "Quiz")
[10/05/2022 13:01:48:408] SAGAT question loaded: "Who last answered incorrectly?" Answers: Paul ; [Emma] ; Megan ; Carol ; Amy ; Michael ; )
[10/05/2022 13:01:58:678] Toggle pressed: Emma
[10/05/2022 13:02:01:413] SAGAT answer given: "Emma" (correct; "Emma")
[10/05/2022 13:02:01:415] SAGAT question loaded: "What is the colour of the quiz master's shirt?" Answers: Brown ; Blue ; White ; Black ; [Green] ; Yellow ; )
[10/05/2022 13:02:06:304] Toggle pressed: Green
[10/05/2022 13:02:07:551] SAGAT answer given: "Green" (correct; "Green")
[10/05/2022 13:02:07:551] SAGAT question loaded: "Who is sitting two seats to the left of the quiz master (your left)?" Answers: Michael ; [Carol] ; Megan ; Emma ; Amy ; Paul ; )
[10/05/2022 13:02:15:136] Toggle pressed: Emma
[10/05/2022 13:02:17:144] SAGAT answer given: "Emma" (incorrect; "Carol")
[10/05/2022 13:02:17:144] SAGAT question loaded: "Who last answered correctly?" Answers: Emma ; Carol ; [Michael] ; Amy ; Paul ; Megan ; )
[10/05/2022 13:02:22:692] Toggle pressed: Paul
[10/05/2022 13:02:28:568] SAGAT answer given: "Paul" (incorrect; "Michael")
[10/05/2022 13:02:28:568] SAGAT Complete
[10/05/2022 13:02:30:805] left pressed
[10/05/2022 13:02:30:837] Camera angle: 41.12472
[10/05/2022 13:02:30:911] Camera angle: 35.91855
[10/05/2022 13:02:30:987] Camera angle: 30.66607
[10/05/2022 13:02:31:70] Camera angle: 24.84222
[10/05/2022 13:02:31:144] Camera angle: 19.6846
[10/05/2022 13:02:31:153] left released
[10/05/2022 13:02:32:754] left pressed
[10/05/2022 13:02:32:820] Camera angle: 14.62691
[10/05/2022 13:02:32:853] left released
[10/05/2022 13:02:33:908] left pressed
[10/05/2022 13:02:33:941] Camera angle: 9.361634
[10/05/2022 13:02:34:15] Camera angle: 4.21287
[10/05/2022 13:02:34:87] Camera angle: 359.1098
[10/05/2022 13:02:34:161] Camera angle: 353.9555
[10/05/2022 13:02:34:244] Camera angle: 348.1819
[10/05/2022 13:02:34:318] Camera angle: 342.9936
[10/05/2022 13:02:34:392] Camera angle: 337.8711
[10/05/2022 13:02:34:474] Camera angle: 332.0426
[10/05/2022 13:02:34:551] Camera angle: 326.6901
[10/05/2022 13:02:34:630] Camera angle: 321.166
[10/05/2022 13:02:34:713] Camera angle: 315.3932
[10/05/2022 13:02:34:793] Camera angle: 309.7164
[10/05/2022 13:02:34:868] Camera angle: 304.4948
[10/05/2022 13:02:34:944] Camera angle: 299.1803
[10/05/2022 13:02:35:28] Camera angle: 293.2877
[10/05/2022 13:02:35:112] Camera angle: 287.3975
[10/05/2022 13:02:35:194] Camera angle: 281.7065
[10/05/2022 13:02:35:268] Camera angle: 276.5077
[10/05/2022 13:02:35:342] Camera angle: 271.3815
[10/05/2022 13:02:35:382] left released
[10/05/2022 13:02:41:582] Quiz question: <Dendrophobia is fear of what>, Target: <Carol>, Distractor: <Michael>, Target_Answer: <Trees>, Distractor_Answer: <Teeth>, Target_correct: <True>
[10/05/2022 13:02:41:582] RightAnswerTask: Showing onscreen question 3
[10/05/2022 13:02:45:447] RightAnswerTask: Correct answer 3 logged (Target correct, A pressed)
[10/05/2022 13:02:57:142] right pressed
[10/05/2022 13:02:57:222] Camera angle: 276.5276
[10/05/2022 13:02:57:302] Camera angle: 282.1328
[10/05/2022 13:02:57:380] Camera angle: 287.5974
[10/05/2022 13:02:57:459] Camera angle: 293.1119
[10/05/2022 13:02:57:538] Camera angle: 298.6036
[10/05/2022 13:02:57:617] Camera angle: 304.1292
[10/05/2022 13:02:57:695] Camera angle: 309.6111
[10/05/2022 13:02:57:774] Camera angle: 315.1862
[10/05/2022 13:02:57:853] Camera angle: 320.6775
[10/05/2022 13:02:57:924] Camera angle: 325.6874
[10/05/2022 13:02:58:4] Camera angle: 331.2144
[10/05/2022 13:02:58:79] Camera angle: 336.5209
[10/05/2022 13:02:58:157] Camera angle: 342.0141
[10/05/2022 13:02:58:236] Camera angle: 347.4901
[10/05/2022 13:02:58:309] Camera angle: 352.5751
[10/05/2022 13:02:58:381] Camera angle: 357.6345
[10/05/2022 13:02:58:454] Camera angle: 2.737569
[10/05/2022 13:02:58:526] Camera angle: 7.793185
[10/05/2022 13:02:58:604] Camera angle: 13.22251
[10/05/2022 13:02:58:679] Camera angle: 18.56549
[10/05/2022 13:02:58:756] Camera angle: 23.92297
[10/05/2022 13:02:58:832] Camera angle: 29.22246
[10/05/2022 13:02:58:908] Camera angle: 34.51432
[10/05/2022 13:02:58:985] Camera angle: 39.89934
[10/05/2022 13:02:59:60] Camera angle: 45.17276
[10/05/2022 13:02:59:75] right released
[10/05/2022 13:03:01:384] right pressed
[10/05/2022 13:03:01:441] Camera angle: 50.29744
[10/05/2022 13:03:01:514] Camera angle: 55.43722
[10/05/2022 13:03:01:589] Camera angle: 60.67191
[10/05/2022 13:03:01:675] Camera angle: 66.63009
[10/05/2022 13:03:01:747] Camera angle: 71.72387
[10/05/2022 13:03:01:822] Camera angle: 76.99514
[10/05/2022 13:03:01:906] Camera angle: 82.84061
[10/05/2022 13:03:01:940] right released
[10/05/2022 13:03:02:315] right pressed
[10/05/2022 13:03:02:373] Camera angle: 88.61481
[10/05/2022 13:03:02:447] Camera angle: 93.78175
[10/05/2022 13:03:02:522] Camera angle: 99.07476
[10/05/2022 13:03:02:555] right released
[10/05/2022 13:03:02:579] Quiz question: <What was the first movie to be rated PG-13>, Target: <Michael>, Distractor: <Carol>, Target_Answer: <Gone with the Wind>, Distractor_Answer: <Red Dawn>, Target_correct: <False>
[10/05/2022 13:03:02:579] RightAnswerTask: Showing onscreen question 4
[10/05/2022 13:03:05:948] RightAnswerTask: Correct answer 4 logged (Distractor correct, D pressed)
[10/05/2022 13:03:09:862] right pressed
[10/05/2022 13:03:09:911] Camera angle: 104.7707
[10/05/2022 13:03:09:985] Camera angle: 109.9793
[10/05/2022 13:03:09:993] right released
[10/05/2022 13:03:10:132] left pressed
[10/05/2022 13:03:10:197] Camera angle: 104.8652
[10/05/2022 13:03:10:281] Camera angle: 99.0236
[10/05/2022 13:03:10:352] Camera angle: 94.0045
[10/05/2022 13:03:10:426] Camera angle: 88.83452
[10/05/2022 13:03:10:509] Camera angle: 83.03275
[10/05/2022 13:03:10:583] Camera angle: 77.81688
[10/05/2022 13:03:10:656] Camera angle: 72.72357
[10/05/2022 13:03:10:730] Camera angle: 67.57604
[10/05/2022 13:03:10:811] Camera angle: 61.82738
[10/05/2022 13:03:10:885] Camera angle: 56.69711
[10/05/2022 13:03:10:958] Camera angle: 51.56473
[10/05/2022 13:03:11:33] Camera angle: 46.38626
[10/05/2022 13:03:11:117] Camera angle: 40.49304
[10/05/2022 13:03:11:135] left released
[10/05/2022 13:03:11:518] left pressed
[10/05/2022 13:03:11:567] Camera angle: 35.34122
[10/05/2022 13:03:11:652] Camera angle: 29.41396
[10/05/2022 13:03:11:725] Camera angle: 24.24082
[10/05/2022 13:03:11:800] Camera angle: 19.0588
[10/05/2022 13:03:11:824] left released
[10/05/2022 13:03:12:352] left pressed
[10/05/2022 13:03:12:392] Camera angle: 13.71855
[10/05/2022 13:03:12:452] left released
[10/05/2022 13:03:14:601] left pressed
[10/05/2022 13:03:14:617] Camera angle: 8.503227
[10/05/2022 13:03:14:694] Camera angle: 3.068552
[10/05/2022 13:03:14:766] Camera angle: 358.0497
[10/05/2022 13:03:14:843] Camera angle: 352.5952
[10/05/2022 13:03:14:916] Camera angle: 347.5689
[10/05/2022 13:03:14:993] Camera angle: 342.0959
[10/05/2022 13:03:15:79] Camera angle: 336.1072
[10/05/2022 13:03:15:156] Camera angle: 330.7126
[10/05/2022 13:03:15:209] left released
[10/05/2022 13:03:15:733] left pressed
[10/05/2022 13:03:15:756] Camera angle: 325.3822
[10/05/2022 13:03:15:798] left released
[10/05/2022 13:03:16:988] left pressed
[10/05/2022 13:03:17:21] Camera angle: 319.615
[10/05/2022 13:03:17:88] left released
[10/05/2022 13:03:22:589] Quiz question: <What is the surface area of the Earth?>, Target: <Paul>, Distractor: <Emma>, Target_Answer: <510 million km>, Distractor_Answer: <197 million km>, Target_correct: <True>
[10/05/2022 13:03:22:590] RightAnswerTask: Showing onscreen question 5
[10/05/2022 13:03:24:848] RightAnswerTask: Correct answer 5 logged (Target correct, A pressed)
[10/05/2022 13:03:28:580] Video time: 187
[10/05/2022 13:03:33:603] Video time: 192
[10/05/2022 13:03:35:427] left pressed
[10/05/2022 13:03:35:459] Camera angle: 313.3944
[10/05/2022 13:03:35:532] Camera angle: 308.2761
[10/05/2022 13:03:35:605] Camera angle: 303.2321
[10/05/2022 13:03:35:683] Camera angle: 297.7457
[10/05/2022 13:03:35:762] Camera angle: 292.2543
[10/05/2022 13:03:35:840] Camera angle: 286.7188
[10/05/2022 13:03:35:919] Camera angle: 281.1941
[10/05/2022 13:03:35:991] Camera angle: 276.1912
[10/05/2022 13:03:36:67] Camera angle: 270.8851
[10/05/2022 13:03:36:139] Camera angle: 265.8717
[10/05/2022 13:03:36:217] Camera angle: 260.3486
[10/05/2022 13:03:36:290] Camera angle: 255.3118
[10/05/2022 13:03:36:367] Camera angle: 249.8273
[10/05/2022 13:03:36:439] Camera angle: 244.8145
[10/05/2022 13:03:36:517] Camera angle: 239.3362
[10/05/2022 13:03:36:590] Camera angle: 234.2472
[10/05/2022 13:03:36:668] Camera angle: 228.7771
[10/05/2022 13:03:36:740] Camera angle: 223.7572
[10/05/2022 13:03:36:818] Camera angle: 218.2752
[10/05/2022 13:03:36:890] Camera angle: 213.2568
[10/05/2022 13:03:36:962] Camera angle: 208.2524
[10/05/2022 13:03:37:42] Camera angle: 202.5844
[10/05/2022 13:03:37:118] Camera angle: 197.286
[10/05/2022 13:03:37:196] Camera angle: 191.8635
[10/05/2022 13:03:37:272] Camera angle: 186.4523
[10/05/2022 13:03:37:287] left released
[10/05/2022 13:03:37:674] left pressed
[10/05/2022 13:03:37:735] Camera angle: 181.1524
[10/05/2022 13:03:37:804] left released
[10/05/2022 13:03:38:590] Video time: 197
[10/05/2022 13:03:41:598] Quiz question: <When was the first digital computer invented>, Target: <Amy>, Distractor: <Michael>, Target_Answer: <1960>, Distractor_Answer: <1946>, Target_correct: <False>
[10/05/2022 13:03:41:598] RightAnswerTask: Showing onscreen question 6
[10/05/2022 13:03:42:872] RightAnswerTask: Correct answer 6 logged (Distractor correct, D pressed)
[10/05/2022 13:03:43:576] Video time: 202
[10/05/2022 13:03:45:865] left pressed
[10/05/2022 13:03:45:882] Camera angle: 175.1386
[10/05/2022 13:03:45:955] Camera angle: 170.0163
[10/05/2022 13:03:46:29] Camera angle: 164.8124
[10/05/2022 13:03:46:111] Camera angle: 159.11
[10/05/2022 13:03:46:186] Camera angle: 153.8645
[10/05/2022 13:03:46:260] Camera angle: 148.6916
[10/05/2022 13:03:46:334] Camera angle: 143.4477
[10/05/2022 13:03:46:419] Camera angle: 137.5398
[10/05/2022 13:03:46:492] Camera angle: 132.4675
[10/05/2022 13:03:46:566] Camera angle: 127.2989
[10/05/2022 13:03:46:648] Camera angle: 121.5073
[10/05/2022 13:03:46:721] Camera angle: 116.4143
[10/05/2022 13:03:46:795] Camera angle: 111.2265
[10/05/2022 13:03:46:869] Camera angle: 106.0556
[10/05/2022 13:03:46:952] Camera angle: 100.2097
[10/05/2022 13:03:47:26] Camera angle: 95.04583
[10/05/2022 13:03:47:101] Camera angle: 89.80621
[10/05/2022 13:03:47:185] Camera angle: 83.89737
[10/05/2022 13:03:47:257] Camera angle: 78.83595
[10/05/2022 13:03:47:331] Camera angle: 73.71834
[10/05/2022 13:03:47:413] Camera angle: 67.96682
[10/05/2022 13:03:47:486] Camera angle: 62.83915
[10/05/2022 13:03:47:560] Camera angle: 57.64885
[10/05/2022 13:03:47:635] Camera angle: 52.41948
[10/05/2022 13:03:47:719] Camera angle: 46.56804
[10/05/2022 13:03:47:792] Camera angle: 41.39671
[10/05/2022 13:03:47:867] Camera angle: 36.1914
[10/05/2022 13:03:47:951] Camera angle: 30.2586
[10/05/2022 13:03:47:958] left released
[10/05/2022 13:03:48:585] Video time: 207
[10/05/2022 13:03:48:718] left pressed
[10/05/2022 13:03:48:784] Camera angle: 24.30013
[10/05/2022 13:03:48:857] Camera angle: 19.24059
[10/05/2022 13:03:48:930] Camera angle: 14.09585
[10/05/2022 13:03:49:7] Camera angle: 8.72403
[10/05/2022 13:03:49:85] Camera angle: 3.251166
[10/05/2022 13:03:49:162] Camera angle: 357.8517
[10/05/2022 13:03:49:237] Camera angle: 352.6163
[10/05/2022 13:03:49:320] Camera angle: 346.8301
[10/05/2022 13:03:49:394] Camera angle: 341.6416
[10/05/2022 13:03:49:468] Camera angle: 336.4268
[10/05/2022 13:03:49:541] Camera angle: 331.3476
[10/05/2022 13:03:49:615] Camera angle: 326.1692
[10/05/2022 13:03:49:687] Camera angle: 321.0623
[10/05/2022 13:03:49:702] left released
[10/05/2022 13:03:50:144] left pressed
[10/05/2022 13:03:50:192] Camera angle: 315.9908
[10/05/2022 13:03:50:267] Camera angle: 310.7812
[10/05/2022 13:03:50:339] Camera angle: 305.7232
[10/05/2022 13:03:50:363] left released
[10/05/2022 13:03:50:616] right pressed
[10/05/2022 13:03:50:697] Camera angle: 310.9095
[10/05/2022 13:03:50:770] Camera angle: 316.0048
[10/05/2022 13:03:50:850] Camera angle: 321.6403
[10/05/2022 13:03:50:882] right released
[10/05/2022 13:03:51:134] right pressed
[10/05/2022 13:03:51:180] Camera angle: 327.0406
[10/05/2022 13:03:51:258] Camera angle: 332.5056
[10/05/2022 13:03:51:335] Camera angle: 337.962
[10/05/2022 13:03:51:407] Camera angle: 342.9764
[10/05/2022 13:03:51:455] right released
[10/05/2022 13:03:53:577] Video time: 212
[10/05/2022 13:03:55:544] left pressed
[10/05/2022 13:03:55:643] Camera angle: 337.6196
[10/05/2022 13:03:55:725] Camera angle: 331.8052
[10/05/2022 13:03:55:798] Camera angle: 326.7051
[10/05/2022 13:03:55:873] Camera angle: 321.5253
[10/05/2022 13:03:55:955] Camera angle: 315.7544
[10/05/2022 13:03:56:28] Camera angle: 310.5758
[10/05/2022 13:03:56:102] Camera angle: 305.451
[10/05/2022 13:03:56:143] left released
[10/05/2022 13:03:56:700] left pressed
[10/05/2022 13:03:56:733] Camera angle: 300.3445
[10/05/2022 13:03:56:807] Camera angle: 295.1913
[10/05/2022 13:03:56:890] Camera angle: 289.4071
[10/05/2022 13:03:56:899] left released
[10/05/2022 13:03:58:581] Video time: 217
[10/05/2022 13:04:02:588] Quiz question: <What species of land animal has the largest eyes>, Target: <Paul>, Distractor: <Emma>, Target_Answer: <Elephant>, Distractor_Answer: <Ostrich>, Target_correct: <False>
[10/05/2022 13:04:02:589] RightAnswerTask: Showing onscreen question 7
[10/05/2022 13:04:03:585] Video time: 222
[10/05/2022 13:04:05:449] RightAnswerTask: Correct answer 7 logged (Distractor correct, D pressed)
[10/05/2022 13:04:08:575] Video time: 227
[10/05/2022 13:04:10:125] right pressed
[10/05/2022 13:04:10:195] Camera angle: 294.8635
[10/05/2022 13:04:10:267] Camera angle: 299.8824
[10/05/2022 13:04:10:346] Camera angle: 305.3765
[10/05/2022 13:04:10:424] Camera angle: 310.9274
[10/05/2022 13:04:10:504] Camera angle: 316.4632
[10/05/2022 13:04:10:582] Camera angle: 321.9596
[10/05/2022 13:04:10:654] Camera angle: 326.9764
[10/05/2022 13:04:10:733] Camera angle: 332.4539
[10/05/2022 13:04:10:804] Camera angle: 337.4721
[10/05/2022 13:04:10:882] right released
[10/05/2022 13:04:11:497] right pressed
[10/05/2022 13:04:11:497] Camera angle: 342.9424
[10/05/2022 13:04:11:575] right released
[10/05/2022 13:04:12:987] right pressed
[10/05/2022 13:04:12:988] Camera angle: 348.4296
[10/05/2022 13:04:13:61] Camera angle: 353.5153
[10/05/2022 13:04:13:134] Camera angle: 358.7147
[10/05/2022 13:04:13:142] right released
[10/05/2022 13:04:13:607] Video time: 232
[10/05/2022 13:04:13:741] right pressed
[10/05/2022 13:04:13:806] Camera angle: 4.54178
[10/05/2022 13:04:13:879] Camera angle: 9.64086
[10/05/2022 13:04:13:954] Camera angle: 14.85944
[10/05/2022 13:04:14:27] Camera angle: 19.96393
[10/05/2022 13:04:14:112] Camera angle: 25.87099
[10/05/2022 13:04:14:185] Camera angle: 31.09126
[10/05/2022 13:04:14:259] Camera angle: 36.20176
[10/05/2022 13:04:14:343] Camera angle: 42.06096
[10/05/2022 13:04:14:416] Camera angle: 47.22644
[10/05/2022 13:04:14:490] Camera angle: 52.36782
[10/05/2022 13:04:14:574] Camera angle: 58.25309
[10/05/2022 13:04:14:647] Camera angle: 63.38931
[10/05/2022 13:04:14:722] Camera angle: 68.57201
[10/05/2022 13:04:14:795] Camera angle: 73.73999
[10/05/2022 13:04:14:878] Camera angle: 79.54114
[10/05/2022 13:04:14:952] Camera angle: 84.73785
[10/05/2022 13:04:15:26] Camera angle: 89.84334
[10/05/2022 13:04:15:109] Camera angle: 95.69791
[10/05/2022 13:04:15:182] Camera angle: 100.8692
[10/05/2022 13:04:15:215] right released
[10/05/2022 13:04:15:677] right pressed
[10/05/2022 13:04:15:719] Camera angle: 106.0158
[10/05/2022 13:04:15:793] Camera angle: 111.2292
[10/05/2022 13:04:15:811] right released
[10/05/2022 13:04:18:591] Video time: 237
[10/05/2022 13:04:20:586] Quiz question: <Who was the first performer at Woodstock>, Target: <Emma>, Distractor: <Paul>, Target_Answer: <Fleetwood Mac>, Distractor_Answer: <Richie Havens>, Target_correct: <False>
[10/05/2022 13:04:20:587] RightAnswerTask: Showing onscreen question 8
[10/05/2022 13:04:23:585] Video time: 242
[10/05/2022 13:04:25:324] RightAnswerTask: Correct answer 8 logged (Distractor correct, D pressed)
[10/05/2022 13:04:28:585] Video time: 247
[10/05/2022 13:04:31:978] right pressed
[10/05/2022 13:04:32:42] Camera angle: 116.2754
[10/05/2022 13:04:32:66] right released
[10/05/2022 13:04:32:336] right pressed
[10/05/2022 13:04:32:394] Camera angle: 121.9359
[10/05/2022 13:04:32:467] Camera angle: 127.0549
[10/05/2022 13:04:32:541] Camera angle: 132.2239
[10/05/2022 13:04:32:615] Camera angle: 137.4008
[10/05/2022 13:04:32:698] Camera angle: 143.2521
[10/05/2022 13:04:32:772] Camera angle: 148.4562
[10/05/2022 13:04:32:847] Camera angle: 153.6655
[10/05/2022 13:04:32:931] Camera angle: 159.5536
[10/05/2022 13:04:33:5] Camera angle: 164.7198
[10/05/2022 13:04:33:80] Camera angle: 169.9549
[10/05/2022 13:04:33:164] Camera angle: 175.8759
[10/05/2022 13:04:33:238] Camera angle: 181.002
[10/05/2022 13:04:33:312] Camera angle: 186.1475
[10/05/2022 13:04:33:394] Camera angle: 191.9334
[10/05/2022 13:04:33:466] Camera angle: 197.0262
[10/05/2022 13:04:33:540] Camera angle: 202.1992
[10/05/2022 13:04:33:581] Video time: 252
[10/05/2022 13:04:33:614] Camera angle: 207.3747
[10/05/2022 13:04:33:698] Camera angle: 213.2313
[10/05/2022 13:04:33:773] Camera angle: 218.4407
[10/05/2022 13:04:33:847] Camera angle: 223.7016
[10/05/2022 13:04:33:931] Camera angle: 229.5352
[10/05/2022 13:04:34:5] Camera angle: 234.6891
[10/05/2022 13:04:34:80] Camera angle: 239.9447
[10/05/2022 13:04:34:163] Camera angle: 245.7721
[10/05/2022 13:04:34:236] Camera angle: 250.8965
[10/05/2022 13:04:34:311] Camera angle: 256.1194
[10/05/2022 13:04:34:400] Camera angle: 262.3364
[10/05/2022 13:04:34:473] Camera angle: 267.5089
[10/05/2022 13:04:34:547] Camera angle: 272.6879
[10/05/2022 13:04:34:630] Camera angle: 278.5153
[10/05/2022 13:04:34:706] Camera angle: 283.783
[10/05/2022 13:04:34:781] Camera angle: 288.9998
[10/05/2022 13:04:34:864] Camera angle: 294.8358
[10/05/2022 13:04:34:937] Camera angle: 299.9901
[10/05/2022 13:04:35:12] Camera angle: 305.2313
[10/05/2022 13:04:35:95] Camera angle: 311.0498
[10/05/2022 13:04:35:104] right released
[10/05/2022 13:04:35:234] right pressed
[10/05/2022 13:04:35:300] Camera angle: 316.9263
[10/05/2022 13:04:35:374] Camera angle: 322.1469
[10/05/2022 13:04:35:447] Camera angle: 327.2409
[10/05/2022 13:04:35:532] Camera angle: 333.1567
[10/05/2022 13:04:35:605] Camera angle: 338.3005
[10/05/2022 13:04:35:680] Camera angle: 343.543
[10/05/2022 13:04:35:698] right released
[10/05/2022 13:04:35:812] right pressed
[10/05/2022 13:04:35:877] Camera angle: 348.7058
[10/05/2022 13:04:35:950] Camera angle: 353.8137
[10/05/2022 13:04:36:34] Camera angle: 359.6765
[10/05/2022 13:04:36:108] Camera angle: 4.890107
[10/05/2022 13:04:36:181] Camera angle: 9.975657
[10/05/2022 13:04:36:265] Camera angle: 15.82258
[10/05/2022 13:04:36:339] Camera angle: 20.99391
[10/05/2022 13:04:36:413] Camera angle: 26.21093
[10/05/2022 13:04:36:496] Camera angle: 32.04573
[10/05/2022 13:04:36:570] Camera angle: 37.21449
[10/05/2022 13:04:36:646] right released
[10/05/2022 13:04:38:584] Video time: 257
[10/05/2022 13:04:41:581] Quiz question: <Where are the most Trappist breweries>, Target: <Michael>, Distractor: <Carol>, Target_Answer: <Denmark>, Distractor_Answer: <Belgium>, Target_correct: <False>
[10/05/2022 13:04:41:581] RightAnswerTask: Showing onscreen question 9
[10/05/2022 13:04:42:972] RightAnswerTask: Correct answer 9 logged (Distractor correct, A pressed)
[10/05/2022 13:04:43:585] Video time: 262
[10/05/2022 13:04:46:579] Starting SAGAT 2
[10/05/2022 13:04:46:581] SAGAT question loaded: "Who is the quiz master?" Answers: Emma ; [Megan] ; Michael ; Carol ; Amy ; Paul ; )
[10/05/2022 13:04:51:119] Toggle pressed: Megan
[10/05/2022 13:04:53:351] SAGAT answer given: "Megan" (correct; "Megan")
[10/05/2022 13:04:53:353] SAGAT question loaded: "Who is sitting two seats to the right of the quiz master (your right)?" Answers: [Emma] ; Carol ; Amy ; Michael ; Paul ; Megan ; )
[10/05/2022 13:04:57:754] Toggle pressed: Carol
[10/05/2022 13:04:59:914] SAGAT answer given: "Carol" (incorrect; "Emma")
[10/05/2022 13:04:59:915] SAGAT question loaded: "Who was asked to answer a question most recently?" Answers: Amy ; Megan ; [Michael] ; Emma ; Carol ; Paul ; )
[10/05/2022 13:05:07:720] Toggle pressed: Michael
[10/05/2022 13:05:10:216] SAGAT answer given: "Michael" (correct; "Michael")
[10/05/2022 13:05:10:217] SAGAT question loaded: "Who last answered incorrectly?" Answers: Carol ; Megan ; Emma ; Paul ; [Michael] ; Amy ; )
[10/05/2022 13:05:14:868] Toggle pressed: Michael
[10/05/2022 13:05:17:664] SAGAT answer given: "Michael" (correct; "Michael")
[10/05/2022 13:05:17:664] SAGAT question loaded: "What is the colour of the quiz master's shirt?" Answers: Yellow ; Brown ; Blue ; Black ; [Green] ; White ; )
[10/05/2022 13:05:22:790] Toggle pressed: Green
[10/05/2022 13:05:24:40] SAGAT answer given: "Green" (correct; "Green")
[10/05/2022 13:05:24:40] SAGAT Complete
[10/05/2022 13:05:26:42] Video time: 267
[10/05/2022 13:05:27:206] left pressed
[10/05/2022 13:05:27:340] left released
[10/05/2022 13:05:27:511] left pressed
[10/05/2022 13:05:27:512] Camera angle: 31.17563
[10/05/2022 13:05:27:587] Camera angle: 25.93062
[10/05/2022 13:05:27:645] left released
[10/05/2022 13:05:27:791] left pressed
[10/05/2022 13:05:27:816] Camera angle: 20.83572
[10/05/2022 13:05:27:890] Camera angle: 15.71206
[10/05/2022 13:05:27:909] left released
[10/05/2022 13:05:28:83] left pressed
[10/05/2022 13:05:28:148] Camera angle: 10.52401
[10/05/2022 13:05:28:190] left released
[10/05/2022 13:05:31:60] Video time: 272
[10/05/2022 13:05:33:11] left pressed
[10/05/2022 13:05:33:45] Camera angle: 5.00266
[10/05/2022 13:05:33:121] Camera angle: 359.7037
[10/05/2022 13:05:33:199] Camera angle: 354.2529
[10/05/2022 13:05:33:274] Camera angle: 348.9691
[10/05/2022 13:05:33:353] Camera angle: 343.5357
[10/05/2022 13:05:33:428] Camera angle: 338.2458
[10/05/2022 13:05:33:506] Camera angle: 332.7662
[10/05/2022 13:05:33:580] Camera angle: 327.5943
[10/05/2022 13:05:33:654] Camera angle: 322.4106
[10/05/2022 13:05:33:728] Camera angle: 317.2333
[10/05/2022 13:05:33:811] Camera angle: 311.3807
[10/05/2022 13:05:33:886] Camera angle: 306.1685
[10/05/2022 13:05:33:960] Camera angle: 301.0262
[10/05/2022 13:05:34:33] Camera angle: 295.8626
[10/05/2022 13:05:34:116] Camera angle: 290.074
[10/05/2022 13:05:34:189] Camera angle: 284.9692
[10/05/2022 13:05:34:263] Camera angle: 279.8134
[10/05/2022 13:05:34:347] Camera angle: 273.9506
[10/05/2022 13:05:34:420] Camera angle: 268.7677
[10/05/2022 13:05:34:493] Camera angle: 263.63
[10/05/2022 13:05:34:568] Camera angle: 258.4702
[10/05/2022 13:05:34:585] left released
[10/05/2022 13:05:35:20] left pressed
[10/05/2022 13:05:35:87] Camera angle: 253.1623
[10/05/2022 13:05:35:161] Camera angle: 248.0247
[10/05/2022 13:05:35:220] left released
[10/05/2022 13:05:36:53] Video time: 277
[10/05/2022 13:05:39:23] right pressed
[10/05/2022 13:05:39:63] Quiz question: <How many countries are there in the Southern Hemisphere>, Target: <Emma>, Distractor: <Paul>, Target_Answer: <35>, Distractor_Answer: <32>, Target_correct: <False>
[10/05/2022 13:05:39:64] RightAnswerTask: Showing onscreen question 10
[10/05/2022 13:05:39:120] Camera angle: 253.1384
[10/05/2022 13:05:39:194] Camera angle: 258.286
[10/05/2022 13:05:39:268] Camera angle: 263.4889
[10/05/2022 13:05:39:352] Camera angle: 269.3466
[10/05/2022 13:05:39:435] Camera angle: 275.2231
[10/05/2022 13:05:39:523] Camera angle: 281.3469
[10/05/2022 13:05:39:605] right released
[10/05/2022 13:05:40:793] RightAnswerTask: Correct answer 10 logged (Distractor correct, D pressed)
[10/05/2022 13:05:41:40] Video time: 282
[10/05/2022 13:05:46:44] Video time: 287
[10/05/2022 13:05:48:380] Video finished
[10/05/2022 13:06:00:202] Escape pressed during experiment
[10/05/2022 13:06:00:203] Log creation for experiment proper...
